1<Order Number - <b>4000010142</b>>


Order Date - 2014-09-03 22:45:37
Order Status - 1 - confirmed and paid


2<Products>

<b>SHANORE</b> - Claddagh and Celtic 14K White Gold Wedding Ring (P/N - BR4W)
Gift Wrap = NO
Size = 5
Price = 701.10
QTY = 1
Total = 701.10

2<Billing and Shipping Information>

Wrap note = 

<b>Billing address</b>
 Brittany Jenkins
336 Columbus Ave

Lebanon
OH&nbsp;45036
United States

<b>Delivery address</b>
Brittany Jenkins
40 Cemetery Ridge Apt 46

Fort Thomas
KY41075
United States

Fedex Priority (1-2 business days)

SUB total= 701.10

Delivery= 0.00

<b>TOTAL= 701.10</b>

