1<Order Number - <b>4000015624</b>>


Order Date - 2014-09-13 17:27:09
Order Status - 9 - payment failed


2<Products>

<b>SHANORE</b> - Celtic diamond solitaire white gold round cut.  (P/N - JP1W)
Gift Wrap = YES
Size = 8
Price = 2,452.00
QTY = 1
Total = 2,452.00

2<Billing and Shipping Information>

Wrap note = 

<b>Billing address</b>
 Lawrence  Norton
531 W Rocker Circle

Wasilla
AK&nbsp;99654
United States

<b>Delivery address</b>
 






Fedex Priority (1-2 business days)

SUB total= 2,452.00

Delivery= 0.00

<b>TOTAL= 2,452.00</b>

