1<Order Number - <b>4000022754</b>>


Order Date - 2014-09-15 06:36:22
Order Status - 1 - confirmed and paid


2<Products>

<b>SHANORE</b> - Celtic Trinity Knot Two Tone 14K Gold Gents Wedding Ring (P/N - BR7YW)
Gift Wrap = NO
Size = 10
Price = 1,578.00
QTY = 1
Total = 1,578.00

2<Billing and Shipping Information>

Wrap note = 

<b>Billing address</b>
 Theodore McFall
305 E 12th Street

San Juan
TX&nbsp;78589
US

<b>Delivery address</b>







Registered mail (4-7 business days)

SUB total= 1,578.00

Delivery= 0.00

<b>TOTAL= 1,578.00</b>

