1<Order Number - <b>4000023040</b>>


Order Date - 2014-09-18 21:45:38
Order Status - 1 - confirmed and paid


2<Products>

<b>SHANORE</b> - Claddagh February Birthstone Ring (P/N - SL90AY)
Gift Wrap = NO
Size = 5.5
Price = 77.00
QTY = 1
Total = 77.00

2<Billing and Shipping Information>

Wrap note = 

<b>Billing address</b>
 Shannon Tierney
22 Roosevelt rd Apt4

Quincy
Ma&nbsp;02169
United States

<b>Delivery address</b>
Shawn Tierney
15 Buttermilk cir

Scituate
Ma02066
United States

Registered mail (4-7 business days)

SUB total= 77.00

Delivery= 0.00

<b>TOTAL= 77.00</b>

