1<Order Number - <b>4000023074</b>>


Order Date - 2014-09-21 00:17:23
Order Status - 1 - confirmed and paid


2<Products>

<b>SHANORE</b> - Ladies Celtic Recessed pressure set Diamond Wedding Ring (P/N - 14IC53W)
Gift Wrap = NO
Size = 8.5
Price = 924.00
QTY = 1
Total = 924.00

2<Billing and Shipping Information>

Wrap note = 

<b>Billing address</b>
 Matthew Molitor
2264 W Silver River Way

Tucson
AZ&nbsp;85745
US

<b>Delivery address</b>







Registered mail (4-7 business days)

SUB total= 924.00

Delivery= 0.00

<b>TOTAL= 924.00</b>

