1<Order Number - <b>4000023140</b>>


Order Date - 2014-09-25 22:39:13
Order Status - 1 - confirmed and paid


2<Products>

<b>SHANORE</b> - Claddagh Sterling Silver Ring with Real 10K Gold Heart (P/N - SL96)
Gift Wrap = NO
Size = 8
Price = 180.00
QTY = 1
Total = 180.00

2<Billing and Shipping Information>

Wrap note = 

<b>Billing address</b>
 Lauren Hodgson
280 Sadler Ln #203

North Liberty
Iowa&nbsp;52317
United States

<b>Delivery address</b>
 






Registered mail (4-7 business days)

SUB total= 180.00

Delivery= 0.00

<b>TOTAL= 180.00</b>

