1<Order Number - <b>4000023271</b>>


Order Date - 2014-10-04 14:24:44
Order Status - 2 - dispatched / resolved


2<Products>

<b>SHANORE</b> - Silver Claddagh intertwining Design (P/N - SL46)
Gift Wrap = NO
Size = 7
Price = 56.00
QTY = 1
Total = 56.00

2<Billing and Shipping Information>

Wrap note = 

<b>Billing address</b>
 Suzanne Dean
5240 Turnberry Ln

Sylvania
OH&nbsp;43560
United States

<b>Delivery address</b>
Maureen Dean
70 C Stewart St

Athens
OH45701
United States

Registered mail (4-7 business days)

SUB total= 56.00

Delivery= 0.00

<b>TOTAL= 56.00</b>

