1<Order Number - <b>4000023457</b>>


Order Date - 2014-10-15 00:20:04
Order Status - 1 - confirmed and paid


2<Products>

<b>SHANORE</b> - Mother Trinity Pendant (P/N - MP - T)
Gift Wrap = NO
Size = <br/>More info: undefined, October, February
Price = 132.00
QTY = 1
Total = 132.00

2<Billing and Shipping Information>

Wrap note = 

<b>Billing address</b>
 Douglas Rine
203 N Sunset Blvd

Gulf breeze
Fl&nbsp;32561
United States

<b>Delivery address</b>
 






Fedex Priority (1-2 business days)

SUB total= 132.00

Delivery= 30.00

<b>TOTAL= 132.00</b>

