1<Order Number - <b>4000023536</b>>


Order Date - 2014-10-20 02:02:13
Order Status - 1 - confirmed and paid


2<Products>

<b>SHANORE</b> - Gents Silver Claddagh Celtic wedding Ring (P/N - SD9)
Gift Wrap = NO
Size = 10
Price = 120.00
QTY = 1
Total = 120.00

<b>SHANORE</b> - Claddagh Birthstone Ring March (P/N - SL90AQ)
Gift Wrap = NO
Size = 9
Price = 77.00
QTY = 1
Total = 77.00

2<Billing and Shipping Information>

Wrap note = 

<b>Billing address</b>
 Steve Kearney
8450 Arista Pl apt 104
8450 Arista PL apt 104
Broomfield
Co&nbsp;80021
United States

<b>Delivery address</b>
 






Fedex Priority (1-2 business days)

SUB total= 197.00

Delivery= 30.00

<b>TOTAL= 77.00</b>

