1<Order Number - <b>4000023569</b>>


Order Date - 2014-10-20 19:58:53
Order Status - 1 - confirmed and paid


2<Products>

<b>SHANORE</b> - Mother Shamrock Pendant (P/N - MP - S)
Gift Wrap = NO
Size = <br/>More info: undefined, April, February, September, October
Price = 157.00
QTY = 1
Total = 157.00

2<Billing and Shipping Information>

Wrap note = 

<b>Billing address</b>
 ROBERT LYMAN
792 WORTHAM DRIVE

MUNDELEIN
IL&nbsp;60060
United States

<b>Delivery address</b>
 






Registered mail (4-7 business days)

SUB total= 157.00

Delivery= 0.00

<b>TOTAL= 157.00</b>

