1<Order Number - <b>4000023788</b>>


Order Date - 2014-11-02 22:26:26
Order Status - 1 - confirmed and paid


2<Products>

<b>SHANORE</b> - Silver Triple Claddagh Ring (P/N - SL25)
Gift Wrap = NO
Size = 6.5
Price = 61.00
QTY = 1
Total = 61.00

2<Billing and Shipping Information>

Wrap note = 

<b>Billing address</b>
 Brittany Vellutini
5817 W. Ellery Ave

Fresno
CA&nbsp;93722
United States

<b>Delivery address</b>
 






Registered mail (4-7 business days)

SUB total= 61.00

Delivery= 0.00

<b>TOTAL= 61.00</b>

