1<Order Number - <b>4000023810</b>>


Order Date - 2014-11-03 23:07:18
Order Status - 1 - confirmed and paid


2<Products>

<b>SHANORE</b> - Celtic Silver Cross with Gold Plate Trinity (P/N - SF11)
Gift Wrap = NO
Size = -
Price = 105.00
QTY = 1
Total = 105.00

2<Billing and Shipping Information>

Wrap note = 

<b>Billing address</b>
 Lee Ann Fogel
41 Linda Vista Dr.

Monterey
CA&nbsp;93940
United States

<b>Delivery address</b>
 






Registered mail (4-7 business days)

SUB total= 105.00

Delivery= 0.00

<b>TOTAL= 105.00</b>

