1<Order Number - <b>4000024203</b>>


Order Date - 2014-11-19 09:59:08
Order Status - 1 - confirmed and paid


2<Products>

<b>TARA'S DIARY STACKING RINGS</b> - Silver CZ Gold Plate Celtic Cross Stacking Ring  (P/N - TD525)
Gift Wrap = NO
Size = 9
Price = 60.00
QTY = 1
Total = 60.00

2<Billing and Shipping Information>

Wrap note = 

<b>Billing address</b>
 Heike Pustal
Osnabrücker Str.23

Lübbecke
Germany&nbsp;32312
Germany

<b>Delivery address</b>
 






Registered mail (3-8 business days)

SUB total= 60.00

Delivery= 0.00

<b>TOTAL= 60.00</b>

