1<Order Number - <b>4000024252</b>>


Order Date - 2014-11-21 21:36:55
Order Status - 1 - confirmed and paid


2<Products>

<b>TARA'S DIARY</b> - Tara's Diary Bracelet 8.5 Inches (P/N - TD3)
Gift Wrap = NO
Size = -
Price = 93.00
QTY = 1
Total = 93.00

<b>TARA'S DIARY</b> - Mo Anam Cara Tara's Diary Bead (P/N - TD31)
Gift Wrap = NO
Size = -
Price = 39.00
QTY = 1
Total = 39.00

2<Billing and Shipping Information>

Wrap note = 

<b>Billing address</b>
 Charles Wade
2782 Buckhorn Oaks Dr.

Valrico
FL&nbsp;33594
United States

<b>Delivery address</b>
 






Registered mail (4-7 business days)

SUB total= 132.00

Delivery= 0.00

<b>TOTAL= 39.00</b>

