1<Order Number - <b>4000024279</b>>


Order Date - 2014-11-22 18:56:49
Order Status - 2 - dispatched / resolved


2<Products>

<b>SHANORE</b> - Diamond Wedding Ring Gents with Trinity Knots (P/N - 14IC24W)
Gift Wrap = NO
Size = 10
Price = 2,010.00
QTY = 2
Total = 4,020.00

2<Billing and Shipping Information>

Wrap note = 

<b>Billing address</b>
 James Threatt
236 Ellmar oaks ct

San Jose
CA&nbsp;95136
United States

<b>Delivery address</b>
 






Fedex Priority (1-2 business days)

SUB total= 4,020.00

Delivery= 0.00

<b>TOTAL= 4,020.00</b>

