1<Order Number - <b>4000024304</b>>


Order Date - 2015-01-28 08:50:56
Order Status - 1 - confirmed and paid


2<Products>

<b>SHANORE</b> - Gent Silver Celtic Knot Wedding Ring (P/N - SD11)
Gift Wrap = NO
Size = 10.5
Price = 132.00
QTY = 1
Total = 132.00

<b>SHANORE</b> - Ladies Silver Claddagh Celtic wedding Ring  (P/N - SD8)
Gift Wrap = NO
Size = 6
Price = 105.00
QTY = 1
Total = 105.00

2<Billing and Shipping Information>

Wrap note = 

<b>Billing address</b>
 Renee  Miley
4155 N. O'Connor Rd.

Irving 
Texas&nbsp;75062
United States

<b>Delivery address</b>
 






Registered mail (4-7 business days)

SUB total= 237.00

Delivery= 0.00

<b>TOTAL= 105.00</b>

