1<Order Number - <b>4000024383</b>>


Order Date - 2014-11-27 21:08:51
Order Status - 1 - confirmed and paid


2<Products>

<b>SHANORE</b> - Claddagh Heart Set Ring (P/N - SL75GRCZ)
Gift Wrap = NO
Size = 8
Price = 63.00
QTY = 1
Total = 63.00

2<Billing and Shipping Information>

Wrap note = 

<b>Billing address</b>
 Loretta Osowski
2610 N. 74th Avenue
Apt 2f
Elwood  Park
Usa&nbsp;60707
US

<b>Delivery address</b>







Registered mail (4-7 business days)

SUB total= 63.00

Delivery= 0.00

<b>TOTAL= 63.00</b>

