1<Order Number - <b>4000024400</b>>


Order Date - 2014-11-28 17:33:54
Order Status - 1 - confirmed and paid


2<Products>

<b>SHANORE</b> - Silver Trinity Knot Stone Set Earrings  (P/N - SE2073CZ)
Gift Wrap = NO
Size = -
Price = 80.75
QTY = 1
Total = 80.75

<b>SHANORE</b> - Silver Trinity Knot Stone Set Pendant (P/N - SP2072CZ)
Gift Wrap = NO
Size = -
Price = 68.00
QTY = 1
Total = 68.00

2<Billing and Shipping Information>

Wrap note = 

<b>Billing address</b>
 Greggory Transue
16 Matthew Ave

Kendall Park
NJ&nbsp;08824-1612
United States

<b>Delivery address</b>
 






Registered mail (4-7 business days)

SUB total= 148.75

Delivery= 0.00

<b>TOTAL= 68.00</b>

