1<Order Number - <b>4000024588</b>>


Order Date - 2014-12-04 11:13:27
Order Status - 1 - confirmed and paid


2<Products>

<b>SHANORE</b> - Stone Set Silver Angel Pendant  (P/N - SP2074)
Gift Wrap = NO
Size = -
Price = 62.00
QTY = 1
Total = 62.00

2<Billing and Shipping Information>

Wrap note = 

<b>Billing address</b>
 Suzanne Barratt
40 Fyne Crescent

Larkhall
South Lanarkshire &nbsp;ML9 2UX
GB

<b>Delivery address</b>







Registered mail (10-14 business days)

SUB total= 62.00

Delivery= 0.00

<b>TOTAL= 62.00</b>

