1<Order Number - <b>4000024609</b>>


Order Date - 2014-12-04 20:37:11
Order Status - 1 - confirmed and paid


2<Products>

<b>SHANORE</b> - Silver Triple Claddagh Ring (P/N - SL25)
Gift Wrap = NO
Size = 8
Price = 61.00
QTY = 1
Total = 61.00

2<Billing and Shipping Information>

Wrap note = 

<b>Billing address</b>
 Debbie Jones
6682 Bent Tree Avenue

Memphis
TN&nbsp;38134
United States

<b>Delivery address</b>
 






Registered mail (10-14 business days)

SUB total= 61.00

Delivery= 0.00

<b>TOTAL= 61.00</b>

