1<Order Number - <b>4000024616</b>>


Order Date - 2014-12-04 21:54:32
Order Status - 1 - confirmed and paid


2<Products>

<b>SHANORE</b> - Mother Trinity Pendant (P/N - MP - T)
Gift Wrap = NO
Size = <br/>More info: undefined, January, October, July
Price = 157.00
QTY = 1
Total = 157.00

2<Billing and Shipping Information>

Wrap note = 

<b>Billing address</b>
 Richard Flynn
115 Lincoln Ave

Ashburnham
Massachusetts&nbsp;01430
United States

<b>Delivery address</b>
 






Registered mail (4-7 business days)

SUB total= 157.00

Delivery= 0.00

<b>TOTAL= 157.00</b>

