1<Order Number - <b>4000024618</b>>


Order Date - 2014-12-04 22:10:17
Order Status - 9 - payment failed


2<Products>

<b>SHANORE</b> - Celtic solitaire diamond 14k white gold ring round cut.  (P/N - 14M1S6W)
Gift Wrap = YES
Size = 7
Price = 1,852.00
QTY = 1
Total = 1,852.00

2<Billing and Shipping Information>

Wrap note = 

<b>Billing address</b>
 Cynthia Snelson
2767 Lynx Ave

BOISE
ID&nbsp;83705
United States

<b>Delivery address</b>
Elizabeth Ofori Appiah
80 Seymour Street
Apt.9
Worcester
MA01610
United States

Fedex Priority (1-2 business days)

SUB total= 1,852.00

Delivery= 0.00

<b>TOTAL= 1,852.00</b>

