1<Order Number - <b>4000024685</b>>


Order Date - 2014-12-07 03:58:05
Order Status - 1 - confirmed and paid


2<Products>

<b>SHANORE</b> - Celtic Trinity Knot Pendant Set with Emerald and Diamond  (P/N - SP2027)
Gift Wrap = NO
Size = -
Price = 112.00
QTY = 1
Total = 112.00

<b>SHANORE</b> - Mother Trinity Pendant (P/N - MP - T)
Gift Wrap = NO
Size = <br/>More info: undefined, May, July
Price = 132.00
QTY = 1
Total = 132.00

2<Billing and Shipping Information>

Wrap note = 

<b>Billing address</b>
 John Sweeney
905 pheasant lane

oreland
pa&nbsp;19075
United States

<b>Delivery address</b>
 






Registered mail (4-7 business days)

SUB total= 244.00

Delivery= 0.00

<b>TOTAL= 132.00</b>

