1<Order Number - <b>4000024732</b>>


Order Date - 2014-12-07 21:23:50
Order Status - 1 - confirmed and paid


2<Products>

<b>TARA'S DIARY</b> - Sterling Silver  26 (P/N - TD185)
Gift Wrap = NO
Size = -
Price = 109.00
QTY = 1
Total = 109.00

<b>TARA'S DIARY</b> - Sterling Silver Expressions Coin Cage (P/N - TD182)
Gift Wrap = NO
Size = -
Price = 104.00
QTY = 1
Total = 104.00

<b>TARA'S DIARY</b> - Sterling Silver Cubic Zirconia Celtic Hearts Coin (P/N - TD178)
Gift Wrap = NO
Size = -
Price = 52.00
QTY = 1
Total = 52.00

2<Billing and Shipping Information>

Wrap note = 

<b>Billing address</b>
 James Flynn
133 Mortlake Road

Richmond
Surrey&nbsp;TW9 4AW
United Kingdom

<b>Delivery address</b>
James Flynn
Alpha House (Finalysis)
100 Borough High Street
London
 SE1 1LB
United Kingdom

Registered mail (10-14 business days)

SUB total= 265.00

Delivery= 0.00

<b>TOTAL= 52.00</b>

