1<Order Number - <b>4000024822</b>>


Order Date - 2014-12-09 16:11:00
Order Status - 1 - confirmed and paid


2<Products>

<b>SHANORE</b> - Claddagh, Love, Loyalty, Friendship Silver Ring (P/N - SL1)
Gift Wrap = NO
Size = 6
Price = 42.00
QTY = 1
Total = 42.00

2<Billing and Shipping Information>

Wrap note = 

<b>Billing address</b>
 Steffen Klauer
Lockstown Cottage, Lockstown Upper

Blessington / Valleymount
Wicklow&nbsp;045
Ireland

<b>Delivery address</b>
 






Registered mail (3-8 business days)

SUB total= 42.00

Delivery= 0.00

<b>TOTAL= 42.00</b>

