1<Order Number - <b>4000024851</b>>


Order Date - 2014-12-10 04:32:15
Order Status - 1 - confirmed and paid


2<Products>

<b>SHANORE</b> - Mother Shamrock Pendant (P/N - MP - S)
Gift Wrap = NO
Size = <br/>More info: undefined, April, December, June, April
Price = 157.00
QTY = 1
Total = 157.00

2<Billing and Shipping Information>

Wrap note = 

<b>Billing address</b>
 Victoria  Scalisi
110 hampton Ave 

Rensselaer 
Rensselaer&nbsp;12144
US

<b>Delivery address</b>







Registered mail (4-7 business days)

SUB total= 157.00

Delivery= 0.00

<b>TOTAL= 157.00</b>

