1<Order Number - <b>4000024927</b>>


Order Date - 2014-12-12 09:34:50
Order Status - 1 - confirmed and paid


2<Products>

<b>SHANORE</b> - 10 Karat Claddagh Earrings (P/N - 10E615)
Gift Wrap = NO
Size = -
Price = 191.00
QTY = 1
Total = 191.00

2<Billing and Shipping Information>

Wrap note = 

<b>Billing address</b>
 michael murphy
82 tern close
tilehurst
reading
berkshire&nbsp;rg304az
United Kingdom

<b>Delivery address</b>
 






Registered mail (10-14 business days)

SUB total= 191.00

Delivery= 0.00

<b>TOTAL= 191.00</b>

