1<Order Number - <b>4000024931</b>>


Order Date - 2014-12-12 14:48:50
Order Status - 1 - confirmed and paid


2<Products>

<b>SHANORE</b> - Ladies Silver Claddagh Celtic wedding Ring  (P/N - SD8)
Gift Wrap = NO
Size = 8.5
Price = 77.00
QTY = 1
Total = 77.00

<b>SHANORE</b> - Gents Silver Claddagh Celtic wedding Ring (P/N - SD9)
Gift Wrap = NO
Size = 9
Price = 88.00
QTY = 1
Total = 88.00

2<Billing and Shipping Information>

Wrap note = 

<b>Billing address</b>
 Pauline SALLET
Grande Rue

FOUQUEURE
-&nbsp;16140
France

<b>Delivery address</b>
 




France

Fastway (1 day)

SUB total= 165.00

Delivery= 0.00

<b>TOTAL= 88.00</b>

