1<Order Number - <b>4000024981</b>>


Order Date - 2014-12-13 21:02:17
Order Status - 1 - confirmed and paid


2<Products>

<b>SHANORE</b> - Claddagh Birthstone Ring August (P/N - SL90P)
Gift Wrap = NO
Size = 5.5
Price = 77.00
QTY = 1
Total = 77.00

2<Billing and Shipping Information>

Wrap note = 

<b>Billing address</b>
 Lauri   Delgado
918 Pinot Noir Dr.

Lodi
California&nbsp;95240
United States

<b>Delivery address</b>
 






Registered mail (4-7 business days)

SUB total= 77.00

Delivery= 0.00

<b>TOTAL= 77.00</b>

