1<Order Number - <b>4000024992</b>>


Order Date - 2014-12-14 14:52:45
Order Status - 1 - confirmed and paid


2<Products>

<b>SHANORE</b> - Celtic Silver Pearl Earrings (P/N - SECP1)
Gift Wrap = NO
Size = -
Price = 62.00
QTY = 1
Total = 62.00

2<Billing and Shipping Information>

Wrap note = 

<b>Billing address</b>
 Mary Ellen  Giffune
1296 Intervale Rd.

New Gloucester
Maine&nbsp;04260
United States

<b>Delivery address</b>
 






Registered mail (4-7 business days)

SUB total= 62.00

Delivery= 0.00

<b>TOTAL= 62.00</b>

