1<Order Number - <b>4000025015</b>>


Order Date - 2014-12-15 05:39:00
Order Status - 1 - confirmed and paid


2<Products>

<b>SHANORE</b> - Claddagh Pave Set Ladies Ring (P/N - SL97)
Gift Wrap = NO
Size = 7.5
Price = 80.00
QTY = 1
Total = 80.00

2<Billing and Shipping Information>

Wrap note = 

<b>Billing address</b>
 Julie Phillips
15831 Potassium St NW

Ramsey
Mn&nbsp;55303
United States

<b>Delivery address</b>
 




United States

Registered mail (4-7 business days)

SUB total= 80.00

Delivery= 0.00

<b>TOTAL= 80.00</b>

