1<Order Number - <b>4000025024</b>>


Order Date - 2014-12-15 12:06:34
Order Status - 1 - confirmed and paid


2<Products>

<b>SHANORE</b> - Claddagh Heart Set Ring (P/N - SL75GRCZ)
Gift Wrap = NO
Size = 8
Price = 63.00
QTY = 1
Total = 63.00

2<Billing and Shipping Information>

Wrap note = 

<b>Billing address</b>
 Casey Criswell
15291 Wandering Way

Noblesville, IN
IN&nbsp;46060
United States

<b>Delivery address</b>
Casey Criswell
540 College Dr.
D Building
Carmel
IN46032
United States

Registered mail (4-7 business days)

SUB total= 63.00

Delivery= 0.00

<b>TOTAL= 63.00</b>

