1<Order Number - <b>4000025054</b>>


Order Date - 2014-12-15 22:16:26
Order Status - 1 - confirmed and paid


2<Products>

<b>SHANORE</b> - Mother Trinity Pendant (P/N - MP - T)
Gift Wrap = NO
Size = <br/>More info: undefined, April, July
Price = 118.80
QTY = 1
Total = 118.80

2<Billing and Shipping Information>

Wrap note = 

<b>Billing address</b>
 Lucas Boyle
604 wexford

Janesville
Wisconsin&nbsp;53546
United States

<b>Delivery address</b>
 






Registered mail (4-7 business days)

SUB total= 118.80

Delivery= 0.00

<b>TOTAL= 118.80</b>

