1<Order Number - <b>4000025083</b>>


Order Date - 2014-12-16 14:32:57
Order Status - 1 - confirmed and paid


2<Products>

<b>TARA'S DIARY</b> - Irish Cottage Silver Bead (P/N - TD45)
Gift Wrap = NO
Size = -
Price = 60.00
QTY = 1
Total = 60.00

2<Billing and Shipping Information>

Wrap note = 

<b>Billing address</b>
 COLLEEN SPITZ
10 CRIMSON WAY

WEBSTER
NY - New York&nbsp;14580
United States

<b>Delivery address</b>
 






Registered mail (4-7 business days)

SUB total= 60.00

Delivery= 0.00

<b>TOTAL= 60.00</b>

