1<Order Number - <b>4000025149</b>>


Order Date - 2014-12-17 20:25:55
Order Status - 1 - confirmed and paid


2<Products>

<b>SHANORE</b> - Claddagh February Birthstone Ring (P/N - SL90AY)
Gift Wrap = NO
Size = 6.5
Price = 77.00
QTY = 1
Total = 77.00

<b>SHANORE</b> - Claddagh Birthstone Ring September (P/N - SL90S)
Gift Wrap = NO
Size = 8
Price = 77.00
QTY = 1
Total = 77.00

2<Billing and Shipping Information>

Wrap note = 

<b>Billing address</b>
 Susan Hughes
1933 New Central Ave

Lakewood
NJ&nbsp;08701
United States

<b>Delivery address</b>
 






Registered mail (4-7 business days)

SUB total= 154.00

Delivery= 0.00

<b>TOTAL= 77.00</b>

