1<Order Number - <b>4000025210</b>>


Order Date - 2014-12-19 01:06:26
Order Status - 1 - confirmed and paid


2<Products>

<b>SHANORE</b> - Ladies Celtic Knot Diamond Ring  (P/N - JP20D)
Gift Wrap = NO
Size = 7
Price = 910.00
QTY = 1
Total = 910.00

2<Billing and Shipping Information>

Wrap note = 

<b>Billing address</b>
 Donald B. Horn Jr.
1180 W. Maple Rd.

New Lenox
IL.&nbsp;60451
United States

<b>Delivery address</b>
 






Fedex Priority (1-2 business days)

SUB total= 910.00

Delivery= 0.00

<b>TOTAL= 910.00</b>

