1<Order Number - <b>4000025246</b>>


Order Date - 2014-12-19 16:47:22
Order Status - 1 - confirmed and paid


2<Products>

<b>TARA'S DIARY</b> - Sterling Silver Celtic Gold Plated Cross  (P/N - TD200)
Gift Wrap = NO
Size = -
Price = 53.00
QTY = 1
Total = 53.00

<b>TARA'S DIARY</b> - Celtic Trinity Diamond Purse (P/N - TD123)
Gift Wrap = NO
Size = -
Price = 60.00
QTY = 1
Total = 60.00

2<Billing and Shipping Information>

Wrap note = 

<b>Billing address</b>
 Richard Perdick
2615 Winston Road

Bethlehem
PA&nbsp;18017
United States

<b>Delivery address</b>
 






Fedex Priority (1-2 business days)

SUB total= 113.00

Delivery= 30.00

<b>TOTAL= 60.00</b>

