1<Order Number - <b>4000025283</b>>


Order Date - 2014-12-20 19:39:42
Order Status - 9 - payment failed


2<Products>

<b>SHANORE</b> - Celtic Silver Pearl Pendant (P/N - SPCP1)
Gift Wrap = NO
Size = -
Price = 65.00
QTY = 1
Total = 65.00

2<Billing and Shipping Information>

Wrap note = 

<b>Billing address</b>
 Matthew Eaker
200 Franklin ave

Dunkirk
New York&nbsp;14048
United States

<b>Delivery address</b>
 






Registered mail (4-7 business days)

SUB total= 65.00

Delivery= 0.00

<b>TOTAL= 65.00</b>

