1<Order Number - <b>4000025650</b>>


Order Date - 2015-01-10 15:52:14
Order Status - 2 - dispatched / resolved


2<Products>

<b>SHANORE</b> - Ladies Celtic Recessed pressure set Diamond Wedding Ring (P/N - 14IC53W)
Gift Wrap = NO
Size = 6
Price = 733.00
QTY = 1
Total = 733.00

2<Billing and Shipping Information>

Wrap note = 

<b>Billing address</b>
 Gary Allan
12 Gisbourne Drive

Chapel-en-le-frith
High Peak&nbsp;SK230LY
United Kingdom

<b>Delivery address</b>
 






Fedex Priority (1-5 business days)

SUB total= 733.00

Delivery= 0.00

<b>TOTAL= 733.00</b>

