1<Order Number - <b>4000025685</b>>


Order Date - 2015-01-11 11:30:43
Order Status - 1 - confirmed and paid


2<Products>

<b>SHANORE</b> - Gent Silver Celtic Knot Wedding Ring (P/N - SD11)
Gift Wrap = NO
Size = 12
Price = 98.00
QTY = 1
Total = 98.00

2<Billing and Shipping Information>

Wrap note = 

<b>Billing address</b>
 Lauriane Daize
347 le clos du puits

Bullion
Parisienne&nbsp;78830
France

<b>Delivery address</b>
 




France

Registered mail (3-8 business days)

SUB total= 98.00

Delivery= 0.00

<b>TOTAL= 98.00</b>

