1<Order Number - <b>4000025725</b>>


Order Date - 2015-01-13 21:58:58
Order Status - 1 - confirmed and paid


2<Products>

<b>SHANORE</b> - Claddagh Heart Set Ring (P/N - SL75GRCZ)
Gift Wrap = NO
Size = 7
Price = 63.00
QTY = 1
Total = 63.00

2<Billing and Shipping Information>

Wrap note = 

<b>Billing address</b>
 Rqyne Newman
POBox 310

Colstrip
Rosebud&nbsp;59323
US

<b>Delivery address</b>

421 wildrye st

colstrip
rosebud59323
US

Registered mail (4-7 business days)

SUB total= 63.00

Delivery= 0.00

<b>TOTAL= 63.00</b>

