1<Order Number - <b>4000025747</b>>


Order Date - 2015-01-14 19:11:03
Order Status - 1 - confirmed and paid


2<Products>

<b>SHANORE</b> - Claddagh celtic solitaire Mount Only 14k white gold ring princess cut (P/N - BR2W PR Mount Only)
Gift Wrap = NO
Size = 7
Price = 1,220.00
QTY = 1
Total = 1,220.00

2<Billing and Shipping Information>

Wrap note = 

<b>Billing address</b>
 Sean Bamber
40 Walbridge Ave

Babylon 
New York&nbsp;11702
US

<b>Delivery address</b>







Fedex Priority (1-2 business days)

SUB total= 1,220.00

Delivery= 0.00

<b>TOTAL= 1,220.00</b>

