1<Order Number - <b>4000025767</b>>


Order Date - 2015-01-16 04:48:42
Order Status - 1 - confirmed and paid


2<Products>

<b>SHANORE</b> - Stone Set Harp With Celtic Design (P/N - SP1088)
Gift Wrap = NO
Size = -
Price = 79.00
QTY = 1
Total = 79.00

2<Billing and Shipping Information>

Wrap note = 

<b>Billing address</b>
 Joseph O'Brien
17 Norwick Lane

Willingboro
New Jersey&nbsp;08046
United States

<b>Delivery address</b>
 






Registered mail (4-7 business days)

SUB total= 79.00

Delivery= 0.00

<b>TOTAL= 79.00</b>

