1<Order Number - <b>4000025812</b>>


Order Date - 2015-01-18 23:56:17
Order Status - 1 - confirmed and paid


2<Products>

<b>SHANORE</b> - Celtic Birthstone Pendant January (P/N - SP2075G)
Gift Wrap = NO
Size = -
Price = 85.00
QTY = 1
Total = 85.00

2<Billing and Shipping Information>

Wrap note = 

<b>Billing address</b>
 John Miron
21 Spring Street
undefined
Cohoes
NY&nbsp;12047
United States

<b>Delivery address</b>
 

undefined


United States

Registered mail (4-7 business days)

SUB total= 85.00

Delivery= 0.00

<b>TOTAL= 85.00</b>

