1<Order Number - <b>4000025877</b>>


Order Date - 2015-01-22 17:51:05
Order Status - 1 - confirmed and paid


2<Products>

<b>SHANORE</b> - Celtic Trinity Knot Small Silver Cross (P/N - SF24)
Gift Wrap = NO
Size = -
Price = 63.00
QTY = 1
Total = 63.00

2<Billing and Shipping Information>

Wrap note = 

<b>Billing address</b>
 Terry Kozak
14079 Wildwood Drive

Big Rapids
Michigan&nbsp;49307
United States

<b>Delivery address</b>
 






Registered mail (4-7 business days)

SUB total= 63.00

Delivery= 0.00

<b>TOTAL= 63.00</b>

