1<Order Number - <b>4000025928</b>>


Order Date - 2015-01-25 20:50:48
Order Status - 1 - confirmed and paid


2<Products>

<b>SHANORE</b> - Intricate Celtic Silver Design Pendant (P/N - SP2065CZ)
Gift Wrap = NO
Size = -
Price = 64.00
QTY = 1
Total = 64.00

2<Billing and Shipping Information>

Wrap note = 

<b>Billing address</b>
 Ann Aherne
Hazelaarpad 20

Venlo
Venlo&nbsp;5925AX
Netherlands

<b>Delivery address</b>
 






Registered mail (3-8 business days)

SUB total= 64.00

Delivery= 0.00

<b>TOTAL= 64.00</b>

