1<Order Number - <b>4000025946</b>>


Order Date - 2015-01-27 04:03:24
Order Status - 1 - confirmed and paid


2<Products>

<b>SHANORE</b> - Celtic Birthstone Pendant May (P/N - SP2075GR)
Gift Wrap = NO
Size = -
Price = 85.00
QTY = 2
Total = 170.00

2<Billing and Shipping Information>

Wrap note = 

<b>Billing address</b>
 edna  piedad
pelicano 208
undefined
gomez palacio 
durango&nbsp;35060
Mexico

<b>Delivery address</b>
 

undefined


Mexico

Registered mail (10-14 business days)

SUB total= 170.00

Delivery= 0.00

<b>TOTAL= 170.00</b>

