1<Order Number - <b>4000025944</b>>


Order Date - 2015-01-27 03:33:49
Order Status - 1 - confirmed and paid


2<Products>

<b>SHANORE</b> - Ladies Claddagh With Emerald And Diamond (P/N - 14L68ED)
Gift Wrap = NO
Size = 5
Price = 991.00
QTY = 1
Total = 991.00

2<Billing and Shipping Information>

Wrap note = 

<b>Billing address</b>
 joe  ortiz
gustavo baz prada 435
undefined
gomez palacio
durango&nbsp;35050
Mexico

<b>Delivery address</b>
 

undefined


Mexico

Fedex Priority (1-5 business days)

SUB total= 991.00

Delivery= 0.00

<b>TOTAL= 991.00</b>

