1<Order Number - <b>4000025965</b>>


Order Date - 2015-01-27 17:27:00
Order Status - 1 - confirmed and paid


2<Products>

<b>SHANORE</b> - Claddagh Celtic solitaire diamond 14k white gold engagement ring princess cut.  (P/N - BR2W PR)
Gift Wrap = YES
Size = 7
Price = 3,820.00
QTY = 1
Total = 3,820.00

2<Billing and Shipping Information>

Wrap note = 

<b>Billing address</b>
 Sean Bamber
40 wabridge Ave

Babylon
New York&nbsp;11702
United States

<b>Delivery address</b>
 






Fedex Priority (1-2 business days)

SUB total= 3,820.00

Delivery= 0.00

<b>TOTAL= 3,820.00</b>

