1<Order Number - <b>4000025960</b>>


Order Date - 2015-01-27 15:25:22
Order Status - 2 - dispatched / resolved


2<Products>

<b>SHANORE</b> - Celtic Wedding Band Ladies Emerald and Diamond Set (P/N - 14WS6YW2ED)
Gift Wrap = NO
Size = 7
Price = 902.00
QTY = 1
Total = 902.00

2<Billing and Shipping Information>

Wrap note = 

<b>Billing address</b>
 Jennifer  Donahue
3208 Saint Augustine Ct.

Olney
Montgomery&nbsp;20832
US

<b>Delivery address</b>







Fedex Priority (1-2 business days)

SUB total= 902.00

Delivery= 0.00

<b>TOTAL= 902.00</b>

