1<Order Number - <b>4000025974</b>>


Order Date - 2015-01-27 20:41:30
Order Status - 1 - confirmed and paid


2<Products>

<b>SHANORE</b> - Silver Love Heart Trinity Pendant (P/N - SP2067CZ)
Gift Wrap = NO
Size = -
Price = 96.30
QTY = 1
Total = 96.30

2<Billing and Shipping Information>

Wrap note = 

<b>Billing address</b>
 Michael Bushinski
79 Milligan Rd
undefined
West Babylon
NY&nbsp;11704
United States

<b>Delivery address</b>
 

undefined


United States

Registered mail (4-7 business days)

SUB total= 96.30

Delivery= 0.00

<b>TOTAL= 96.30</b>

