1<Order Number - <b>4000025981</b>>


Order Date - 2015-03-25 08:29:26
Order Status - 1 - confirmed and paid


2<Products>

<b>SHANORE</b> - Ladies Celtic Trinity Knot 3 Stone Diamond Wedding Ring (P/N - JP11WED)
Gift Wrap = NO
Size = 6.5
Price = 834.00
QTY = 1
Total = 834.00

2<Billing and Shipping Information>

Wrap note = 

<b>Billing address</b>
 Yanira Perez
7301 74th Ave Ne

Salem
Or&nbsp;97305
United States

<b>Delivery address</b>
 




null

Fedex Priority (1-2 business days)

SUB total= 834.00

Delivery= 0.00

<b>TOTAL= 834.00</b>

