1<Order Number - <b>4000026109</b>>


Order Date - 2015-02-02 15:16:21
Order Status - 1 - confirmed and paid


2<Products>

<b>SHANORE</b> - Mother Trinity Pendant (P/N - MP - T)
Gift Wrap = NO
Size = <br/>More info: undefined, February, August, March
Price = 157.00
QTY = 1
Total = 157.00

2<Billing and Shipping Information>

Wrap note = 

<b>Billing address</b>
 David M
277 Shawnee Circle

Mt. Washington
KY&nbsp;40047
United States

<b>Delivery address</b>
277 Shawnee Circle

Mt. Washington
KY40047
United States

Registered mail (4-7 business days)Phone:


SUB total= 157.00

Delivery= 0.00

<b>TOTAL= 157.00</b>

