1<Order Number - <b>4000026160</b>>


Order Date - 2015-03-11 09:35:18
Order Status - 1 - confirmed and paid


2<Products>

<b>SHANORE</b> -  Gents Gold Wedding Ring Celtic Knot Design (P/N - 14IC18W)
Gift Wrap = NO
Size = 11.5
Price = 1,686.00
QTY = 1
Total = 1,686.00

2<Billing and Shipping Information>

Wrap note = 

<b>Billing address</b>
 Katrina Glick
1505 Rothsville Road

Lititz
PA&nbsp;17543
United States

<b>Delivery address</b>
 






Fedex Priority (1-2 business days)

SUB total= 1,686.00

Delivery= 0.00

<b>TOTAL= 1,686.00</b>

