1<Order Number - <b>4000026167</b>>


Order Date - 2015-02-04 21:51:26
Order Status - 1 - confirmed and paid


2<Products>

<b>SHANORE</b> - Silver Claddagh and Trinity knot Pendant  (P/N - SP1077)
Gift Wrap = NO
Size = -
Price = 92.00
QTY = 1
Total = 92.00

2<Billing and Shipping Information>

Wrap note = 

<b>Billing address</b>
 Anthony Nowack
PO BOX 1053

Greenwood Lake
New York&nbsp;10925
United States

<b>Delivery address</b>
 






Registered mail (4-7 business days)

SUB total= 92.00

Delivery= 0.00

<b>TOTAL= 92.00</b>

