1<Order Number - <b>4000026330</b>>


Order Date - 2015-02-11 12:57:05
Order Status - 1 - confirmed and paid


2<Products>

<b>SHANORE</b> - Ladies Silver Celtic Knot Stone Set Ring (P/N - SD12)
Gift Wrap = NO
Size = 5.5
Price = 75.00
QTY = 1
Total = 75.00

2<Billing and Shipping Information>

Wrap note = 

<b>Billing address</b>
 Charles Lamant
10 rue Kuss - Bat 4 App 21
undefined
Paris
Ile-de-France&nbsp;75013
France

<b>Delivery address</b>
 

undefined


France

Registered mail (3-8 business days)

SUB total= 75.00

Delivery= 0.00

<b>TOTAL= 75.00</b>

