1<Order Number - <b>4000026487</b>>


Order Date - 2015-02-19 01:20:23
Order Status - 1 - confirmed and paid


2<Products>

<b>SHANORE</b> - Claddagh Birthstone Ring - May (P/N - SL90GR)
Gift Wrap = NO
Size = 5
Price = 77.00
QTY = 1
Total = 77.00

2<Billing and Shipping Information>

Wrap note = 

<b>Billing address</b>
 Julie Townsend
6525 W. Hoover Pl.

Littleton
Jefferson&nbsp;80123
US

<b>Delivery address</b>

13457 W. Purdue Dr.

Morrison
Jefferson80465
US

Registered mail (4-7 business days)

SUB total= 77.00

Delivery= 0.00

<b>TOTAL= 77.00</b>

