1<Order Number - <b>4000026482</b>>


Order Date - 2015-02-18 17:37:01
Order Status - 1 - confirmed and paid


2<Products>

<b>SHANORE</b> - Emerald and Diamond Cluster Engagement Ring (P/N - JP17ED)
Gift Wrap = NO
Size = 8.5
Price = 1,093.00
QTY = 1
Total = 1,093.00

2<Billing and Shipping Information>

Wrap note = 

<b>Billing address</b>
 Deborah C
304 Valley Springs Road

Columbia
SC&nbsp;29223
United States

<b>Delivery address</b>
304 Valley Springs Road

Columbia
SC29223
United States

Fedex Priority (1-2 business days)Phone:


SUB total= 1,093.00

Delivery= 0.00

<b>TOTAL= 1,093.00</b>

