1<Order Number - <b>4000026506</b>>


Order Date - 2015-02-19 22:32:37
Order Status - 1 - confirmed and paid


2<Products>

<b>SHANORE</b> - Emerald and Diamond set  (P/N - 14IC30WED)
Gift Wrap = NO
Size = 7.5
Price = 475.00
QTY = 1
Total = 475.00

2<Billing and Shipping Information>

Wrap note = 

<b>Billing address</b>
 myles cooper
22 tudor road ranelagh
undefined
dublin
dublin 6&nbsp;6
Ireland

<b>Delivery address</b>
 

undefined


Ireland

Fastway (1 day)

SUB total= 475.00

Delivery= 0.00

<b>TOTAL= 475.00</b>

