1<Order Number - <b>4000026551</b>>


Order Date - 2015-02-23 01:11:49
Order Status - 1 - confirmed and paid


2<Products>

<b>SHANORE</b> - Claddagh Heart Set Ring (P/N - SL75GRCZ)
Gift Wrap = NO
Size = 8
Price = 63.00
QTY = 1
Total = 63.00

2<Billing and Shipping Information>

Wrap note = 

<b>Billing address</b>
 Kirsten Reilly
206 cedar ave
undefined
horsham
pa&nbsp;19044
United States

<b>Delivery address</b>
 

undefined


United States

Registered mail (4-7 business days)

SUB total= 63.00

Delivery= 0.00

<b>TOTAL= 63.00</b>

