1<Order Number - <b>4000026570</b>>


Order Date - 2015-02-24 03:00:07
Order Status - 2 - dispatched / resolved


2<Products>

<b>SHANORE</b> - 10 Karat Gold Celtic Pendant (P/N - 10P624)
Gift Wrap = NO
Size = <br/>More info: Chain included<br>
Price = 203.00
QTY = 1
Total = 203.00

2<Billing and Shipping Information>

Wrap note = 

<b>Billing address</b>
 Kathleen Liddick
16 Cornwall Street NE
undefined
Leesburg
VA&nbsp;20176
United States

<b>Delivery address</b>
 

undefined


United States

Fedex Priority (1-2 business days)

SUB total= 203.00

Delivery= 30.00

<b>TOTAL= 203.00</b>

