1<Order Number - <b>4000026621</b>>


Order Date - 2015-02-26 21:58:03
Order Status - 1 - confirmed and paid


2<Products>

<b>SHANORE</b> - Ladies Silver Celtic Knot Stone Set Ring (P/N - SD12)
Gift Wrap = NO
Size = 6.5
Price = 102.00
QTY = 1
Total = 102.00

2<Billing and Shipping Information>

Wrap note = 

<b>Billing address</b>
 Barbara Hiss
76 Skyline Drive
undefined
Franklin
MA&nbsp;02038
United States

<b>Delivery address</b>
 

undefined


United States

Fedex Priority (1-2 business days)

SUB total= 102.00

Delivery= 30.00

<b>TOTAL= 102.00</b>

