1<Order Number - <b>4000026682</b>>


Order Date - 2015-03-02 18:53:35
Order Status - 1 - confirmed and paid


2<Products>

<b>SHANORE</b> - Claddagh Heart Set Ring (P/N - SL75GRCZ)
Gift Wrap = NO
Size = 7
Price = 63.00
QTY = 1
Total = 63.00

2<Billing and Shipping Information>

Wrap note = 

<b>Billing address</b>
 Karl Watson
1702 Cedar Ln

Temple
TX&nbsp;76502-5254
United States

<b>Delivery address</b>
1702 Cedar Ln

Temple
TX76502-5254
United States

Registered mail (4-7 business days)Phone:


SUB total= 63.00

Delivery= 0.00

<b>TOTAL= 63.00</b>

