1<Order Number - <b>4000026699</b>>


Order Date - 2015-03-03 17:20:16
Order Status - 1 - confirmed and paid


2<Products>

<b>TARA'S DIARY</b> - Green Leather 7.75 inch Bracelet (P/N - TD62)
Gift Wrap = NO
Size = -
Price = 31.00
QTY = 1
Total = 31.00

<b>TARA'S DIARY</b> - Sterling Silver Celtic Trinity Knot  (P/N - TD201)
Gift Wrap = NO
Size = -
Price = 58.00
QTY = 1
Total = 58.00

2<Billing and Shipping Information>

Wrap note = 

<b>Billing address</b>
 Jonathan Krauss
1334 Jaimison Lane
undefined
Meadowbrook
PA&nbsp;19046
United States

<b>Delivery address</b>
 

undefined


United States

Registered mail (4-7 business days)

SUB total= 89.00

Delivery= 0.00

<b>TOTAL= 58.00</b>

