1<Order Number - <b>4000027012</b>>


Order Date - 2015-03-20 22:37:16
Order Status - 1 - confirmed and paid


2<Products>

<b>SHANORE</b> - Claddagh Birthstone Ring September (P/N - SL90S)
Gift Wrap = NO
Size = 7.5
Price = 56.00
QTY = 1
Total = 56.00

2<Billing and Shipping Information>

Wrap note = 

<b>Billing address</b>
 Ger Newell
Wyke
Westfield Park
Bray
Co.Wicklow&nbsp;0001
IE

<b>Delivery address</b>







Fastway (1 day)

SUB total= 56.00

Delivery= 0.00

<b>TOTAL= 56.00</b>

