1<Order Number - <b>4000027058</b>>


Order Date - 2015-03-24 13:49:10
Order Status - 1 - confirmed and paid


2<Products>

<b>SHANORE</b> - Celtic Trinty Knot Earring  (P/N - SE2034)
Gift Wrap = NO
Size = -
Price = 82.00
QTY = 1
Total = 82.00

2<Billing and Shipping Information>

Wrap note = 

<b>Billing address</b>
 Jill Myerow
6 Faith Lane

Danbury
CT&nbsp;06810
United States

<b>Delivery address</b>
 

undefined


United States

Registered mail (4-7 business days)

SUB total= 82.00

Delivery= 0.00

<b>TOTAL= 82.00</b>

