1<Order Number - <b>4000027453</b>>


Order Date - 2015-04-21 22:43:58
Order Status - 1 - confirmed and paid


2<Products>

<b>SHANORE</b> - Mother Trinity Pendant (P/N - MP - T)
Gift Wrap = NO
Size = <br/>More info: undefined, July, June
Price = 132.00
QTY = 1
Total = 132.00

2<Billing and Shipping Information>

Wrap note = 

<b>Billing address</b>
 Kerri Seaman
1033 Cuervo Court

Chesapeake
VA&nbsp;23322
United States

<b>Delivery address</b>
 

undefined


United States

Registered mail (4-7 business days)

SUB total= 132.00

Delivery= 0.00

<b>TOTAL= 132.00</b>

