1<Order Number - <b>4000027466</b>>


Order Date - 2015-04-22 21:12:49
Order Status - 1 - confirmed and paid


2<Products>

<b>SHANORE</b> - Celtic Trinity Knot Diamond Earrings  (P/N - SE2023)
Gift Wrap = NO
Size = -
Price = 185.00
QTY = 1
Total = 185.00

2<Billing and Shipping Information>

Wrap note = 

<b>Billing address</b>
 K Slator
5933 Bayberry Dr

White Bear Lake
MN&nbsp;55110
United States

<b>Delivery address</b>
5933 Bayberry Dr

White Bear Lake
MN55110
United States

Registered mail (4-7 business days)Phone:


SUB total= 185.00

Delivery= 0.00

<b>TOTAL= 185.00</b>

