1<Order Number - <b>4000027475</b>>


Order Date - 2015-04-23 19:21:48
Order Status - 1 - confirmed and paid


2<Products>

<b>SHANORE</b> - Claddagh Wedding Ring Two Tone Ladies Diamonds Set with Celtic Knotwork (P/N - 14IC10)
Gift Wrap = NO
Size = 5
Price = 1,462.00
QTY = 1
Total = 1,462.00

2<Billing and Shipping Information>

Wrap note = 

<b>Billing address</b>
 James Wooden
1913 Cabernet Pl

Easton
Pennsylvania&nbsp;18045
United States

<b>Delivery address</b>
 

undefined


United States

Fedex Priority (1-2 business days)

SUB total= 1,462.00

Delivery= 0.00

<b>TOTAL= 1,462.00</b>

