1<Order Number - <b>4000027572</b>>


Order Date - 2015-04-27 22:56:45
Order Status - 2 - dispatched / resolved


2<Products>

<b>SHANORE</b> - Claddagh Heart Set Ring (P/N - SL75GRCZ)
Gift Wrap = NO
Size = 7
Price = 63.00
QTY = 1
Total = 63.00

2<Billing and Shipping Information>

Wrap note = 

<b>Billing address</b>
 Brady Munsterman Brady
505 SW hwy 52

deepwater
st clair&nbsp;
US

<b>Delivery address</b>







Registered mail (4-7 business days)

SUB total= 63.00

Delivery= 0.00

<b>TOTAL= 63.00</b>

