1<Order Number - <b>4000027809</b>>


Order Date - 2015-05-06 13:15:41
Order Status - 1 - confirmed and paid


2<Products>

<b>SHANORE</b> - Mother Shamrock Pendant (P/N - MP - S)
Gift Wrap = NO
Size = <br/>More info: undefined, February, January, October, January
Price = 157.00
QTY = 1
Total = 157.00

2<Billing and Shipping Information>

Wrap note = 

<b>Billing address</b>
 Tom Winters
2424 Michael Rd

Huntingdon Valley
PA&nbsp;
US

<b>Delivery address</b>







Registered mail (4-7 business days)

SUB total= 157.00

Delivery= 0.00

<b>TOTAL= 157.00</b>

