1<Order Number - <b>4000027885</b>>


Order Date - 2015-05-11 13:20:29
Order Status - 1 - confirmed and paid


2<Products>

<b>SHANORE</b> - Silver Celtic Trinity Knot Pendant  (P/N - SP2064CZ)
Gift Wrap = NO
Size = -
Price = 92.00
QTY = 1
Total = 92.00

<b>SHANORE</b> - Silver Celtic knot Stone Set  Pendant  (P/N - SP2061CZ)
Gift Wrap = NO
Size = -
Price = 77.00
QTY = 1
Total = 77.00

<b>SHANORE</b> - Intricate Celtic Silver Design Pendant (P/N - SP2065CZ)
Gift Wrap = NO
Size = -
Price = 90.00
QTY = 1
Total = 90.00

<b>SHANORE</b> - Celtic Knot Silver Stone Set Pendant  (P/N - SP2062CZ)
Gift Wrap = NO
Size = -
Price = 90.00
QTY = 1
Total = 90.00

2<Billing and Shipping Information>

Wrap note = 

<b>Billing address</b>
 Diane Pokorny
4076 East 1050 South

Heber City
UT&nbsp;84032
United States

<b>Delivery address</b>
 

undefined


United States

Registered mail (4-7 business days)

SUB total= 349.00

Delivery= 0.00

<b>TOTAL= 90.00</b>

