1<Order Number - <b>4000027908</b>>


Order Date - 2015-05-12 19:40:32
Order Status - 1 - confirmed and paid


2<Products>

<b>SHANORE</b> - Gent Silver Celtic Knot Wedding Ring (P/N - SD11)
Gift Wrap = NO
Size = 9.5
Price = 98.00
QTY = 1
Total = 98.00

2<Billing and Shipping Information>

Wrap note = 

<b>Billing address</b>
 EMMA LOCKETT
WHITE GABLES, CARROWKEEL

QUIGLEYS POINT
COUNTY DONEGAL&nbsp;NO CODE
Ireland

<b>Delivery address</b>
 

undefined


Ireland

Fastway (1 day)

SUB total= 98.00

Delivery= 0.00

<b>TOTAL= 98.00</b>

