1<Order Number - <b>4000027934</b>>


Order Date - 2015-05-14 04:19:33
Order Status - 1 - confirmed and paid


2<Products>

<b>SHANORE</b> - Claddagh Birthstone Ring - May (P/N - SL90GR)
Gift Wrap = NO
Size = 6
Price = 77.00
QTY = 1
Total = 77.00

2<Billing and Shipping Information>

Wrap note = 

<b>Billing address</b>
 Angela Powers
45 Dorchester Street

Worcester
MA&nbsp;01604
United States

<b>Delivery address</b>
 

undefined


United States

Registered mail (4-7 business days)

SUB total= 77.00

Delivery= 0.00

<b>TOTAL= 77.00</b>

