1<Order Number - <b>4000028114</b>>


Order Date - 2015-05-26 15:01:38
Order Status - 1 - confirmed and paid


2<Products>

<b>SHANORE</b> -  Ladies Gold Celtic Knot Diamond Ring (P/N - JP20WD)
Gift Wrap = NO
Size = 6
Price = 910.00
QTY = 1
Total = 910.00

2<Billing and Shipping Information>

Wrap note = 

<b>Billing address</b>
 Susan Barci
17 Kathryn Road 

Chalfont
PA&nbsp;18914
United States

<b>Delivery address</b>
 

undefined


United States

Fedex Priority (1-2 business days)

SUB total= 910.00

Delivery= 0.00

<b>TOTAL= 910.00</b>

