1<Order Number - <b>4000028248</b>>


Order Date - 2015-06-07 17:21:54
Order Status - 2 - dispatched / resolved


2<Products>

<b>SHANORE</b> - Celtic Wedding Band Ladies Emerald and Diamond Set (P/N - 14WS6W2ED)
Gift Wrap = NO
Size = 5
Price = 902.00
QTY = 1
Total = 902.00

<b>SHANORE</b> - Silver Gents Celtic Design Ring (P/N - SD1)
Gift Wrap = NO
Size = 11
Price = 201.60
QTY = 1
Total = 201.60

2<Billing and Shipping Information>

Wrap note = 

<b>Billing address</b>
 Leslie  Byron
8 Alexandria Drive 

Hackettstown
New Jersey&nbsp;07840
United States

<b>Delivery address</b>
Joseph Martin
PO Box 966
undefined
Hackettstown
New Jersey07840-0966
United States

Fedex Priority (1-2 business days)

SUB total= 1,103.60

Delivery= 0.00

<b>TOTAL= 201.60</b>

