1<Order Number - <b>4000028293</b>>


Order Date - 2015-06-11 20:35:42
Order Status - 1 - confirmed and paid


2<Products>

<b>SHANORE</b> - Ladies Silver Celtic Knot Stone Set Ring (P/N - SD12)
Gift Wrap = NO
Size = 7.5
Price = 102.00
QTY = 1
Total = 102.00

2<Billing and Shipping Information>

Wrap note = 

<b>Billing address</b>
 Stephen Peare
6 1st Street

Somersworth
New Hampshire&nbsp;03878
US

<b>Delivery address</b>







Registered mail (4-7 business days)

SUB total= 102.00

Delivery= 0.00

<b>TOTAL= 102.00</b>

