1<Order Number - <b>4000028315</b>>


Order Date - 2015-06-14 06:24:35
Order Status - 1 - confirmed and paid


2<Products>

<b>SHANORE</b> - Emerald and Diamond Set 14K Eternity Ring  (P/N - 14IC30WED)
Gift Wrap = NO
Size = 8.5
Price = 604.00
QTY = 1
Total = 604.00

2<Billing and Shipping Information>

Wrap note = 

<b>Billing address</b>
 Ted Bates
15860 w south range rd

salem
ohio&nbsp;44460
US

<b>Delivery address</b>







Fedex Priority (1-2 business days)

SUB total= 604.00

Delivery= 0.00

<b>TOTAL= 604.00</b>

