1<Order Number - <b>4000028416</b>>


Order Date - 2015-06-22 13:48:26
Order Status - 1 - confirmed and paid


2<Products>

<b>SHANORE</b> - Claddagh Heart Set Ring (P/N - SL75GRCZ)
Gift Wrap = NO
Size = 7.5
Price = 46.00
QTY = 1
Total = 46.00

2<Billing and Shipping Information>

Wrap note = 

<b>Billing address</b>
 Brídann Cronin
Clonsillagh

Freemount, Charleville 
Cork&nbsp;-
Ireland

<b>Delivery address</b>
 

undefined


Ireland

Fastway (1 day)

SUB total= 46.00

Delivery= 0.00

<b>TOTAL= 46.00</b>

