1<Order Number - <b>4000028569</b>>


Order Date - 2015-07-06 14:07:12
Order Status - 8 - CANCELED


2<Products>

<b>SHANORE</b> - Celtic diamond solitaire white gold round cut.  (P/N - JP1W)
Gift Wrap = YES
Size = 5.5
Price = 3,692.00
QTY = 1
Total = 3,692.00

2<Billing and Shipping Information>

Wrap note = 

<b>Billing address</b>
 Ryan Malo
4 Fazio Farm Rd

Georgetown
MA&nbsp;01833
United States

<b>Delivery address</b>
ryan  malo
33 county street
undefined
peabody
ma01960
United States

Fedex Priority (1-2 business days)

SUB total= 3,692.00

Delivery= 0.00

<b>TOTAL= 3,692.00</b>

