1<Order Number - <b>4000028608</b>>


Order Date - 2015-07-09 22:13:39
Order Status - 2 - dispatched / resolved


2<Products>

<b>SHANORE</b> - Silver Gents Celtic Design Ring (P/N - SD1)
Gift Wrap = NO
Size = 8.5
Price = 224.00
QTY = 1
Total = 224.00

2<Billing and Shipping Information>

Wrap note = 

<b>Billing address</b>
 Robin Jesenovec
6226 Mentor Park Blvd

Mentor
OH/Lake&nbsp;44060
United States

<b>Delivery address</b>
 

undefined


United States

Fedex Priority (1-2 business days)

SUB total= 224.00

Delivery= 30.00

<b>TOTAL= 224.00</b>

