1<Order Number - <b>4000028637</b>>


Order Date - 2015-07-10 22:53:58
Order Status - 1 - confirmed and paid


2<Products>

<b>SHANORE</b> - Claddagh Pave Set Ladies Ring (P/N - SL97)
Gift Wrap = NO
Size = 7
Price = 58.00
QTY = 1
Total = 58.00

2<Billing and Shipping Information>

Wrap note = 

<b>Billing address</b>
 GAELLE CHOGNARD
6125 GERARD MORISSET AVENUE

MONTREAL
CANADA&nbsp;H1M3J8
Canada

<b>Delivery address</b>
 

undefined


Canada

Registered mail (4-7 business days)

SUB total= 58.00

Delivery= 0.00

<b>TOTAL= 58.00</b>

