1<Order Number - <b>4000028776</b>>


Order Date - 2015-07-18 20:41:58
Order Status - 1 - confirmed and paid


2<Products>

<b>SHANORE</b> - Silver Diamond set Claddagh Ring with 10kt Gold Heart (P/N - SL98)
Gift Wrap = NO
Size = 5
Price = 172.00
QTY = 1
Total = 172.00

2<Billing and Shipping Information>

Wrap note = 

<b>Billing address</b>
 Andrew Mountin
7424 W. Wisconsin Avenue

Wauwatosa
WI&nbsp;53213
United States

<b>Delivery address</b>
 

undefined


United States

Registered mail (4-7 business days)

SUB total= 172.00

Delivery= 0.00

<b>TOTAL= 172.00</b>

