1<Order Number - <b>4000028872</b>>


Order Date - 2015-07-27 07:37:08
Order Status - 1 - confirmed and paid


2<Products>

<b>SHANORE</b> - Claddagh Pave Set Ladies Ring (P/N - SL97)
Gift Wrap = NO
Size = 6
Price = 80.00
QTY = 1
Total = 80.00

2<Billing and Shipping Information>

Wrap note = 

<b>Billing address</b>
 Alexandra Hooks
900 constitution Ave apt D42

Fort Collins
Colorado &nbsp;80521
US

<b>Delivery address</b>







Registered mail (4-7 business days)

SUB total= 80.00

Delivery= 0.00

<b>TOTAL= 80.00</b>

