1<Order Number - <b>4000028889</b>>


Order Date - 2015-07-28 12:08:10
Order Status - 2 - dispatched / resolved


2<Products>

<b>SHANORE</b> - Ladies Silver Celtic knot Wedding Ring (P/N - SD10)
Gift Wrap = NO
Size = 6.5
Price = 105.00
QTY = 1
Total = 105.00

2<Billing and Shipping Information>

Wrap note = 

<b>Billing address</b>
 Maggie Mollica
327 Greenpoint ave

Liverpool
Ny&nbsp;13088
US

<b>Delivery address</b>







Fedex Priority (1-2 business days)

SUB total= 105.00

Delivery= 30.00

<b>TOTAL= 105.00</b>

