1<Order Number - <b>4000029013</b>>


Order Date - 2015-08-06 12:08:42
Order Status - 1 - confirmed and paid


2<Products>

<b>SHANORE</b> - Sterling Silver Claddagh Stone Set Earrings  (P/N - SE2057)
Gift Wrap = NO
Size = -
Price = 70.00
QTY = 1
Total = 70.00

2<Billing and Shipping Information>

Wrap note = 

<b>Billing address</b>
 Anne Rice
42

Newtownbutler
Non&nbsp;bt926jt
Ireland

<b>Delivery address</b>
Anne Rice

undefined
Newtownbutler
Nonbt926jt
Ireland

Registered mail (10-14 business days)

SUB total= 70.00

Delivery= 0.00

<b>TOTAL= 70.00</b>

