1<Order Number - <b>4000029067</b>>


Order Date - 2015-08-11 15:10:02
Order Status - 1 - confirmed and paid


2<Products>

<b>SHANORE</b> - Silver Gents Celtic Design Ring (P/N - SD1)
Gift Wrap = NO
Size = 8.5
Price = 224.00
QTY = 1
Total = 224.00

2<Billing and Shipping Information>

Wrap note = 

<b>Billing address</b>
 Kathleen Bell
6206 Eagle Ridge Ct.

Fort Collins
CO&nbsp;80525
United States

<b>Delivery address</b>
 

undefined


United States

Registered mail (4-7 business days)

SUB total= 224.00

Delivery= 0.00

<b>TOTAL= 224.00</b>

