1<Order Number - <b>4000029196</b>>


Order Date - 2015-08-21 01:17:13
Order Status - 1 - confirmed and paid


2<Products>

<b>SHANORE</b> - Claddagh Birthstone Ring September (P/N - SL90S)
Gift Wrap = NO
Size = 9
Price = 77.00
QTY = 1
Total = 77.00

2<Billing and Shipping Information>

Wrap note = 

<b>Billing address</b>
 Tim Killian
1838 Chestnut Ridge Road

Chittenango
NY&nbsp;13037
United States

<b>Delivery address</b>
1838 Chestnut Ridge Road

Chittenango
NY13037
United States

Registered mail (4-7 business days)Phone:


SUB total= 77.00

Delivery= 0.00

<b>TOTAL= 77.00</b>

