1<Order Number - <b>4000029254</b>>


Order Date - 2015-08-26 01:58:56
Order Status - 1 - confirmed and paid


2<Products>

<b>SHANORE</b> - Celtic Trinity Knot Pearl Silver Ring (P/N - SRCP1)
Gift Wrap = NO
Size = 5.5
Price = 72.00
QTY = 1
Total = 72.00

2<Billing and Shipping Information>

Wrap note = 

<b>Billing address</b>
 patricia lopez
2 doris drive

nanuet
New York&nbsp;10954
United States

<b>Delivery address</b>
 

undefined


United States

Registered mail (4-7 business days)

SUB total= 72.00

Delivery= 0.00

<b>TOTAL= 72.00</b>

