1<Order Number - <b>4000029802</b>>


Order Date - 2015-10-08 15:35:18
Order Status - 1 - confirmed and paid


2<Products>

<b>SHANORE</b> - Silver Claddagh intertwining Design (P/N - SL46)
Gift Wrap = NO
Size = 5.5
Price = 61.00
QTY = 1
Total = 61.00

2<Billing and Shipping Information>

Wrap note = 

<b>Billing address</b>
 Antaya Burri
565 Fielding Drive

Ottawa
Ontario&nbsp;K1V7G7
Canada

<b>Delivery address</b>
 

undefined


Canada

Registered mail (4-7 business days)

SUB total= 61.00

Delivery= 0.00

<b>TOTAL= 61.00</b>

