1<Order Number - <b>4000029845</b>>


Order Date - 2015-10-12 21:55:02
Order Status - 1 - confirmed and paid


2<Products>

<b>TARA'S DIARY</b> - Celtic Trinity Silver Dangle Dancer Bead (P/N - TD20)
Gift Wrap = NO
Size = -
Price = 57.00
QTY = 1
Total = 57.00

2<Billing and Shipping Information>

Wrap note = 

<b>Billing address</b>
 Claire Magennis
13 Ballygallum Road

Downpatrick
Co.Down&nbsp;Bt30 7DA
United Kingdom

<b>Delivery address</b>
 

undefined




Registered mail (10-14 business days)

SUB total= 57.00

Delivery= 0.00

<b>TOTAL= 57.00</b>

