1<Order Number - <b>4000029853</b>>


Order Date - 2015-10-13 12:04:56
Order Status - 1 - confirmed and paid


2<Products>

<b>SHANORE</b> - Mother Shamrock Pendant (P/N - MP - S)
Gift Wrap = NO
Size = <br/>More info: undefined, June
Price = 132.00
QTY = 1
Total = 132.00

2<Billing and Shipping Information>

Wrap note = 

<b>Billing address</b>
 Catherine Clem
8036 glenwood dr

Rome
Ny&nbsp;13440
US

<b>Delivery address</b>







Registered mail (4-7 business days)

SUB total= 132.00

Delivery= 0.00

<b>TOTAL= 132.00</b>

