1<Order Number - <b>4000029995</b>>


Order Date - 2015-10-27 00:38:17
Order Status - 1 - confirmed and paid


2<Products>

<b>SHANORE</b> - Claddagh Pave Set Ladies Ring (P/N - SL97)
Gift Wrap = NO
Size = 6
Price = 85.00
QTY = 1
Total = 85.00

2<Billing and Shipping Information>

Wrap note = 

<b>Billing address</b>
 Blaine  eddy 
4750 N. central ave.

Phoenix 
az&nbsp;85012
US

<b>Delivery address</b>







Registered mail (4-7 business days)

SUB total= 85.00

Delivery= 0.00

<b>TOTAL= 85.00</b>

