1<Order Number - <b>4000030089</b>>


Order Date - 2015-11-04 01:54:22
Order Status - 1 - confirmed and paid


2<Products>

<b>SHANORE</b> - Silver Claddagh Twist Rope Design (P/N - SL18)
Gift Wrap = NO
Size = 7
Price = 77.00
QTY = 1
Total = 77.00

2<Billing and Shipping Information>

Wrap note = 

<b>Billing address</b>
 Heather Kavanagh
512 Gentlewood Square

Purcellville
VA&nbsp;20132
US

<b>Delivery address</b>







Registered mail (4-7 business days)

SUB total= 77.00

Delivery= 0.00

<b>TOTAL= 77.00</b>

