1<Order Number - <b>4000030105</b>>


Order Date - 2015-11-04 17:59:20
Order Status - 1 - confirmed and paid


2<Products>

<b>TARA'S DIARY</b> - Silver Stone Set Snow Flake  (P/N - TD215 )
Gift Wrap = NO
Size = -
Price = 54.90
QTY = 1
Total = 54.90

<b>TARA'S DIARY</b> - Silver Celtic Weave Bead (P/N - TD72)
Gift Wrap = NO
Size = -
Price = 47.70
QTY = 1
Total = 47.70

2<Billing and Shipping Information>

Wrap note = 

<b>Billing address</b>
 Barbara J
1110 North K St

Lake Worth
FL&nbsp;33460
United States

<b>Delivery address</b>
1110 North K St

Lake Worth
FL33460
United States

Registered mail (4-7 business days)Phone:


SUB total= 102.60

Delivery= 0.00

<b>TOTAL= 47.70</b>

