1<Order Number - <b>4000030130</b>>


Order Date - 2015-11-06 15:49:00
Order Status - 1 - confirmed and paid


2<Products>

<b>SHANORE</b> - Claddagh Birthstone Ring - May (P/N - SL90GR)
Gift Wrap = NO
Size = 7
Price = 82.00
QTY = 1
Total = 82.00

2<Billing and Shipping Information>

Wrap note = 

<b>Billing address</b>
 Daria Glennon
139 S Ridgeley Rd

Norfolk
Virginia&nbsp;23505
United States

<b>Delivery address</b>
 

undefined


United States

Registered mail (4-7 business days)

SUB total= 82.00

Delivery= 0.00

<b>TOTAL= 82.00</b>

