1<Order Number - <b>4000030135</b>>


Order Date - 2015-11-07 02:23:25
Order Status - 1 - confirmed and paid


2<Products>

<b>TARA'S DIARY</b> - Silver Stone Set Snow Flake  (P/N - TD215 )
Gift Wrap = NO
Size = -
Price = 54.90
QTY = 1
Total = 54.90

2<Billing and Shipping Information>

Wrap note = 

<b>Billing address</b>
 Pamela A.
770 Timber Ridge Rd.

Marshfield
MO&nbsp;65706
United States

<b>Delivery address</b>
770 Timber Ridge Rd.

Marshfield
MO65706
United States

Registered mail (4-7 business days)Phone:


SUB total= 54.90

Delivery= 0.00

<b>TOTAL= 54.90</b>

