1<Order Number - <b>4000030180</b>>


Order Date - 2015-11-10 16:08:17
Order Status - 1 - confirmed and paid


2<Products>

<b>SHANORE</b> - Celtic Trinity Knot Earring Set with Emerald and Diamond  (P/N - SE2028)
Gift Wrap = NO
Size = -
Price = 137.00
QTY = 1
Total = 137.00

2<Billing and Shipping Information>

Wrap note = 

<b>Billing address</b>
 John Russell
10638 153 Street
UNIT 3
EDMONTON
Alberta&nbsp;T5P 2C5
Canada

<b>Delivery address</b>
10638 153 Street
UNIT 3
EDMONTON
AlbertaT5P 2C5
Canada

Registered mail (4-7 business days)Phone:


SUB total= 137.00

Delivery= 0.00

<b>TOTAL= 137.00</b>

