1<Order Number - <b>4000030334</b>>


Order Date - 2015-11-19 19:56:39
Order Status - 1 - confirmed and paid


2<Products>

<b>SHANORE</b> - Silver Green Cz Halo Ring  (P/N - SL100GRCZ)
Gift Wrap = NO
Size = 7
Price = 162.00
QTY = 1
Total = 162.00

2<Billing and Shipping Information>

Wrap note = 

<b>Billing address</b>
 Mary Ann Keating
308 Steeplechase Dr

Elverson
PA&nbsp;19520
United States

<b>Delivery address</b>
 

undefined


United States

Registered mail (4-7 business days)

SUB total= 162.00

Delivery= 0.00

<b>TOTAL= 162.00</b>

