1<Order Number - <b>4000030384</b>>


Order Date - 2015-11-21 22:35:00
Order Status - 1 - confirmed and paid


2<Products>

<b>SHANORE</b> - Claddagh Heart Set Ring (P/N - SL75GRCZ)
Gift Wrap = NO
Size = 6.5
Price = 68.00
QTY = 1
Total = 68.00

2<Billing and Shipping Information>

Wrap note = 

<b>Billing address</b>
 John Gebhardt
1369 Fox Ridge Ct.

Arnold
MO&nbsp;63010
United States

<b>Delivery address</b>
 

undefined


United States

Registered mail (4-7 business days)

SUB total= 68.00

Delivery= 0.00

<b>TOTAL= 68.00</b>

