1<Order Number - <b>4000030391</b>>


Order Date - 2015-11-22 14:01:51
Order Status - 1 - confirmed and paid


2<Products>

<b>SHANORE</b> - Claddagh Birthstone Ring December (P/N - SL90BT)
Gift Wrap = NO
Size = 6
Price = 82.00
QTY = 1
Total = 82.00

2<Billing and Shipping Information>

Wrap note = 

<b>Billing address</b>
 katie kelly
S53W25894 HAZELHURST LN

WAUKESHA
Wisconsin&nbsp;53189-9576
United States

<b>Delivery address</b>
 

undefined


United States

Registered mail (4-7 business days)

SUB total= 82.00

Delivery= 0.00

<b>TOTAL= 82.00</b>

