1<Order Number - <b>4000030417</b>>


Order Date - 2015-11-24 02:17:55
Order Status - 1 - confirmed and paid


2<Products>

<b>TARA'S DIARY</b> - Sterling Silver Celtic Trinity Knot  (P/N - TD201)
Gift Wrap = NO
Size = -
Price = 63.00
QTY = 1
Total = 63.00

2<Billing and Shipping Information>

Wrap note = 

<b>Billing address</b>
 David Cleary
54 Quickset Road

Levittown
Pa&nbsp;19057
United States

<b>Delivery address</b>
 

undefined


United States

Registered mail (4-7 business days)

SUB total= 63.00

Delivery= 0.00

<b>TOTAL= 63.00</b>

