1<Order Number - <b>4000030661</b>>


Order Date - 2015-12-04 23:17:10
Order Status - 1 - confirmed and paid


2<Products>

<b>TARA'S DIARY</b> - Sterling Silver  26 (P/N - TD185)
Gift Wrap = NO
Size = -
Price = 133.00
QTY = 1
Total = 133.00

2<Billing and Shipping Information>

Wrap note = 

<b>Billing address</b>
 linda flynn
533 North Chestnut St.

Westfield
NJ&nbsp;07090
United States

<b>Delivery address</b>
533 North Chestnut St.

Westfield
NJ07090
United States

Registered mail (4-7 business days)Phone:


SUB total= 133.00

Delivery= 0.00

<b>TOTAL= 133.00</b>

