1<Order Number - <b>4000030719</b>>


Order Date - 2015-12-07 17:10:36
Order Status - 1 - confirmed and paid


2<Products>

<b>SHANORE</b> - Celtic Pearl Pendant Adorned By Swarovski Crystals   (P/N - SW24)
Gift Wrap = NO
Size = -
Price = 112.00
QTY = 1
Total = 112.00

2<Billing and Shipping Information>

Wrap note = 

<b>Billing address</b>
 John Doyle
6439 Kincaid Rd

Cincinnati
OH&nbsp;45213
US

<b>Delivery address</b>







Registered mail (4-7 business days)

SUB total= 112.00

Delivery= 0.00

<b>TOTAL= 112.00</b>

