1<Order Number - <b>4000030721</b>>


Order Date - 2015-12-07 17:30:50
Order Status - 1 - confirmed and paid


2<Products>

<b>SHANORE</b> - Celtic Trinity Diamond & Emerald Cross  (P/N - SF29)
Gift Wrap = NO
Size = -
Price = 152.00
QTY = 1
Total = 152.00

2<Billing and Shipping Information>

Wrap note = 

<b>Billing address</b>
 Samuel Herald
39 Millbrook Court

Easton
PA&nbsp;18045
United States

<b>Delivery address</b>
 

undefined


United States

Registered mail (4-7 business days)

SUB total= 152.00

Delivery= 0.00

<b>TOTAL= 152.00</b>

