1<Order Number - <b>4000030724</b>>


Order Date - 2015-12-07 18:21:21
Order Status - 1 - confirmed and paid


2<Products>

<b>SHANORE</b> - Gents Claddagh Ring (P/N - SG7)
Gift Wrap = NO
Size = 9.5
Price = 140.00
QTY = 1
Total = 140.00

2<Billing and Shipping Information>

Wrap note = 

<b>Billing address</b>
 Ginny Bast
7 Ridge Road

Newtown
CT&nbsp;06470
United States

<b>Delivery address</b>
 

undefined


United States

Fedex Priority (1-2 business days)

SUB total= 140.00

Delivery= 30.00

<b>TOTAL= 140.00</b>

