1<Order Number - <b>4000030730</b>>


Order Date - 2015-12-08 02:42:56
Order Status - 1 - confirmed and paid


2<Products>

<b>SHANORE</b> - Ladies Silver Celtic knot Wedding Ring (P/N - SD10)
Gift Wrap = NO
Size = 8
Price = 110.00
QTY = 1
Total = 110.00

2<Billing and Shipping Information>

Wrap note = 

<b>Billing address</b>
 Deb Franzoy
PO Box 427
1145 Fort Selden Road
Radium Springs
NM&nbsp;88054-0427
United States

<b>Delivery address</b>
PO Box 427
1145 Fort Selden Road
Radium Springs
NM88054-0427
United States

Registered mail (4-7 business days)Phone:


SUB total= 110.00

Delivery= 0.00

<b>TOTAL= 110.00</b>

