1<Order Number - <b>4000030887</b>>


Order Date - 2015-12-14 01:02:35
Order Status - 1 - confirmed and paid


2<Products>

<b>SHANORE</b> - Celtic Birthstone Pendant December (P/N - SP2075BT)
Gift Wrap = NO
Size = -
Price = 81.00
QTY = 1
Total = 81.00

2<Billing and Shipping Information>

Wrap note = 

<b>Billing address</b>
 Lucille Anastasi
3217 South 18th Street

Philadelphia
Pennsylvania&nbsp;19145
United States

<b>Delivery address</b>
 

undefined


United States

Registered mail (4-7 business days)

SUB total= 81.00

Delivery= 0.00

<b>TOTAL= 81.00</b>

