1<Order Number - <b>4000030940</b>>


Order Date - 2015-12-15 14:40:52
Order Status - 1 - confirmed and paid


2<Products>

<b>TARA'S DIARY</b> - Silver Stone Set Snow Flake  (P/N - TD215 )
Gift Wrap = NO
Size = -
Price = 61.00
QTY = 1
Total = 61.00

<b>TARA'S DIARY</b> - Silver Celtic Trinity Bead (P/N - TD206)
Gift Wrap = NO
Size = -
Price = 56.00
QTY = 1
Total = 56.00

2<Billing and Shipping Information>

Wrap note = 

<b>Billing address</b>
 Dennis Carney
240 W Ridley Ave

Ridley Park
PA&nbsp;19078
United States

<b>Delivery address</b>
240 W Ridley Ave

Ridley Park
PA19078
United States

Registered mail (4-7 business days)Phone:


SUB total= 117.00

Delivery= 0.00

<b>TOTAL= 56.00</b>

