1<Order Number - <b>4000031126</b>>


Order Date - 2015-12-25 20:36:28
Order Status - 1 - confirmed and paid


2<Products>

<b>SHANORE</b> - Claddagh, Love, Loyalty, Friendship Silver Ring (P/N - SL1)
Gift Wrap = NO
Size = 7
Price = 61.00
QTY = 1
Total = 61.00

2<Billing and Shipping Information>

Wrap note = 

<b>Billing address</b>
 Evan Aspell
353 2nd street

Jersey City 
New Jersey &nbsp;07302
US

<b>Delivery address</b>

435 West 57th street
Apt. 1E
New York
New York10019
US

Registered mail (4-7 business days)

SUB total= 61.00

Delivery= 0.00

<b>TOTAL= 61.00</b>

