1<Order Number - <b>4000031161</b>>


Order Date - 2015-12-28 13:44:15
Order Status - 1 - confirmed and paid


2<Products>

<b>SHANORE</b> - Ladies Celtic Cross Silver Ring  (P/N - SD15)
Gift Wrap = NO
Size = 9
Price = 100.00
QTY = 1
Total = 100.00

2<Billing and Shipping Information>

Wrap note = 

<b>Billing address</b>
 Michelle Hug
2350 State Route 10
Unit D-04
Morris Plains
NJ&nbsp;07950
United States

<b>Delivery address</b>
2350 State Route 10
Unit D-04
Morris Plains
NJ07950
United States

Registered mail (4-7 business days)Phone:


SUB total= 100.00

Delivery= 0.00

<b>TOTAL= 100.00</b>

