1<Order Number - <b>4000031167</b>>


Order Date - 2015-12-28 18:49:24
Order Status - 1 - confirmed and paid


2<Products>

<b>TARA'S DIARY</b> - Newgrange Bead (P/N - TD164)
Gift Wrap = NO
Size = -
Price = 41.00
QTY = 1
Total = 41.00

<b>TARA'S DIARY</b> - Round Silver Claddagh Bead with Gold Plate Heart (P/N - TD46)
Gift Wrap = NO
Size = -
Price = 52.00
QTY = 1
Total = 52.00

2<Billing and Shipping Information>

Wrap note = 

<b>Billing address</b>
 Grace Westacott
38 The Gardens

Chudleigh
Devon&nbsp;TQ13 0GE
United Kingdom

<b>Delivery address</b>
38 The Gardens

Chudleigh
DevonTQ13 0GE
United Kingdom

Registered mail (10-14 business days)Phone:


SUB total= 93.00

Delivery= 0.00

<b>TOTAL= 52.00</b>

