1<Order Number - <b>4000031211</b>>


Order Date - 2015-12-31 22:48:06
Order Status - 1 - confirmed and paid


2<Products>

<b>SHANORE</b> - Celtic Trinity Diamond & Emerald Cross  (P/N - SF29)
Gift Wrap = NO
Size = -
Price = 152.00
QTY = 1
Total = 152.00

2<Billing and Shipping Information>

Wrap note = 

<b>Billing address</b>
 Osvaldo Acosta
154-01 71ave. Apt2a

Flushing
New york&nbsp;11367
United States

<b>Delivery address</b>
 

undefined


United States

Registered mail (4-7 business days)

SUB total= 152.00

Delivery= 0.00

<b>TOTAL= 152.00</b>

