1<Order Number - <b>4000031271</b>>


Order Date - 2016-01-04 21:05:40
Order Status - 1 - confirmed and paid


2<Products>

<b>TARA'S DIARY</b> - Gold Plate Trinity Knot Silver Bead (P/N - TD74)
Gift Wrap = NO
Size = -
Price = 54.00
QTY = 1
Total = 54.00

2<Billing and Shipping Information>

Wrap note = 

<b>Billing address</b>
 william freund
105 poinsettia cove

leesburg
FL&nbsp;34748
United States

<b>Delivery address</b>
105 poinsettia cove

leesburg
FL34748
United States

Registered mail (4-7 business days)Phone:


SUB total= 54.00

Delivery= 0.00

<b>TOTAL= 54.00</b>

