1<Order Number - <b>4000031694</b>>


Order Date - 2016-02-02 21:12:44
Order Status - 1 - confirmed and paid


2<Products>

<b>SHANORE</b> - Mother Trinity Pendant (P/N - MP - T)
Gift Wrap = NO
Size = <br/>More info: undefined, January, August, April
Price = 145.80
QTY = 1
Total = 145.80

2<Billing and Shipping Information>

Wrap note = 

<b>Billing address</b>
 Alyssa Bostock
55 1st Ave.

Avon By The Sea
NJ&nbsp;07717
United States

<b>Delivery address</b>
55 1st Ave.

Avon By The Sea
NJ07717
United States

Registered mail (4-7 business days)Phone:


SUB total= 145.80

Delivery= 0.00

<b>TOTAL= 145.80</b>

