1<Order Number - <b>4000031700</b>>


Order Date - 2016-02-03 06:02:15
Order Status - 1 - confirmed and paid


2<Products>

<b>SHANORE</b> - Silver Green Enamel Claddagh Pendant  (P/N - LM25)
Gift Wrap = NO
Size = -
Price = 69.00
QTY = 1
Total = 69.00

2<Billing and Shipping Information>

Wrap note = 

<b>Billing address</b>
 Patrick Foley
2614 Harrison

Evanston
IL&nbsp;60201
United States

<b>Delivery address</b>
 

undefined


United States

Registered mail (4-7 business days)

SUB total= 69.00

Delivery= 0.00

<b>TOTAL= 69.00</b>

