1<Order Number - <b>4000031749</b>>


Order Date - 2016-02-05 16:49:39
Order Status - 9 - payment failed


2<Products>

<b>SHANORE</b> - Celtic solitaire diamond 14k white gold ring round cut.  (P/N - 14M1S6W)
Gift Wrap = YES
Size = 6
Price = 3,551.00
QTY = 1
Total = 3,551.00

2<Billing and Shipping Information>

Wrap note = 

<b>Billing address</b>
 Cole Anderson
23905 pollard loop rd

Kasilof
Alaska&nbsp;
US

<b>Delivery address</b>







Fedex Priority (1-2 business days)

SUB total= 3,551.00

Delivery= 0.00

<b>TOTAL= 3,551.00</b>

