1<Order Number - <b>4000031882</b>>


Order Date - 2016-02-13 21:46:36
Order Status - 1 - confirmed and paid


2<Products>

<b>SHANORE</b> -  Celtic Silver Claddagh Star Pendant (P/N - SP2069CZ)
Gift Wrap = NO
Size = -
Price = 87.00
QTY = 1
Total = 87.00

2<Billing and Shipping Information>

Wrap note = 

<b>Billing address</b>
 Kris McDaniel-Miccio
819 Milwaukee St

Denver
CO&nbsp;80206
US

<b>Delivery address</b>







Registered mail (4-7 business days)

SUB total= 87.00

Delivery= 0.00

<b>TOTAL= 87.00</b>

