1<Order Number - <b>4000032037</b>>


Order Date - 2016-02-23 00:51:14
Order Status - 2 - dispatched / resolved


2<Products>

<b>SHANORE</b> - Celtic engagement ring 14k yellow and white 3 stone .25ct (P/N - 14RC3STD)
Gift Wrap = NO
Size = 6.5
Price = 2,420.00
QTY = 1
Total = 2,420.00

2<Billing and Shipping Information>

Wrap note = 

<b>Billing address</b>
 Jane Foley
734 Zillmere Rd

Brisbane
Queensland&nbsp;4034
Australia

<b>Delivery address</b>
734 Zillmere Rd

Brisbane
Queensland4034
Australia

Fedex Priority (1-5 business days)Phone:


SUB total= 2,420.00

Delivery= 0.00

<b>TOTAL= 2,420.00</b>

