1<Order Number - <b>4000032164</b>>


Order Date - 2016-03-02 16:54:52
Order Status - 1 - confirmed and paid


2<Products>

<b>SHANORE</b> - 10 Karat Gold Claddagh Diamond Set  Pendant (P/N - 10P603D)
Gift Wrap = NO
Size = <br/>More info: Chain included<br>
Price = 394.00
QTY = 1
Total = 394.00

2<Billing and Shipping Information>

Wrap note = 

<b>Billing address</b>
 Deneen Barclay
3195 Mulligan Lane

Chaska
MN&nbsp;55318
United States

<b>Delivery address</b>
 

undefined


United States

Registered mail (6-10 business days)

SUB total= 394.00

Delivery= 0.00

<b>TOTAL= 394.00</b>

