1<Order Number - <b>4000032260</b>>


Order Date - 2016-03-10 13:41:33
Order Status - 1 - confirmed and paid


2<Products>

<b>SHANORE</b> - Ladies Silver Claddagh Celtic wedding Ring  (P/N - SD8)
Gift Wrap = NO
Size = 6
Price = 82.00
QTY = 1
Total = 82.00

2<Billing and Shipping Information>

Wrap note = 

<b>Billing address</b>
 Donja de Bruin
Burgemeester Aalberslaan 163

Krimpen aan den IJssel
Zuid-Holland&nbsp;2923CC
NL

<b>Delivery address</b>







Registered mail (3-8 business days)

SUB total= 82.00

Delivery= 0.00

<b>TOTAL= 82.00</b>

