1<Order Number - <b>4000032340</b>>


Order Date - 2016-03-17 02:55:26
Order Status - 1 - confirmed and paid


2<Products>

<b>SHANORE</b> - Ladies Claddagh Comfort fit Silver Ring (P/N - SL92)
Gift Wrap = NO
Size = 4
Price = 92.00
QTY = 1
Total = 92.00

2<Billing and Shipping Information>

Wrap note = 

<b>Billing address</b>
 Paul Gibbs
556 South P St

Livermore
CA&nbsp;94550
United States

<b>Delivery address</b>
Paul Gibbs
PO Box 705
undefined
Livermore
CA94550-0705
United States

Registered mail (6-10 business days)

SUB total= 92.00

Delivery= 0.00

<b>TOTAL= 92.00</b>

