1<Order Number - <b>4000032499</b>>


Order Date - 2016-03-28 20:01:33
Order Status - 1 - confirmed and paid


2<Products>

<b>SHANORE</b> - Silver Stone Set Shamrock Earrings (P/N - SE2014)
Gift Wrap = NO
Size = -
Price = 72.00
QTY = 1
Total = 72.00

2<Billing and Shipping Information>

Wrap note = 

<b>Billing address</b>
 al akers
221 duchess ct.

Myrtle Beach
sc&nbsp;29588
United States

<b>Delivery address</b>
 

undefined


United States

Registered mail (6-10 business days)

SUB total= 72.00

Delivery= 0.00

<b>TOTAL= 72.00</b>

