1<Order Number - <b>4000032562</b>>


Order Date - 2016-04-02 22:04:11
Order Status - 1 - confirmed and paid


2<Products>

<b>SHANORE</b> - Claddagh Birthstone Ring June (P/N - SL90AX)
Gift Wrap = NO
Size = 6.5
Price = 82.00
QTY = 1
Total = 82.00

2<Billing and Shipping Information>

Wrap note = 

<b>Billing address</b>
 Jason Marks
3557 South 1100 East

Salt Lake City
Utah&nbsp;84106
US

<b>Delivery address</b>







Registered mail (6-10 business days)

SUB total= 82.00

Delivery= 0.00

<b>TOTAL= 82.00</b>

