1<Order Number - <b>4000032607</b>>


Order Date - 2016-04-06 15:48:51
Order Status - 1 - confirmed and paid


2<Products>

<b>SHANORE</b> - Ladies Silver Claddagh Celtic wedding Ring  (P/N - SD8)
Gift Wrap = NO
Size = 7
Price = 82.00
QTY = 1
Total = 82.00

2<Billing and Shipping Information>

Wrap note = 

<b>Billing address</b>
 Eliza Jonczyk
42 Russell Road

Bathgate
&nbsp;EH48 2GQ
United Kingdom

<b>Delivery address</b>
42 Russell Road

Bathgate
EH48 2GQ
United Kingdom

Registered mail (3-8 business days)Phone:


SUB total= 82.00

Delivery= 0.00

<b>TOTAL= 82.00</b>

