1<Order Number - <b>4000032780</b>>


Order Date - 2016-04-20 16:56:50
Order Status - 1 - confirmed and paid


2<Products>

<b>SHANORE</b> - Mother Trinity Pendant (P/N - MP - T)
Gift Wrap = NO
Size = <br/>More info: undefined, January, August
Price = 137.00
QTY = 1
Total = 137.00

2<Billing and Shipping Information>

Wrap note = 

<b>Billing address</b>
 Paul Cahill
7126 N. Osceola Ave.

Chicago
Illinois&nbsp;60631
United States

<b>Delivery address</b>
 

undefined


United States

Registered mail (6-10 business days)

SUB total= 137.00

Delivery= 0.00

<b>TOTAL= 137.00</b>

