1<Order Number - <b>4000033149</b>>


Order Date - 2016-05-18 05:14:55
Order Status - 1 - confirmed and paid


2<Products>

<b>SHANORE</b> - Claddagh Birthstone Ring March (P/N - SL90AQ)
Gift Wrap = NO
Size = 7.5
Price = 82.00
QTY = 1
Total = 82.00

2<Billing and Shipping Information>

Wrap note = 

<b>Billing address</b>
 Laura Thompson-Olais
3901 s. escalante ridge

tucson
AZ&nbsp;85730
United States

<b>Delivery address</b>
ELIANA  OLAIS
915 17 TH.  AVENUE
undefined
SEATTLE
WASHINGTON98122
United States

Registered mail (6-10 business days)

SUB total= 82.00

Delivery= 0.00

<b>TOTAL= 82.00</b>

