1<Order Number - <b>4000033271</b>>


Order Date - 2016-05-29 17:55:29
Order Status - 1 - confirmed and paid


2<Products>

<b>SHANORE</b> - Celtic Silver Pearl Earrings (P/N - SECP1)
Gift Wrap = NO
Size = -
Price = 67.00
QTY = 1
Total = 67.00

2<Billing and Shipping Information>

Wrap note = 

<b>Billing address</b>
 Brian Sheehan
1675 york ave

New York
NY&nbsp;10128
United States

<b>Delivery address</b>
 

undefined


United States

Registered mail (6-10 business days)

SUB total= 67.00

Delivery= 0.00

<b>TOTAL= 67.00</b>

