1<Order Number - <b>4000033397</b>>


Order Date - 2016-06-08 13:10:18
Order Status - 1 - confirmed and paid


2<Products>

<b>SHANORE</b> - Claddagh Birthstone Ring October (P/N - SL90PCZ)
Gift Wrap = NO
Size = 4
Price = 82.00
QTY = 1
Total = 82.00

2<Billing and Shipping Information>

Wrap note = 

<b>Billing address</b>
 Robin Reilly
114 Cedar Drive

Lanoka Harbor
NJ&nbsp;08734
United States

<b>Delivery address</b>
 

undefined


United States

Registered mail (6-10 business days)

SUB total= 82.00

Delivery= 0.00

<b>TOTAL= 82.00</b>

