1<Order Number - <b>4000033489</b>>


Order Date - 2016-06-16 14:17:39
Order Status - 1 - confirmed and paid


2<Products>

<b>SHANORE</b> - Trinity Earrings Adorned With Swarovski Crystals (P/N - SW43)
Gift Wrap = NO
Size = -
Price = 72.68
QTY = 1
Total = 72.68

<b>SHANORE</b> - Claddagh Earrings Adorned With Swarovski Crystals (P/N - SW48)
Gift Wrap = NO
Size = -
Price = 59.85
QTY = 1
Total = 59.85

<b>SHANORE</b> - Celtic Trinity Knot Embellished With Swarovski Crystals (P/N - SW45 )
Gift Wrap = NO
Size = -
Price = 68.40
QTY = 1
Total = 68.40

2<Billing and Shipping Information>

Wrap note = 

<b>Billing address</b>
 Lucille Anastasi
3217 South 18th Street

Philadelphia
Pennsylvania&nbsp;19145
United States

<b>Delivery address</b>
 

undefined


United States

Registered mail (6-10 business days)

SUB total= 200.93

Delivery= 0.00

<b>TOTAL= 68.40</b>

