1<Order Number - <b>4000033564</b>>


Order Date - 2016-06-22 07:49:59
Order Status - 1 - confirmed and paid


2<Products>

<b>SHANORE</b> - Claddagh Birthstone Ring June (P/N - SL90AX)
Gift Wrap = NO
Size = 7
Price = 82.00
QTY = 1
Total = 82.00

2<Billing and Shipping Information>

Wrap note = 

<b>Billing address</b>
 Jarrod Smith
3002 Lena Dr

Wylie
Tx&nbsp;75098
United States

<b>Delivery address</b>
Jarrod Smith
USS Porter DDG78  Box 1217
undefined
FPO
AE09582
United States

Registered mail (6-10 business days)

SUB total= 82.00

Delivery= 0.00

<b>TOTAL= 82.00</b>

