1<Order Number - <b>4000033594</b>>


Order Date - 2016-06-25 02:07:44
Order Status - 1 - confirmed and paid


2<Products>

<b>SHANORE</b> - Claddagh Wedding Ring Two Tone Ladies Diamonds Set with Celtic Knotwork (P/N - 14IC10)
Gift Wrap = NO
Size = 5.5
Price = 1,462.00
QTY = 1
Total = 1,462.00

2<Billing and Shipping Information>

Wrap note = 

<b>Billing address</b>
 Eric Bergstrom
1460 E Paseo Pavon

Tucson
AZ&nbsp;85718-2816
United States

<b>Delivery address</b>
1460 E Paseo Pavon

Tucson
AZ85718-2816
United States

Fedex Priority (1-2 business days)Phone:


SUB total= 1,462.00

Delivery= 0.00

<b>TOTAL= 1,462.00</b>

