1<Order Number - <b>4000033861</b>>


Order Date - 2016-07-15 23:51:41
Order Status - 1 - confirmed and paid


2<Products>

<b>SHANORE</b> - Mother Trinity Pendant (P/N - MP - T)
Gift Wrap = NO
Size = <br/>More info: undefined, January, March
Price = 137.00
QTY = 1
Total = 137.00

2<Billing and Shipping Information>

Wrap note = 

<b>Billing address</b>
 Deborah Baldwin
1581 Division St

Galway
NY&nbsp;12074
United States

<b>Delivery address</b>
 

undefined


United States

Registered mail (6-10 business days)

SUB total= 137.00

Delivery= 0.00

<b>TOTAL= 137.00</b>

