1<Order Number - <b>4000033880</b>>


Order Date - 2016-07-17 16:02:49
Order Status - 1 - confirmed and paid


2<Products>

<b>TARA'S DIARY</b> - Celtic Trinity Green Silver Stopper Bead (P/N - TD4GR)
Gift Wrap = NO
Size = -
Price = 62.00
QTY = 2
Total = 124.00

2<Billing and Shipping Information>

Wrap note = 

<b>Billing address</b>
 Calvina Vuong
205 Yellowood Circle

Thornhill
ON&nbsp;L4J 8M4
Canada

<b>Delivery address</b>
 

undefined


Canada

Registered mail (6-10 business days)

SUB total= 124.00

Delivery= 0.00

<b>TOTAL= 124.00</b>

