1<Order Number - <b>4000034147</b>>


Order Date - 2016-08-09 01:31:10
Order Status - 1 - confirmed and paid


2<Products>

<b>SHANORE</b> - Tree Of Life Necklace Adorned By Swarovski Crystals  (P/N - SW38)
Gift Wrap = NO
Size = -
Price = 258.30
QTY = 1
Total = 258.30

2<Billing and Shipping Information>

Wrap note = 

<b>Billing address</b>
 siddhartha gordon
23 elm st, apt e

hudson falls
New York&nbsp;12839
United States

<b>Delivery address</b>
 

undefined


United States

Registered mail (6-10 business days)

SUB total= 258.30

Delivery= 0.00

<b>TOTAL= 258.30</b>

