1<Order Number - <b>4000034331</b>>


Order Date - 2016-08-24 00:37:48
Order Status - 1 - confirmed and paid


2<Products>

<b>SHANORE</b> - Ladies Silver Celtic knot Wedding Ring (P/N - SD10)
Gift Wrap = NO
Size = 6
Price = 110.00
QTY = 1
Total = 110.00

<b>SHANORE</b> - Gent Silver Celtic Knot Wedding Ring (P/N - SD11)
Gift Wrap = NO
Size = 10
Price = 137.00
QTY = 1
Total = 137.00

2<Billing and Shipping Information>

Wrap note = 

<b>Billing address</b>
 Lisa Walters
477 N Sawburg Ave

Alliance
Ohio&nbsp;44601
US

<b>Delivery address</b>







Registered mail (6-10 business days)

SUB total= 247.00

Delivery= 0.00

<b>TOTAL= 137.00</b>

