1<Order Number - <b>4000034501</b>>


Order Date - 2016-09-05 23:17:10
Order Status - 1 - confirmed and paid


2<Products>

<b>SHANORE</b> - Claddagh Birthstone Ring September (P/N - SL90S)
Gift Wrap = NO
Size = 7
Price = 82.00
QTY = 1
Total = 82.00

2<Billing and Shipping Information>

Wrap note = 

<b>Billing address</b>
 Lelia Brennan
2200 Custer Street 

Piscataway 
NJ &nbsp;08854
US

<b>Delivery address</b>







Registered mail (6-10 business days)

SUB total= 82.00

Delivery= 0.00

<b>TOTAL= 82.00</b>

