1<Order Number - <b>4000034517</b>>


Order Date - 2016-09-06 13:08:24
Order Status - 1 - confirmed and paid


2<Products>

<b>SHANORE</b> - Ladies Celtic embossed pressure set Diamond Wedding ring (P/N - 14IC44W)
Gift Wrap = NO
Size = 5
Price = 791.00
QTY = 1
Total = 791.00

2<Billing and Shipping Information>

Wrap note = 

<b>Billing address</b>
 Elizabeth Todd
1137 Pine Street

Lansdale
PA&nbsp;19446
United States

<b>Delivery address</b>
 

undefined


United States

Fedex Priority (1-2 business days)

SUB total= 791.00

Delivery= 0.00

<b>TOTAL= 791.00</b>

