1<Order Number - <b>4000034716</b>>


Order Date - 2016-09-24 13:39:27
Order Status - 1 - confirmed and paid


2<Products>

<b>SHANORE</b> - Gents Claddagh Ring (P/N - SG7)
Gift Wrap = NO
Size = 10
Price = 140.00
QTY = 1
Total = 140.00

2<Billing and Shipping Information>

Wrap note = 

<b>Billing address</b>
 Louise  Dittmer
9915 Daphne Ave

Palm Beach Gardens
Florida&nbsp;33410-4736
United States

<b>Delivery address</b>
 

undefined


United States

Registered mail (6-10 business days)

SUB total= 140.00

Delivery= 0.00

<b>TOTAL= 140.00</b>

