1<Order Number - <b>4000034735</b>>


Order Date - 2016-09-26 23:29:57
Order Status - 1 - confirmed and paid


2<Products>

<b>SHANORE</b> - Silver Ladies Intricate Celtic Silver Design  (P/N - SD13)
Gift Wrap = NO
Size = 8.5
Price = 95.00
QTY = 1
Total = 95.00

2<Billing and Shipping Information>

Wrap note = 

<b>Billing address</b>
 Elizabeth Quaintance
10305 Curcle Iak Dr.

Atascadero
California&nbsp;93422
US

<b>Delivery address</b>







Registered mail (6-10 business days)

SUB total= 95.00

Delivery= 0.00

<b>TOTAL= 95.00</b>

