1<Order Number - <b>4000034756</b>>


Order Date - 2016-09-28 16:56:36
Order Status - 1 - confirmed and paid


2<Products>

<b>SHANORE</b> - Celtic Trinity Knot Necklace Embellished With Swarovski Crystals (P/N - SW41)
Gift Wrap = NO
Size = -
Price = 92.00
QTY = 1
Total = 92.00

2<Billing and Shipping Information>

Wrap note = 

<b>Billing address</b>
 jimmy denis
2/F, 92A LUK TEI TONG, MUI WO, LANTAU ISLAND, HONG KONG


&nbsp;
Hong Kong

<b>Delivery address</b>
2/F, 92A LUK TEI TONG, MUI WO, LANTAU ISLAND, HONG KONG



Hong Kong

Registered mail (10-14 business days)Phone:


SUB total= 92.00

Delivery= 0.00

<b>TOTAL= 92.00</b>

