1<Order Number - <b>4000034810</b>>


Order Date - 2016-10-03 01:43:46
Order Status - 1 - confirmed and paid


2<Products>

<b>SHANORE</b> - Celtic Birthstone Necklace November (P/N - SP2075TZ)
Gift Wrap = NO
Size = -
Price = 67.00
QTY = 1
Total = 67.00

2<Billing and Shipping Information>

Wrap note = 

<b>Billing address</b>
 Una Duff
94 Premier Square, Finglas Road

Dublin 11
Dublin&nbsp;000
Ireland

<b>Delivery address</b>
Una  Duff
OGP, 3A Mayor Street Upper
undefined
Dublin 1
Dublin000
Ireland

Fastway (1 day)

SUB total= 67.00

Delivery= 0.00

<b>TOTAL= 67.00</b>

