1<Order Number - <b>4000036687</b>>


Order Date - 2016-11-12 12:04:56
Order Status - 1 - confirmed and paid


2<Products>

<b>TARA'S DIARY</b> - Sterling Silver Claddagh  (P/N - TD203)
Gift Wrap = NO
Size = -
Price = 54.00
QTY = 1
Total = 54.00

<b>TARA'S DIARY</b> - Murano Shamrock and Spiral Silver Purple Bead (P/N - TD89)
Gift Wrap = NO
Size = -
Price = 40.00
QTY = 1
Total = 40.00

<b>TARA'S DIARY</b> - Tara's Diary Bracelet 7 Inches (P/N - TD1)
Gift Wrap = NO
Size = -
Price = 104.00
QTY = 1
Total = 104.00

2<Billing and Shipping Information>

Wrap note = 

<b>Billing address</b>
 Pierre DEFLORENNE
1 Cité du Sentier Saint-Rémy

59330
HAUTMONT&nbsp;59330
France

<b>Delivery address</b>
Pierre DEFLORENNE
7 rue de Sains
undefined
SEMERIES
59440
France

Registered mail (3-8 business days)

SUB total= 198.00

Delivery= 0.00

<b>TOTAL= 104.00</b>

