1<Order Number - <b>4000036847</b>>


Order Date - 2016-11-17 16:26:57
Order Status - 1 - confirmed and paid


2<Products>

<b>SHANORE</b> - Celtic Trinity Diamond & Emerald Cross  (P/N - SF29)
Gift Wrap = NO
Size = -
Price = 152.00
QTY = 1
Total = 152.00

2<Billing and Shipping Information>

Wrap note = 

<b>Billing address</b>
 Orville Rigsby
10402 Maple

Hartland
Mi&nbsp;48353
US

<b>Delivery address</b>







Registered mail (6-10 business days)

SUB total= 152.00

Delivery= 0.00

<b>TOTAL= 152.00</b>

