1<Order Number - <b>4000036947</b>>


Order Date - 2016-11-21 14:44:40
Order Status - 1 - confirmed and paid


2<Products>

<b>SHANORE</b> - 10 Karat Gold Celtic Cross (P/N - 10P629)
Gift Wrap = NO
Size = -
Price = 124.00
QTY = 1
Total = 124.00

2<Billing and Shipping Information>

Wrap note = 

<b>Billing address</b>
 Eric Ouellette
159 Plain Rd

Westford
MA&nbsp;01886-1831
United States

<b>Delivery address</b>
159 Plain Rd

Westford
MA01886-1831
United States

Registered mail (6-10 business days)Phone:


SUB total= 124.00

Delivery= 0.00

<b>TOTAL= 124.00</b>

