1<Order Number - <b>4000036992</b>>


Order Date - 2016-11-23 04:08:11
Order Status - 1 - confirmed and paid


2<Products>

<b>SHANORE</b> -   Celtic Birthstone Necklace August (P/N - SP2075P)
Gift Wrap = NO
Size = -
Price = 73.80
QTY = 1
Total = 73.80

2<Billing and Shipping Information>

Wrap note = 

<b>Billing address</b>
 Kathleen Meyer
422, 10925 Bluffside Drive

Studio City
California&nbsp;91604
United States

<b>Delivery address</b>
 

undefined


Canada

Registered mail (6-10 business days)

SUB total= 73.80

Delivery= 0.00

<b>TOTAL= 73.80</b>

