1<Order Number - <b>4000037010</b>>


Order Date - 2016-11-24 04:39:18
Order Status - 1 - confirmed and paid


2<Products>

<b>SHANORE</b> - Trinity Butterfly Necklace Embellished With Swarovski Crystals  (P/N - SW33)
Gift Wrap = NO
Size = -
Price = 232.00
QTY = 1
Total = 232.00

2<Billing and Shipping Information>

Wrap note = 

<b>Billing address</b>
 Daniel Nicholson
12313 S 71st Ct

Palos Heights
IL&nbsp;60463
United States

<b>Delivery address</b>
 

undefined


United States

Registered mail (6-10 business days)

SUB total= 232.00

Delivery= 0.00

<b>TOTAL= 232.00</b>

