1<Order Number - <b>4000037070</b>>


Order Date - 2016-11-26 23:03:13
Order Status - 1 - confirmed and paid


2<Products>

<b>SHANORE</b> - Silver Trinity Knot Stone Set Rose Gold Plated Necklace (P/N - SP2088CZ)
Gift Wrap = NO
Size = -
Price = 85.00
QTY = 1
Total = 85.00

2<Billing and Shipping Information>

Wrap note = 

<b>Billing address</b>
 Bridget Walsh
230 East 235th St, apt PH

Bronx
NY&nbsp;10470
United States

<b>Delivery address</b>
 

undefined


United States

Registered mail (6-10 business days)

SUB total= 85.00

Delivery= 0.00

<b>TOTAL= 85.00</b>

