1<Order Number - <b>4000037131</b>>


Order Date - 2016-11-29 06:52:55
Order Status - 1 - confirmed and paid


2<Products>

<b>SHANORE</b> - Celtic Silver Pearl Necklace (P/N - SPCP1)
Gift Wrap = NO
Size = -
Price = 70.00
QTY = 1
Total = 70.00

2<Billing and Shipping Information>

Wrap note = 

<b>Billing address</b>
 Bonnie Brennan
10230 SW Elise Ct

Tigard
OR&nbsp;97224
United States

<b>Delivery address</b>
10230 SW Elise Ct

Tigard
OR97224
United States

Registered mail (6-10 business days)Phone:


SUB total= 70.00

Delivery= 0.00

<b>TOTAL= 70.00</b>

