1<Order Number - <b>4000037152</b>>


Order Date - 2016-11-29 20:25:45
Order Status - 1 - confirmed and paid


2<Products>

<b>SHANORE</b> - Intricate Celtic Knot Silver Design Earrings (P/N - SE2111CZ)
Gift Wrap = NO
Size = -
Price = 87.00
QTY = 1
Total = 87.00

2<Billing and Shipping Information>

Wrap note = 

<b>Billing address</b>
 Stephanie Ringler
136 Woodbridge Ave

Metuchen
New Jersey&nbsp;08840
United States

<b>Delivery address</b>
 

undefined


United States

Registered mail (6-10 business days)

SUB total= 87.00

Delivery= 0.00

<b>TOTAL= 87.00</b>

