1<Order Number - <b>4000037170</b>>


Order Date - 2016-11-30 14:50:08
Order Status - 1 - confirmed and paid


2<Products>

<b>TARA'S DIARY</b> - Silver Enamel Shamrock Dog Bead  (P/N - TD228)
Gift Wrap = NO
Size = -
Price = 52.00
QTY = 1
Total = 52.00

2<Billing and Shipping Information>

Wrap note = 

<b>Billing address</b>
 william molony
16076 higginsport rd.

bernard
IA&nbsp;52032
United States

<b>Delivery address</b>
16076 higginsport rd.

bernard
IA52032
United States

Registered mail (6-10 business days)Phone:


SUB total= 52.00

Delivery= 0.00

<b>TOTAL= 52.00</b>

