1<Order Number - <b>4000037191</b>>


Order Date - 2016-12-01 00:31:24
Order Status - 2 - dispatched / resolved


2<Products>

<b>SHANORE</b> - Celtic Trinity Diamond & Emerald Cross  (P/N - SF29)
Gift Wrap = NO
Size = -
Price = 152.00
QTY = 1
Total = 152.00

2<Billing and Shipping Information>

Wrap note = 

<b>Billing address</b>
 Robert Hogan
6833 Butte House Road

SUTTER
CA&nbsp;95982
United States

<b>Delivery address</b>
6833 Butte House Road

SUTTER
CA95982
United States

Registered mail (6-10 business days)Phone:


SUB total= 152.00

Delivery= 0.00

<b>TOTAL= 152.00</b>

