1<Order Number - <b>4000037314</b>>


Order Date - 2016-12-05 21:08:37
Order Status - 1 - confirmed and paid


2<Products>

<b>TARA'S DIARY</b> - Dublin Castle Bead  (P/N - TD167)
Gift Wrap = NO
Size = -
Price = 66.00
QTY = 1
Total = 66.00

<b>TARA'S DIARY</b> - Giants Causeway Bead (P/N - TD168)
Gift Wrap = NO
Size = -
Price = 66.00
QTY = 1
Total = 66.00

<b>TARA'S DIARY</b> - Celtic Trinity Pot of Gold  (P/N - TD69)
Gift Wrap = NO
Size = -
Price = 64.00
QTY = 1
Total = 64.00

<b>TARA'S DIARY</b> - Irish Cottage Silver Bead (P/N - TD45)
Gift Wrap = NO
Size = -
Price = 65.00
QTY = 1
Total = 65.00

2<Billing and Shipping Information>

Wrap note = 

<b>Billing address</b>
 Eleanor Sofa
7091 Potomac Landing Drive

King George
VA&nbsp;22485
United States

<b>Delivery address</b>
 

undefined


United States

Registered mail (6-10 business days)

SUB total= 261.00

Delivery= 0.00

<b>TOTAL= 65.00</b>

