1<Order Number - <b>4000037389</b>>


Order Date - 2016-12-08 00:54:12
Order Status - 1 - confirmed and paid


2<Products>

<b>SHANORE</b> - Silver Celtic Stone Set Trinity Bracelet  (P/N - SB2018GR)
Gift Wrap = NO
Size = -
Price = 162.00
QTY = 1
Total = 162.00

2<Billing and Shipping Information>

Wrap note = 

<b>Billing address</b>
 David Bergman
6750 Winona Circle

Middleburg Hts
Ohio&nbsp;44130
United States

<b>Delivery address</b>
 

undefined


United States

Registered mail (6-10 business days)

SUB total= 162.00

Delivery= 0.00

<b>TOTAL= 162.00</b>

