1<Order Number - <b>4000037459</b>>


Order Date - 2016-12-09 21:04:08
Order Status - 1 - confirmed and paid


2<Products>

<b>SHANORE</b> - Ladies Claddagh Comfort fit Silver Ring (P/N - SL92)
Gift Wrap = NO
Size = 8.5
Price = 87.00
QTY = 1
Total = 87.00

2<Billing and Shipping Information>

Wrap note = 

<b>Billing address</b>
 MaryJo Carroll
7486 Cahill Road

Edina
MN&nbsp;55439
United States

<b>Delivery address</b>
 

undefined


United States

Registered mail (6-10 business days)

SUB total= 87.00

Delivery= 0.00

<b>TOTAL= 87.00</b>

