1<Order Number - <b>4000037488</b>>


Order Date - 2016-12-11 01:13:19
Order Status - 1 - confirmed and paid


2<Products>

<b>SHANORE</b> - Celtic Silver Pearl Earrings (P/N - SECP1)
Gift Wrap = NO
Size = -
Price = 62.00
QTY = 1
Total = 62.00

<b>SHANORE</b> - Celtic Silver Pearl Necklace (P/N - SPCP1)
Gift Wrap = NO
Size = -
Price = 65.00
QTY = 1
Total = 65.00

2<Billing and Shipping Information>

Wrap note = 

<b>Billing address</b>
 Kristin Trinka
1906 North James Street

Rome
NY/Oneida&nbsp;13440
United States

<b>Delivery address</b>
 

undefined


United States

Fedex Priority (1-2 business days)

SUB total= 127.00

Delivery= 30.00

<b>TOTAL= 65.00</b>

