1<Order Number - <b>4000037598</b>>


Order Date - 2016-12-14 19:15:23
Order Status - 1 - confirmed and paid


2<Products>

<b>TARA'S DIARY</b> -  Silver Enamel Shamrock Cat Bead (P/N - TD227)
Gift Wrap = NO
Size = -
Price = 62.00
QTY = 1
Total = 62.00

2<Billing and Shipping Information>

Wrap note = 

<b>Billing address</b>
 Joel Cadwell
7020 Doummar Drive

Norfolk
Virginia&nbsp;23518
US

<b>Delivery address</b>







Registered mail (6-10 business days)

SUB total= 62.00

Delivery= 0.00

<b>TOTAL= 62.00</b>

