1<Order Number - <b>4000037677</b>>


Order Date - 2016-12-18 15:15:24
Order Status - 1 - confirmed and paid


2<Products>

<b>SHANORE</b> - Trinity Knot Necklace Embellished with Swarovski Crystals  (P/N - SW6)
Gift Wrap = NO
Size = -
Price = 132.00
QTY = 1
Total = 132.00

2<Billing and Shipping Information>

Wrap note = 

<b>Billing address</b>
 Alexander Dalzell
11252 28th street circle east

parrish
fl&nbsp;34219
United States

<b>Delivery address</b>
 

undefined


United States

Registered mail (6-10 business days)

SUB total= 132.00

Delivery= 0.00

<b>TOTAL= 132.00</b>

