1<Order Number - <b>4000037694</b>>


Order Date - 2016-12-20 05:44:27
Order Status - 1 - confirmed and paid


2<Products>

<b>SHANORE</b> - Silver Diamond Set Claddagh Earrings (P/N - SE2059D)
Gift Wrap = NO
Size = -
Price = 211.00
QTY = 1
Total = 211.00

2<Billing and Shipping Information>

Wrap note = 

<b>Billing address</b>
 Thor-Inge Nordby
markavegen 17

Bud
Norge&nbsp;6430
Norway

<b>Delivery address</b>
 

undefined


Norway

Fedex Priority (1-2 business days)

SUB total= 211.00

Delivery= 30.00

<b>TOTAL= 211.00</b>

