1<Order Number - <b>4000037725</b>>


Order Date - 2016-12-19 19:59:19
Order Status - 1 - confirmed and paid


2<Products>

<b>SHANORE</b> - 10 Karat Gold Celtic Cross (P/N - 10P629)
Gift Wrap = NO
Size = -
Price = 119.00
QTY = 1
Total = 119.00

2<Billing and Shipping Information>

Wrap note = 

<b>Billing address</b>
 MIchelle Sweigart
141 West Washington Stret

Fleetwood
PA&nbsp;19522
United States

<b>Delivery address</b>
Michelle  Sweigart
6690 Grant Way
undefined
Allentown
PA18106
United States

Registered mail (6-10 business days)

SUB total= 119.00

Delivery= 0.00

<b>TOTAL= 119.00</b>

