1<Order Number - <b>4000037762</b>>


Order Date - 2016-12-20 23:48:33
Order Status - 1 - confirmed and paid


2<Products>

<b>TARA'S DIARY</b> - Pint of Stout Bead (P/N - TD165)
Gift Wrap = NO
Size = -
Price = 58.00
QTY = 0
Total = 0.00

<b>TARA'S DIARY</b> - Silver Celtic Cross Charm (P/N - TC12)
Gift Wrap = NO
Size = -
Price = 55.00
QTY = 0
Total = 0.00

<b>TARA'S DIARY</b> - Murano Shamrock and Spiral Silver bead (P/N - TD90)
Gift Wrap = NO
Size = -
Price = 45.00
QTY = 0
Total = 0.00

2<Billing and Shipping Information>

Wrap note = 

<b>Billing address</b>
 Keith Ertman
550 Filmore Road

Pittsburgh
Pennsylvania&nbsp;15221
United States

<b>Delivery address</b>
 

undefined


United States

Registered mail (6-10 business days)

SUB total= 158.00

Delivery= 0.00

<b>TOTAL= 0.00</b>

