1<Order Number - <b>4000038118</b>>


Order Date - 2017-01-07 19:41:08
Order Status - 1 - confirmed and paid


2<Products>

<b>TARA'S DIARY</b> - Blarney Stone Bead (P/N - TD162)
Gift Wrap = NO
Size = -
Price = 58.00
QTY = 2
Total = 116.00

2<Billing and Shipping Information>

Wrap note = 

<b>Billing address</b>
 Kathleen CREELY
1325 Van Buren Avenue

Des Plaines
IL&nbsp;60018
United States

<b>Delivery address</b>
1325 Van Buren Avenue

Des Plaines
IL60018
United States

Registered mail (6-10 business days)Phone:


SUB total= 116.00

Delivery= 0.00

<b>TOTAL= 116.00</b>

