1<Order Number - <b>4000038140</b>>


Order Date - 2017-01-08 22:54:31
Order Status - 1 - confirmed and paid


2<Products>

<b>SHANORE</b> - Claddagh, Love, Loyalty, Friendship Silver Ring (P/N - SL1)
Gift Wrap = NO
Size = 8
Price = 56.00
QTY = 1
Total = 56.00

<b>SHANORE</b> - Claddagh, Love, Loyalty, Friendship Silver Ring (P/N - SL1)
Gift Wrap = NO
Size = 7.5
Price = 56.00
QTY = 1
Total = 56.00

2<Billing and Shipping Information>

Wrap note = 

<b>Billing address</b>
 Susan Smullen
10520 Providence Way

Fairfax
Virginia&nbsp;22030
United States

<b>Delivery address</b>
 

undefined


United States

Registered mail (6-10 business days)

SUB total= 112.00

Delivery= 0.00

<b>TOTAL= 56.00</b>

