1<Order Number - <b>4000038213</b>>


Order Date - 2017-01-14 17:49:36
Order Status - 1 - confirmed and paid


2<Products>

<b>SHANORE</b> - Claddagh Birthstone Ring - May (P/N - SL90GR)
Gift Wrap = NO
Size = 6.5
Price = 77.00
QTY = 1
Total = 77.00

2<Billing and Shipping Information>

Wrap note = 

<b>Billing address</b>
 David Carucci
304 Lake Ave

Lyndhurst
NJ&nbsp;07071
United States

<b>Delivery address</b>
 

undefined


United States

Registered mail (6-10 business days)

SUB total= 77.00

Delivery= 0.00

<b>TOTAL= 77.00</b>

