1<Order Number - <b>4000038228</b>>


Order Date - 2017-01-16 00:10:33
Order Status - 1 - confirmed and paid


2<Products>

<b>SHANORE</b> - Claddagh Birthstone Necklace December (P/N - SP91BT)
Gift Wrap = NO
Size = -
Price = 77.00
QTY = 1
Total = 77.00

<b>SHANORE</b> - Claddagh Birthstone Necklace May  (P/N - SP91GR)
Gift Wrap = NO
Size = -
Price = 77.00
QTY = 1
Total = 77.00

<b>SHANORE</b> - Claddagh Birthstone Necklace June  (P/N - SP91AX)
Gift Wrap = NO
Size = -
Price = 77.00
QTY = 1
Total = 77.00

2<Billing and Shipping Information>

Wrap note = 

<b>Billing address</b>
 James Concagh
12318 Crystal View Lane

St louis
Mo&nbsp;63131
US

<b>Delivery address</b>

10411 Clayton Rd
Suite 311
Frontenac
St Louis63131
USA 

Registered mail (6-10 business days)

SUB total= 231.00

Delivery= 0.00

<b>TOTAL= 77.00</b>

