1<Order Number - <b>4000038334</b>>


Order Date - 2017-01-23 00:04:29
Order Status - 1 - confirmed and paid


2<Products>

<b>SHANORE</b> - Silver Claddagh intertwining Design (P/N - SL46)
Gift Wrap = NO
Size = 4.5
Price = 56.00
QTY = 1
Total = 56.00

2<Billing and Shipping Information>

Wrap note = 

<b>Billing address</b>
 Emmanuel Hernandez
10 50th St, apt. 1

Weehawken
NJ&nbsp;07086
United States

<b>Delivery address</b>
 

undefined


United States

Registered mail (6-10 business days)

SUB total= 56.00

Delivery= 0.00

<b>TOTAL= 56.00</b>

