1<Order Number - <b>4000038401</b>>


Order Date - 2017-01-28 21:22:36
Order Status - 1 - confirmed and paid


2<Products>

<b>SHANORE</b> - Rose Gold Plated Shamrock Earrings Encrusted With Swarovski Crystals   (P/N - SW10)
Gift Wrap = NO
Size = -
Price = 107.00
QTY = 1
Total = 107.00

2<Billing and Shipping Information>

Wrap note = 

<b>Billing address</b>
 Marsha Adams
644 HIDE A WAY LN E

Lindale
Texas&nbsp;75771
United States

<b>Delivery address</b>
 

undefined


United States

Registered mail (6-10 business days)

SUB total= 107.00

Delivery= 0.00

<b>TOTAL= 107.00</b>

