1<Order Number - <b>4000038413</b>>


Order Date - 2017-01-30 06:32:58
Order Status - 1 - confirmed and paid


2<Products>

<b>SHANORE</b> - Celtic Silver Pearl Necklace (P/N - SPCP1)
Gift Wrap = NO
Size = -
Price = 65.00
QTY = 1
Total = 65.00

2<Billing and Shipping Information>

Wrap note = 

<b>Billing address</b>
 Kathryn Slevin
16862 Le Clare Shores Dr

Tampa
Florida&nbsp;33624
US

<b>Delivery address</b>







Registered mail (6-10 business days)

SUB total= 65.00

Delivery= 0.00

<b>TOTAL= 65.00</b>

