1<Order Number - <b>4000038532</b>>


Order Date - 2017-02-05 16:49:00
Order Status - 1 - confirmed and paid


2<Products>

<b>SHANORE</b> - Silver Claddagh Cross (P/N - SF23)
Gift Wrap = NO
Size = -
Price = 62.00
QTY = 1
Total = 62.00

2<Billing and Shipping Information>

Wrap note = 

<b>Billing address</b>
 John Brauer
3296 Eastwind Way

CANANDAIGUA
NY&nbsp;14424
United States

<b>Delivery address</b>
3296 Eastwind Way

CANANDAIGUA
NY14424
United States

Registered mail (6-10 business days)Phone:


SUB total= 62.00

Delivery= 0.00

<b>TOTAL= 62.00</b>

