1<Order Number - <b>4000038576</b>>


Order Date - 2017-02-08 02:52:10
Order Status - 1 - confirmed and paid


2<Products>

<b>SHANORE</b> - Silver Green Cz Halo Ring  (P/N - SL100GRCZ)
Gift Wrap = NO
Size = 7.5
Price = 116.00
QTY = 1
Total = 116.00

2<Billing and Shipping Information>

Wrap note = 

<b>Billing address</b>
 Anna van
Koningin Wilhelminakade 205

IJmuiden
AL&nbsp;1975GK
Netherlands

<b>Delivery address</b>
Koningin Wilhelminakade 205

IJmuiden
AL1975GK
Netherlands

Registered mail (3-8 business days)Phone:


SUB total= 116.00

Delivery= 0.00

<b>TOTAL= 116.00</b>

