1<Order Number - <b>4000038632</b>>


Order Date - 2017-02-12 00:53:57
Order Status - 1 - confirmed and paid


2<Products>

<b>SHANORE</b> - Celtic Trinity Knot Earrings (P/N - SE2054)
Gift Wrap = NO
Size = -
Price = 70.00
QTY = 1
Total = 70.00

2<Billing and Shipping Information>

Wrap note = 

<b>Billing address</b>
 Richard  Stephens
307 Centre Ave

Norristown
PA&nbsp;19403
United States

<b>Delivery address</b>
 

undefined


United States

Registered mail (6-10 business days)

SUB total= 70.00

Delivery= 0.00

<b>TOTAL= 70.00</b>

