1<Order Number - <b>4000038654</b>>


Order Date - 2017-02-13 16:02:22
Order Status - 1 - confirmed and paid


2<Products>

<b>SHANORE</b> - Celtic Birthstone Necklace February (P/N - SP2075AY)
Gift Wrap = NO
Size = -
Price = 85.00
QTY = 1
Total = 85.00

2<Billing and Shipping Information>

Wrap note = 

<b>Billing address</b>
 Roy Irwin
6743 Hancock Ave

St. Louis
MO&nbsp;63139
United States

<b>Delivery address</b>
 

undefined


United States

Fedex Priority (1-2 business days)

SUB total= 85.00

Delivery= 30.00

<b>TOTAL= 85.00</b>

