1<Order Number - <b>4000038660</b>>


Order Date - 2017-02-13 19:56:56
Order Status - 1 - confirmed and paid


2<Products>

<b>SHANORE</b> - Ladies Silver Celtic knot Wedding Ring (P/N - SD10)
Gift Wrap = NO
Size = 9
Price = 105.00
QTY = 1
Total = 105.00

<b>SHANORE</b> - Gent Silver Celtic Knot Wedding Ring (P/N - SD11)
Gift Wrap = NO
Size = 13
Price = 132.00
QTY = 1
Total = 132.00

2<Billing and Shipping Information>

Wrap note = 

<b>Billing address</b>
 Melissa Shager
321 Hudson St

Forest City
PA&nbsp;18421
United States

<b>Delivery address</b>
 

undefined


United States

Registered mail (6-10 business days)

SUB total= 237.00

Delivery= 0.00

<b>TOTAL= 132.00</b>

