1<Order Number - <b>4000038849</b>>


Order Date - 2017-02-27 01:22:34
Order Status - 1 - confirmed and paid


2<Products>

<b>SHANORE</b> -  Celtic Birthstone Necklace March (P/N - SP2075AQ)
Gift Wrap = NO
Size = -
Price = 85.00
QTY = 1
Total = 85.00

<b>SHANORE</b> - Claddagh Birthstone Ring March (P/N - SL90AQ)
Gift Wrap = NO
Size = 5
Price = 77.00
QTY = 1
Total = 77.00

2<Billing and Shipping Information>

Wrap note = 

<b>Billing address</b>
 Tina Bailey
2021 Halstead, Apt 1

Lakewood
Ohio&nbsp;44107
United States

<b>Delivery address</b>







Registered mail (6-10 business days)

SUB total= 162.00

Delivery= 0.00

<b>TOTAL= 77.00</b>

