1<Order Number - <b>4000038857</b>>


Order Date - 2017-02-27 19:00:10
Order Status - 1 - confirmed and paid


2<Products>

<b>SHANORE</b> - Gents Silver Claddagh Celtic wedding Ring (P/N - SD9)
Gift Wrap = NO
Size = 9.5
Price = 120.00
QTY = 1
Total = 120.00

2<Billing and Shipping Information>

Wrap note = 

<b>Billing address</b>
 Carla Kozloski
5588 Paradise Lane

Eureka
CA&nbsp;95503
United Kingdom

<b>Delivery address</b>
 

undefined


United States

Registered mail (6-10 business days)

SUB total= 120.00

Delivery= 0.00

<b>TOTAL= 120.00</b>

