1<Order Number - <b>4000039035</b>>


Order Date - 2017-03-10 20:35:17
Order Status - 1 - confirmed and paid


2<Products>

<b>SHANORE</b> - Celtic solitaire diamond 14k white gold ring round cut.  (P/N - 14M1S6W)
Gift Wrap = YES
Size = 5
Price = 2,311.00
QTY = 1
Total = 2,311.00

2<Billing and Shipping Information>

Wrap note = 

<b>Billing address</b>
 Michael  Westerfield 
789 Baldwin Branch Rd.

Annville
Kentucky&nbsp;40402
US

<b>Delivery address</b>

2444 Irish Creek Rd.

Webbville
Kentucky41180
United States

Fedex Priority (1-2 business days)

SUB total= 2,311.00

Delivery= 0.00

<b>TOTAL= 2,311.00</b>

