1<Order Number - <b>4000039128</b>>


Order Date - 2017-03-12 03:03:39
Order Status - 1 - confirmed and paid


2<Products>

<b>SHANORE</b> - Ladies Silver Celtic Knot Stone Set Ring (P/N - SD12)
Gift Wrap = NO
Size = 8.5
Price = 102.00
QTY = 1
Total = 102.00

2<Billing and Shipping Information>

Wrap note = 

<b>Billing address</b>
 Franklin Cox
9653 monk hill rd

East otto
Ny&nbsp;14729
United States

<b>Delivery address</b>
 

undefined


United States

Registered mail (6-10 business days)

SUB total= 102.00

Delivery= 0.00

<b>TOTAL= 102.00</b>

