1<Order Number - <b>4000039228</b>>


Order Date - 2017-03-15 20:22:14
Order Status - 1 - confirmed and paid


2<Products>

<b>SHANORE</b> - Ladies Celtic embossed pressure set Diamond Wedding ring (P/N - 14IC44W)
Gift Wrap = NO
Size = 7
Price = 716.00
QTY = 1
Total = 716.00

2<Billing and Shipping Information>

Wrap note = 

<b>Billing address</b>
 Kate DeCario
2421 Route 100

Macungie
PA&nbsp;18062
United States

<b>Delivery address</b>
2421 Route 100

Macungie
PA18062
United States

Fedex Priority (1-2 business days)Phone:


SUB total= 716.00

Delivery= 0.00

<b>TOTAL= 716.00</b>

