1<Order Number - <b>4000039338</b>>


Order Date - 2017-03-20 19:24:46
Order Status - 1 - confirmed and paid


2<Products>

<b>SHANORE</b> - Five Stone Diamond set Celtic I Love You eternity styled Ring (P/N - 14IC31WD)
Gift Wrap = NO
Size = 6
Price = 762.00
QTY = 1
Total = 762.00

2<Billing and Shipping Information>

Wrap note = 

<b>Billing address</b>
 John Sullivan
18 Howard st

Cornwall
New York. &nbsp;12518
US

<b>Delivery address</b>







Fedex Priority (1-2 business days)

SUB total= 762.00

Delivery= 0.00

<b>TOTAL= 762.00</b>

