1<Order Number - <b>4000039344</b>>


Order Date - 2017-03-21 00:05:25
Order Status - 1 - confirmed and paid


2<Products>

<b>SHANORE</b> - Mother Shamrock Necklace (P/N - MP - S)
Gift Wrap = NO
Size = <br/>More info: undefined, November, June, December, April, July, June
Price = 200.00
QTY = 1
Total = 200.00

2<Billing and Shipping Information>

Wrap note = 

<b>Billing address</b>
 Anne  Proctor
5828 West Roscoe Street

chicago
IL&nbsp;60634
United States

<b>Delivery address</b>
 

undefined


United States

Registered mail (6-10 business days)

SUB total= 200.00

Delivery= 0.00

<b>TOTAL= 200.00</b>

