1<Order Number - <b>4000039356</b>>


Order Date - 2017-03-21 20:30:34
Order Status - 1 - confirmed and paid


2<Products>

<b>SHANORE</b> - Silver Shamrock Heart Shape Irish locket (P/N - TFC2)
Gift Wrap = NO
Size = -
Price = 124.00
QTY = 2
Total = 248.00

2<Billing and Shipping Information>

Wrap note = 

<b>Billing address</b>
 Timothy Egan
7322 Thorn Hill Dr. 

Ofallon
MO&nbsp;63368
United States

<b>Delivery address</b>
 

undefined


United States

Registered mail (6-10 business days)

SUB total= 248.00

Delivery= 0.00

<b>TOTAL= 248.00</b>

