1<Order Number - <b>4000039669</b>>


Order Date - 2017-04-13 12:02:58
Order Status - 1 - confirmed and paid


2<Products>

<b>SHANORE</b> - Rose Gold Plated Shamrock Necklace Encrusted With Swarovski Crystals  (P/N - SW9)
Gift Wrap = NO
Size = -
Price = 107.00
QTY = 1
Total = 107.00

2<Billing and Shipping Information>

Wrap note = 

<b>Billing address</b>
 Megan Fuller
2621 Woodland Cove Drive

Brighton
MI&nbsp;48114
United States

<b>Delivery address</b>







Registered mail (6-10 business days)

SUB total= 107.00

Delivery= 0.00

<b>TOTAL= 107.00</b>

