1<Order Number - <b>4000039737</b>>


Order Date - 2017-04-18 21:22:43
Order Status - 1 - confirmed and paid


2<Products>

<b>SHANORE</b> - Celtic Trinity Knot Cross Adorned With Swarovski Crystal  (P/N - SW65)
Gift Wrap = NO
Size = -
Price = 107.00
QTY = 1
Total = 107.00

2<Billing and Shipping Information>

Wrap note = 

<b>Billing address</b>
 Kiersten Hutchins
2606 9th Ave W

Seattle
WA&nbsp;98119
United States

<b>Delivery address</b>
 

undefined


United States

Registered mail (6-10 business days)

SUB total= 107.00

Delivery= 0.00

<b>TOTAL= 107.00</b>

