1<Order Number - <b>4000040108</b>>


Order Date - 2017-04-26 22:24:54
Order Status - 1 - confirmed and paid


2<Products>

<b>SHANORE</b> - Ladies Silver Celtic knot Wedding Ring (P/N - SD10)
Gift Wrap = NO
Size = 5
Price = 105.00
QTY = 1
Total = 105.00

2<Billing and Shipping Information>

Wrap note = 

<b>Billing address</b>
 SJ Mueth
1755 Stacy Rd

McKinney
TX&nbsp;75069-1636
United States

<b>Delivery address</b>
1755 Stacy Rd

McKinney
TX75069-1636
United States

Registered mail (6-10 business days)Phone:


SUB total= 105.00

Delivery= 0.00

<b>TOTAL= 105.00</b>

