1<Order Number - <b>4000040320</b>>


Order Date - 2017-05-11 21:49:32
Order Status - 1 - confirmed and paid


2<Products>

<b>TARA'S DIARY</b> - Diamond Set Trinity Knot Triangle  (P/N - TD129)
Gift Wrap = NO
Size = -
Price = 49.00
QTY = 1
Total = 49.00

<b>TARA'S DIARY</b> - Celtic Cross Bead Encrusted With Swarovski Crystal  (P/N - TD620)
Gift Wrap = NO
Size = -
Price = 66.00
QTY = 1
Total = 66.00

2<Billing and Shipping Information>

Wrap note = 

<b>Billing address</b>
 Fiona Ahm
Rosewood, Shrubbs Hill

Chobham
Surrey&nbsp;Gu248ST
United Kingdom

<b>Delivery address</b>
 

undefined




Registered mail (10-14 business days)

SUB total= 115.00

Delivery= 0.00

<b>TOTAL= 66.00</b>

