1<Order Number - <b>4000004092</b>>


Order Date - 2013-09-05 03:58:32
Order Status - 2 - dispatched / resolved


2<Products>

<b>SHANORE</b> - Celtic diamond solitaire 14k white gold round cut.  (P/N - JP1W)
Gift Wrap = YES
Size = 6
Price = 2,452.00
QTY = 1
Total = 2,452.00

2<Billing and Shipping Information>

Wrap note = 

<b>Billing address</b>
 Brad Wilson
453 Haines Hollow Road

Waynesburg
Pennsylvania&nbsp;15370
United States

<b>Delivery address</b>
453 Haines Hollow Road

Waynesburg
Pennsylvania15370
United States

Fedex Priority (1-2 business days)Phone:
7248330666

SUB total= 2,452.00

Delivery= 0.00

<b>TOTAL= 2,452.00</b>

