1<Order Number - <b>4000040985</b>>


Order Date - 2017-06-18 18:01:46
Order Status - 1 - confirmed and paid


2<Products>

<b>SHANORE</b> - Trinity Knot Sterling Silver Ring  (P/N - SL99)
Gift Wrap = NO
Size = 7.5
Price = 46.00
QTY = 1
Total = 46.00

<b>SHANORE</b> - Trinity Knot Sterling Silver Ring  (P/N - SL99)
Gift Wrap = NO
Size = 8.5
Price = 46.00
QTY = 1
Total = 46.00

2<Billing and Shipping Information>

Wrap note = 

<b>Billing address</b>
 Aurora Martinez
6510 W. English Meadows Dr. I-307

Greenfield
WI&nbsp;53220
United States

<b>Delivery address</b>
 

undefined


Ireland

Fastway (1 day)

SUB total= 92.00

Delivery= 0.00

<b>TOTAL= 46.00</b>

