1<Order Number - <b>4000041012</b>>


Order Date - 2017-06-20 23:30:43
Order Status - 1 - confirmed and paid


2<Products>

<b>SHANORE</b> - Mother Trinity Necklace (P/N - MP - T)
Gift Wrap = NO
Size = <br/>More info: undefined, March, April
Price = 137.00
QTY = 1
Total = 137.00

<b>SHANORE</b> - Mother Trinity Necklace (P/N - MP - T)
Gift Wrap = NO
Size = <br/>More info: undefined, July, October
Price = 137.00
QTY = 1
Total = 137.00

2<Billing and Shipping Information>

Wrap note = 

<b>Billing address</b>
 Julie 
856 East Laguna Ct

Villa Hills
KY&nbsp;41017
United States

<b>Delivery address</b>
856 East Laguna Ct

Villa Hills
KY41017
United States

Registered mail (6-10 business days)Phone:


SUB total= 274.00

Delivery= 0.00

<b>TOTAL= 137.00</b>

