1<Order Number - <b>4000041243</b>>


Order Date - 2017-07-05 00:15:42
Order Status - 1 - confirmed and paid


2<Products>

<b>SHANORE</b> - Claddagh Pearl Bracelet Adorned With Swarovski Crystals (P/N - SW3)
Gift Wrap = NO
Size = -
Price = 96.30
QTY = 1
Total = 96.30

<b>SHANORE</b> - Celtic Pearl Necklace Adorned By Swarovski Crystals   (P/N - SW24)
Gift Wrap = NO
Size = -
Price = 96.30
QTY = 1
Total = 96.30

<b>SHANORE</b> - Mother Shamrock Necklace (P/N - MP - S)
Gift Wrap = NO
Size = <br/>More info: undefined, June
Price = 123.30
QTY = 1
Total = 123.30

2<Billing and Shipping Information>

Wrap note = 

<b>Billing address</b>
 Deborah Giampa
63 A Street

Franklin
MA&nbsp;02038
United States

<b>Delivery address</b>
Deborah Giampa
5 Overlook Drive
undefined
Franklin
MA02038
United States

Registered mail (6-10 business days)

SUB total= 315.90

Delivery= 0.00

<b>TOTAL= 123.30</b>

