1<Order Number - <b>4000041317</b>>


Order Date - 2017-07-08 20:55:22
Order Status - 1 - confirmed and paid


2<Products>

<b>SHANORE</b> - Celtic Knot Silver Stone Set Necklace (P/N - SP2062CZ)
Gift Wrap = NO
Size = -
Price = 90.00
QTY = 1
Total = 90.00

2<Billing and Shipping Information>

Wrap note = 

<b>Billing address</b>
 susan wright
878 Slate Hill Rd.

Yardley
PA&nbsp;19067
United States

<b>Delivery address</b>
 

undefined


United States

Registered mail (6-10 business days)

SUB total= 90.00

Delivery= 0.00

<b>TOTAL= 90.00</b>

