1<Order Number - <b>4000041375</b>>


Order Date - 2017-07-14 21:22:42
Order Status - 1 - confirmed and paid


2<Products>

<b>SHANORE</b> - Stone Set Trinity Knot Necklace (P/N - SP2112CZ )
Gift Wrap = NO
Size = -
Price = 75.00
QTY = 1
Total = 75.00

2<Billing and Shipping Information>

Wrap note = 

<b>Billing address</b>
 Deborah Connolly
20540 Avenida de Arboles

Murrieta
California&nbsp;92562-8879
United States

<b>Delivery address</b>
 

undefined


United States

Registered mail (6-10 business days)

SUB total= 75.00

Delivery= 0.00

<b>TOTAL= 75.00</b>

