1<Order Number - <b>4000041509</b>>


Order Date - 2017-07-23 20:55:52
Order Status - 1 - confirmed and paid


2<Products>

<b>SHANORE</b> - Celtic Silver Pearl Earrings (P/N - SECP1)
Gift Wrap = NO
Size = -
Price = 62.00
QTY = 1
Total = 62.00

2<Billing and Shipping Information>

Wrap note = 

<b>Billing address</b>
 Christina Wise
12438 Bobhouse Drive

Charlotte
NC&nbsp;28277
United States

<b>Delivery address</b>
Christina Wise
12438 Bobhouse Drive

Charlotte
NC28277
United States

Registered Post (6 - 10 days)

SUB total= 62.00

Delivery= 0.00

<b>TOTAL= 62.00</b>

