1<Order Number - <b>4000041519</b>>


Order Date - 2017-07-24 15:35:44
Order Status - 1 - confirmed and paid


2<Products>

<b>SHANORE</b> - Claddagh and Celtic 14K Yellow Gold Wedding Ring (P/N - BR4)
Gift Wrap = NO
Size = 7
Price = 733.00
QTY = 1
Total = 733.00

2<Billing and Shipping Information>

Wrap note = 

<b>Billing address</b>
 Carra Brown
818 San Clemente

Irving
Texas&nbsp;75039
United States

<b>Delivery address</b>
Carra Brown
818 San Clemente

Irving
Texas75039
United States

Fedex (1 - 2 days)

SUB total= 733.00

Delivery= 0.00

<b>TOTAL= 733.00</b>

