1<Order Number - <b>4000041607</b>>


Order Date - 2017-07-31 13:15:18
Order Status - 1 - confirmed and paid


2<Products>

<b>TARA'S DIARY</b> - Irish Cottage Silver Bead (P/N - TD45)
Gift Wrap = NO
Size = -
Price = 60.00
QTY = 1
Total = 60.00

2<Billing and Shipping Information>

Wrap note = 

<b>Billing address</b>
 Mark Hudson
153 Henderson Avenue

Staten Island
New York&nbsp;10301
Uruguay

<b>Delivery address</b>
Mark Hudson
153 Henderson Avenue

Staten Island
New York10301
Uruguay

Registered Post (10 - 14 days)

SUB total= 60.00

Delivery= 0.00

<b>TOTAL= 60.00</b>

