1<Order Number - <b>4000041671</b>>


Order Date - 2017-08-08 00:11:33
Order Status - 1 - confirmed and paid


2<Products>

<b>SHANORE</b> - Claddagh Birthstone Ring July (P/N - SL90RB)
Gift Wrap = NO
Size = 5
Price = 77.00
QTY = 1
Total = 77.00

2<Billing and Shipping Information>

Wrap note = 

<b>Billing address</b>
 Conor Gerety
2 Dacquari Drive

Stormville
New York&nbsp;12582
United States

<b>Delivery address</b>
Amanda Seale
57 Kim Lane 

Stormville
New York12582
United States

Registered Post (6 - 10 days)

SUB total= 77.00

Delivery= 0.00

<b>TOTAL= 77.00</b>

