1<Order Number - <b>4000041683</b>>


Order Date - 2017-08-09 02:46:48
Order Status - 1 - confirmed and paid


2<Products>

<b>SHANORE</b> - Silver Celtic Trinity Bangle Adorned With Swarovski Crystal (P/N - SW70)
Gift Wrap = NO
Size = -
Price = 157.00
QTY = 1
Total = 157.00

2<Billing and Shipping Information>

Wrap note = 

<b>Billing address</b>
 Brenda Midbrod
12046 W Red Hawk Dr.

Peoria
Arizona&nbsp;85383
United States

<b>Delivery address</b>
Erin  Slaiku
8284 26th N

Lake Elmo
Minnesota55042
United States

Registered Post (6 - 10 days)

SUB total= 157.00

Delivery= 0.00

<b>TOTAL= 157.00</b>

