1<Order Number - <b>4000041734</b>>


Order Date - 2017-08-17 21:10:10
Order Status - 1 - confirmed and paid


2<Products>

<b>SHANORE</b> - Silver Claddagh Bracelet with 14K Gold Plate Heart  (P/N - SB2015)
Gift Wrap = NO
Size = -
Price = 117.00
QTY = 1
Total = 117.00

2<Billing and Shipping Information>

Wrap note = 

<b>Billing address</b>
 Maura Roszyk
4545 Ash Drive

NAZARETH
PA&nbsp;18064
United States

<b>Delivery address</b>
Maura Roszyk
4545 Ash Drive

NAZARETH
PA18064
United States

Registered Post (6 - 10 days)

SUB total= 117.00

Delivery= 0.00

<b>TOTAL= 117.00</b>

