1<Order Number - <b>4000041790</b>>


Order Date - 2017-08-26 14:18:37
Order Status - 1 - confirmed and paid


2<Products>

<b>TARA'S DIARY</b> - Cliffs of Moher Bead (P/N - TD169)
Gift Wrap = NO
Size = -
Price = 61.00
QTY = 1
Total = 61.00

2<Billing and Shipping Information>

Wrap note = 

<b>Billing address</b>
 Gloria Urban
4299 Smith Pines Drive

Columbus
Ohio/Franklin&nbsp;43230-4570
United States

<b>Delivery address</b>
Gloria Urban
4299 Smith Pines Drive

Columbus
Ohio/Franklin43230-4570
United States

Registered Post (6 - 10 days)

SUB total= 61.00

Delivery= 0.00

<b>TOTAL= 61.00</b>

