1<Order Number - <b>4000041930</b>>


Order Date - 2017-09-11 18:33:22
Order Status - 1 - confirmed and paid


2<Products>

<b>TARA'S DIARY</b> - Hapenny Bridge Bead (P/N - TD163)
Gift Wrap = NO
Size = -
Price = 49.00
QTY = 1
Total = 49.00

2<Billing and Shipping Information>

Wrap note = 

<b>Billing address</b>
 Andy Ziese
Deichstraße 27

Burg
Sachsen-Anhalt&nbsp;39288
Germany

<b>Delivery address</b>
Andy Ziese
Deichstraße 27

Burg
Sachsen-Anhalt39288
Germany

Registered Post (10 - 14 days)

SUB total= 49.00

Delivery= 0.00

<b>TOTAL= 49.00</b>

