1<Order Number - <b>4000041945</b>>


Order Date - 2017-09-12 12:30:20
Order Status - 1 - confirmed and paid


2<Products>

<b>SHANORE</b> - Ladies Claddagh Comfort fit Silver Ring (P/N - SL92)
Gift Wrap = NO
Size = 5
Price = 87.00
QTY = 1
Total = 87.00

2<Billing and Shipping Information>

Wrap note = 

<b>Billing address</b>
 Erik  Finlay
45 Elm Street Apt 3i

Morrsitown
NJ&nbsp;07960
United States

<b>Delivery address</b>
Erik  Finlay
191 Wickford Ct

Summerville
SC29485
United States

Fedex (1 - 2 days)

SUB total= 87.00

Delivery= 30.00

<b>TOTAL= 87.00</b>

