1<Order Number - <b>4000041974</b>>


Order Date - 2017-09-15 12:22:50
Order Status - 1 - confirmed and paid


2<Products>

<b>SHANORE</b> - Claddagh Pave Set Ladies Ring (P/N - SL97)
Gift Wrap = NO
Size = 8
Price = 58.00
QTY = 1
Total = 58.00

2<Billing and Shipping Information>

Wrap note = 

<b>Billing address</b>
 Diarmuid  O&#39;Sullivan
Ballinagoul

Glin
Limerick&nbsp;V94D573
Ireland

<b>Delivery address</b>
Ciara Sheehy
20 Parkview

Shanagolden
LimerickV94YV6T
Ireland

Fastway (1 -2 days)

SUB total= 58.00

Delivery= 0.00

<b>TOTAL= 58.00</b>

