1<Order Number - <b>4000042180</b>>


Order Date - 2017-10-09 02:02:15
Order Status - 1 - confirmed and paid


2<Products>

<b>SHANORE</b> - Tree Of Life Silver Necklace (P/N - SP2102CZ)
Gift Wrap = NO
Size = -
Price = 77.00
QTY = 1
Total = 77.00

2<Billing and Shipping Information>

Wrap note = 

<b>Billing address</b>
 Douglas McIntyre
2356 Ashton Woods Court

Marietta
Georgia&nbsp;30068
United States

<b>Delivery address</b>
Douglas McIntyre
2356 Ashton Woods Court

Marietta
Georgia30068
United States

Registered Post (6 - 10 days)

SUB total= 77.00

Delivery= 0.00

<b>TOTAL= 77.00</b>

