1<Order Number - <b>4000042355</b>>


Order Date - 2017-10-21 18:12:00
Order Status - 2 - dispatched / resolved


2<Products>

<b>SHANORE</b> - Silver Claddagh intertwining Design (P/N - SL46)
Gift Wrap = NO
Size = 6
Price = 56.00
QTY = 1
Total = 56.00

2<Billing and Shipping Information>

Wrap note = 

<b>Billing address</b>
 Renee Look
8529 Buffaloe Rd

KNIGHTDALE
North Carolina&nbsp;27545
United States

<b>Delivery address</b>
Renee Look
4001 Weston Parkway

Cary
Nc27513
United States

Registered Post (6 - 10 days)

SUB total= 56.00

Delivery= 0.00

<b>TOTAL= 56.00</b>

