1<Order Number - <b>4000042380</b>>


Order Date - 2017-10-23 21:20:41
Order Status - 1 - confirmed and paid


2<Products>

<b>SHANORE</b> - Silver Stone Set Celtic Trinity Knot Necklace (P/N - SP2080CZ)
Gift Wrap = NO
Size = -
Price = 102.00
QTY = 1
Total = 102.00

2<Billing and Shipping Information>

Wrap note = 

<b>Billing address</b>
 Clare Schubert
18722 Aberdeen Hollow Ln.

Tomball
TX&nbsp;77377
United States

<b>Delivery address</b>
Tricia Edridge
1403 Snook Ct.

Ft. Collins
CO80526
United States

Fedex (1 - 2 days)

SUB total= 102.00

Delivery= 30.00

<b>TOTAL= 102.00</b>

