1<Order Number - <b>4000042399</b>>


Order Date - 2017-10-25 13:15:15
Order Status - 1 - confirmed and paid


2<Products>

<b>SHANORE</b> - Tree Of Life Silver Necklace (P/N - SP2102CZ)
Gift Wrap = NO
Size = -
Price = 77.00
QTY = 1
Total = 77.00

2<Billing and Shipping Information>

Wrap note = 

<b>Billing address</b>
 Ronnie Roberts
7848 Signal Station Rd.

Knoxville
Tennessee&nbsp;37920
United States

<b>Delivery address</b>
Ronnie Roberts
7848 Signal Station Rd.

Knoxville
Tennessee37920
United States

Fedex (1 - 2 days)

SUB total= 77.00

Delivery= 30.00

<b>TOTAL= 77.00</b>

