1<Order Number - <b>4000042459</b>>


Order Date - 2017-10-30 23:01:06
Order Status - 1 - confirmed and paid


2<Products>

<b>SHANORE</b> - Claddagh, Love, Loyalty, Friendship Silver Ring (P/N - SL1)
Gift Wrap = NO
Size = 8.5
Price = 56.00
QTY = 1
Total = 56.00

2<Billing and Shipping Information>

Wrap note = 

<b>Billing address</b>
 Rachel Downey
314 Northampton St

Hellertown
Pa&nbsp;18055
United States

<b>Delivery address</b>
Rachel Downey
314 Northampton St

Hellertown
Pa18055
United States

Registered Post (6 - 10 days)

SUB total= 56.00

Delivery= 0.00

<b>TOTAL= 56.00</b>

