1<Order Number - <b>4000042452</b>>


Order Date - 2017-10-30 14:40:26
Order Status - 1 - confirmed and paid


2<Products>

<b>SHANORE</b> - 5 Stone Shamrock Mothers Pendant (P/N - MP5-S)
Gift Wrap = YES
Size = -
Price = 195.00
QTY = 1
Total = 195.00

2<Billing and Shipping Information>

Wrap note = 

<b>Billing address</b>
 Patrick  Casey
1308 Crestwood Dr

Archbald
Pennsylvania&nbsp;18403
United States

<b>Delivery address</b>
Patrick  Casey
1308 Crestwood Dr

Archbald
Pennsylvania18403
United States

Fedex (1 - 2 days)

SUB total= 195.00

Delivery= 30.00

<b>TOTAL= 195.00</b>

