1<Order Number - <b>4000042608</b>>


Order Date - 2017-11-10 19:17:38
Order Status - 1 - confirmed and paid


2<Products>

<b>SHANORE</b> - Silver Green Cz Halo Ring  (P/N - SL100GRCZ)
Gift Wrap = NO
Size = 10
Price = 157.00
QTY = 1
Total = 157.00

2<Billing and Shipping Information>

Wrap note = 

<b>Billing address</b>
 Patt Lynch
67 South Bowdoin St

Lawrence
Ma&nbsp;01843
United States

<b>Delivery address</b>
Patt Lynch
67 South Bowdoin St

Lawrence
Ma01843
United States

Registered Post (6 - 10 days)

SUB total= 157.00

Delivery= 0.00

<b>TOTAL= 157.00</b>

