1<Order Number - <b>4000042618</b>>


Order Date - 2017-11-11 13:23:53
Order Status - 1 - confirmed and paid


2<Products>

<b>SHANORE</b> - Gent Silver Celtic Knot Wedding Ring (P/N - SD11)
Gift Wrap = NO
Size = 11.5
Price = 132.00
QTY = 1
Total = 132.00

2<Billing and Shipping Information>

Wrap note = 

<b>Billing address</b>
 Joanna MacNeil
2-1351 Barrington Street

Halifax
NS&nbsp;B3J1Y9
Canada

<b>Delivery address</b>
Joanna MacNeil
2-1351 Barrington Street

Halifax
NSB3J1Y9
Canada

Registered Post (6 - 10 days)

SUB total= 132.00

Delivery= 0.00

<b>TOTAL= 132.00</b>

