1<Order Number - <b>4000042647</b>>


Order Date - 2017-11-13 18:08:52
Order Status - 1 - confirmed and paid


2<Products>

<b>SHANORE</b> - Celtic Trinity Diamond & Emerald Cross  (P/N - SF29)
Gift Wrap = NO
Size = -
Price = 147.00
QTY = 1
Total = 147.00

<b>SHANORE</b> - Celtic Trinity Diamond & Emerald Cross  (P/N - SF29)
Gift Wrap = NO
Size = -
Price = 147.00
QTY = 1
Total = 147.00

<b>SHANORE</b> - Celtic Trinity Diamond & Emerald Cross  (P/N - SF29)
Gift Wrap = NO
Size = -
Price = 147.00
QTY = 1
Total = 147.00

<b>SHANORE</b> - Celtic Trinity Diamond & Emerald Cross  (P/N - SF29)
Gift Wrap = NO
Size = -
Price = 147.00
QTY = 1
Total = 147.00

2<Billing and Shipping Information>

Wrap note = 

<b>Billing address</b>
 Sue  May 
3583 Arpent Street

Saint Charles 
Missouri &nbsp;63301
United States

<b>Delivery address</b>
Sue  May 
3583 Arpent Street

Saint Charles 
Missouri 63301
United States

Fedex (1 - 2 days)

SUB total= 588.00

Delivery= 0.00

<b>TOTAL= 147.00</b>

