1<Order Number - <b>4000042683</b>>


Order Date - 2017-11-16 05:25:58
Order Status - 1 - confirmed and paid


2<Products>

<b>SHANORE</b> -  Celtic Tribal Silver Stone Set Trinity Knot Key (P/N - SP2207AY )
Gift Wrap = NO
Size = -
Price = 192.00
QTY = 1
Total = 192.00

2<Billing and Shipping Information>

Wrap note = 

<b>Billing address</b>
 Kerry Matthews
41 Jamaican Road

Waikiki
Western Australia &nbsp;6169
Australia

<b>Delivery address</b>
Kerry Matthews
41 Jamaican Road

Waikiki
Western Australia 6169
Australia

Registered Post (10 - 14 days)

SUB total= 192.00

Delivery= 0.00

<b>TOTAL= 192.00</b>

