1<Order Number - <b>4000042749</b>>


Order Date - 2017-11-20 01:51:04
Order Status - 1 - confirmed and paid


2<Products>

<b>SHANORE</b> - Gents Silver Mo Anam Cara Ring (P/N - SD20)
Gift Wrap = NO
Size = 9.5
Price = 63.65
QTY = 1
Total = 63.65

<b>SHANORE</b> - Ladies Silver Mo Anam Cara Ring (P/N - SD19)
Gift Wrap = NO
Size = 8.5
Price = 58.30
QTY = 1
Total = 58.30

2<Billing and Shipping Information>

Wrap note = 

<b>Billing address</b>
 Chris Parmer
P.O. Box 189

Centre
Alabama&nbsp;35960
United States

<b>Delivery address</b>
Erin Parmer
12960 County Rd. 29

Centre
Alabama35960
United States

Registered Post (6 - 10 days)

SUB total= 121.95

Delivery= 0.00

<b>TOTAL= 58.30</b>

