1<Order Number - <b>4000042918</b>>


Order Date - 2017-11-27 21:40:20
Order Status - 1 - confirmed and paid


2<Products>

<b>SHANORE</b> - Celtic engagement ring white gold solitaire princess cut diamond. (P/N - JP4W)
Gift Wrap = YES
Size = 6.5
Price = 4,214.00
QTY = 1
Total = 4,214.00

2<Billing and Shipping Information>

Wrap note = 

<b>Billing address</b>
 Patrick Kellett
101 West Oakland Avenue Apt. 4

Oakland
New Jersey&nbsp;07436
United States

<b>Delivery address</b>
Patrick Kellett
101 West Oakland Avenue Apt. 4

Oakland
New Jersey07436
United States

Fedex (1 - 2 days)

SUB total= 5,172.00

Delivery= 0.00

<b>TOTAL= 4,214.00</b>

