1<Order Number - <b>4000042932</b>>


Order Date - 2017-11-28 13:23:51
Order Status - 1 - confirmed and paid


2<Products>

<b>SHANORE</b> - Celtic Trinity Knot Silver Cross (P/N - SF25)
Gift Wrap = NO
Size = -
Price = 61.00
QTY = 1
Total = 61.00

2<Billing and Shipping Information>

Wrap note = 

<b>Billing address</b>
 Peter  Harder 
Rudolf-Breitscheid-Straße 30

Düsseldorf 
NRW&nbsp;40595
Germany

<b>Delivery address</b>
Peter  Harder 
Rudolf-Breitscheid-Straße 30

Düsseldorf 
NRW40595
Germany

Registered Post (10 - 14 days)

SUB total= 61.00

Delivery= 0.00

<b>TOTAL= 61.00</b>

