1<Order Number - <b>4000043008</b>>


Order Date - 2017-12-03 00:27:14
Order Status - 2 - dispatched / resolved


2<Products>

<b>SHANORE</b> - Silver Two Piece Celtic Trinity Cross Pendant (P/N - SP2224)
Gift Wrap = NO
Size = -
Price = 87.00
QTY = 1
Total = 87.00

2<Billing and Shipping Information>

Wrap note = 

<b>Billing address</b>
 Joan McMahon
354 School Road 

Barre
Vermont/Washington&nbsp;05541
United States

<b>Delivery address</b>
Joan McMahon
354 School Road 

Barre
Vermont/Washington05541
United States

Registered Post (6 - 10 days)

SUB total= 87.00

Delivery= 0.00

<b>TOTAL= 87.00</b>

