1<Order Number - <b>4000043014</b>>


Order Date - 2017-12-03 14:00:47
Order Status - 1 - confirmed and paid


2<Products>

<b>SHANORE</b> - Silver Celtic Trinity Knot Stud Earrings  (P/N - SE2201)
Gift Wrap = NO
Size = -
Price = 41.00
QTY = 1
Total = 41.00

2<Billing and Shipping Information>

Wrap note = 

<b>Billing address</b>
 Petra Ott
Holbeinstr. 74

Erfurt
Thuringia&nbsp;99096
Germany

<b>Delivery address</b>
Petra Ott
Holbeinstr. 74

Erfurt
Thuringia99096
Germany

Registered Post (10 - 14 days)

SUB total= 41.00

Delivery= 0.00

<b>TOTAL= 41.00</b>

