1<Order Number - <b>4000043045</b>>


Order Date - 2017-12-04 22:50:54
Order Status - 1 - confirmed and paid


2<Products>

<b>SHANORE</b> - 2 Stone Trinity Knot Mothers Pendant  (P/N - MP2-T )
Gift Wrap = YES
Size = -
Price = 132.00
QTY = 1
Total = 132.00

2<Billing and Shipping Information>

Wrap note = 

<b>Billing address</b>
 Eilis Kelly
19 Nepean St

Watsonia
Vic &nbsp;3087
Australia

<b>Delivery address</b>
Louise  Gylby
23 Ashlawn Park, Ballybrack

Glenageary
Co DublinA96T0H9
Ireland

Fastway (1 -2 days)

SUB total= 132.00

Delivery= 0.00

<b>TOTAL= 132.00</b>

