1<Order Number - <b>4000043051</b>>


Order Date - 2017-12-05 03:41:52
Order Status - 1 - confirmed and paid


2<Products>

<b>SHANORE</b> - Small Celtic Tribal Silver Stone Set Trinity Necklace  (P/N - SP2209PT)
Gift Wrap = NO
Size = -
Price = 132.00
QTY = 1
Total = 132.00

<b>SHANORE</b> - Tree of Life Trinity Knot Silver Ring  (P/N - SD18)
Gift Wrap = NO
Size = 8
Price = 110.00
QTY = 1
Total = 110.00

2<Billing and Shipping Information>

Wrap note = 

<b>Billing address</b>
 James Matthews
341 Perry Road

Orangeville
Ontario&nbsp;L9W4Y9
Canada

<b>Delivery address</b>
James Matthews
341 Perry Road

Orangeville
OntarioL9W4Y9
Canada

Registered Post (6 - 10 days)

SUB total= 242.00

Delivery= 0.00

<b>TOTAL= 110.00</b>

