1<Order Number - <b>4000043073</b>>


Order Date - 2017-12-06 15:06:40
Order Status - 1 - confirmed and paid


2<Products>

<b>TARA'S DIARY</b> - Celtic Tree Of Life Dangle Bead  (P/N - TD632)
Gift Wrap = NO
Size = -
Price = 64.00
QTY = 1
Total = 64.00

<b>TARA'S DIARY</b> - Celtic Knot Bead Encrusted With Swarovski Crystal  (P/N - TD607)
Gift Wrap = NO
Size = -
Price = 67.00
QTY = 1
Total = 67.00

2<Billing and Shipping Information>

Wrap note = 

<b>Billing address</b>
 Anthony McGraw
6051 Ethan dr

Burlington 
Ky&nbsp;41005
United States

<b>Delivery address</b>
Anthony McGraw
6051 Ethan dr

Burlington 
Ky41005
United States

Registered Post (6 - 10 days)

SUB total= 131.00

Delivery= 0.00

<b>TOTAL= 67.00</b>

