1<Order Number - <b>4000043071</b>>


Order Date - 2017-12-06 13:57:45
Order Status - 1 - confirmed and paid


2<Products>

<b>TARA'S DIARY</b> - Silver Shamrock Green enamel Bead (P/N - TD59GR)
Gift Wrap = NO
Size = -
Price = 47.00
QTY = 1
Total = 47.00

<b>TARA'S DIARY</b> - Gold Plate Trinity Knot Silver Bead (P/N - TD74)
Gift Wrap = NO
Size = -
Price = 49.00
QTY = 1
Total = 49.00

2<Billing and Shipping Information>

Wrap note = 

<b>Billing address</b>
 Katheine  Groff
2304 Spruce Shadows Lane

Raleigh
NC&nbsp;27614
United States

<b>Delivery address</b>
Katheine  Groff
2304 Spruce Shadows Lane

Raleigh
NC27614
United States

Registered Post (6 - 10 days)

SUB total= 96.00

Delivery= 0.00

<b>TOTAL= 49.00</b>

