1<Order Number - <b>4000043116</b>>


Order Date - 2017-12-07 22:18:33
Order Status - 1 - confirmed and paid


2<Products>

<b>SHANORE</b> - Silver Green Cz Halo Ring  (P/N - SL100GRCZ)
Gift Wrap = NO
Size = 9
Price = 157.00
QTY = 1
Total = 157.00

2<Billing and Shipping Information>

Wrap note = 

<b>Billing address</b>
 Jarrod McCandless
1336 1st ST SE, 

Linton
IN&nbsp;47441
United States

<b>Delivery address</b>
Jarrod McCandless
1336 1st ST SE, 

Linton
IN47441
United States

Registered Post (6 - 10 days)

SUB total= 157.00

Delivery= 0.00

<b>TOTAL= 157.00</b>

