1<Order Number - <b>4000043120</b>>


Order Date - 2017-12-08 04:32:06
Order Status - 1 - confirmed and paid


2<Products>

<b>SHANORE</b> - 3 Stone Trinity Knot Mothers Pendant  (P/N - MP3-T)
Gift Wrap = YES
Size = -
Price = 141.30
QTY = 1
Total = 141.30

2<Billing and Shipping Information>

Wrap note = 

<b>Billing address</b>
 Chris Mulholland
435 Saddlebrook Cir

Lewisville
NC&nbsp;27023
United States

<b>Delivery address</b>
Chris Mulholland
5708 Merton Ct

Alexandria
VA22311
United States

Registered Post (6 - 10 days)

SUB total= 141.30

Delivery= 0.00

<b>TOTAL= 141.30</b>

