1<Order Number - <b>4000043125</b>>


Order Date - 2017-12-08 18:25:18
Order Status - 1 - confirmed and paid


2<Products>

<b>SHANORE</b> - Claddagh Pave Set Ladies Ring (P/N - SL97)
Gift Wrap = NO
Size = 7
Price = 58.00
QTY = 1
Total = 58.00

2<Billing and Shipping Information>

Wrap note = 

<b>Billing address</b>
 Jacqueline Gaughran
45 Tola Park

Shannon
Clare&nbsp;V14NY56
Ireland

<b>Delivery address</b>
Jacqueline Gaughran
45 Tola Park

Shannon
ClareV14NY56
Ireland

Fastway (1 -2 days)

SUB total= 58.00

Delivery= 0.00

<b>TOTAL= 58.00</b>

