1<Order Number - <b>4000043140</b>>


Order Date - 2017-12-09 13:51:43
Order Status - 2 - dispatched / resolved


2<Products>

<b>SHANORE</b> - Celtic Trinity Knot Diamond Set 14K White Gold Wedding Ring (P/N - BR5W)
Gift Wrap = NO
Size = 7
Price = 1,091.00
QTY = 1
Total = 1,091.00

2<Billing and Shipping Information>

Wrap note = 

<b>Billing address</b>
 Frank McKenzie
207 Wagner Road

Bel Air
Maryland(MD)&nbsp;21015
United States

<b>Delivery address</b>
Frank McKenzie
207 Wagner Road

Bel Air
Maryland(MD)21015
United States

Fedex (1 - 2 days)

SUB total= 1,091.00

Delivery= 0.00

<b>TOTAL= 1,091.00</b>

