1<Order Number - <b>4000043147</b>>


Order Date - 2017-12-09 22:22:43
Order Status - 1 - confirmed and paid


2<Products>

<b>SHANORE</b> - Celtic Birthstone Necklace December (P/N - SP2075BT)
Gift Wrap = NO
Size = -
Price = 62.00
QTY = 1
Total = 62.00

2<Billing and Shipping Information>

Wrap note = 

<b>Billing address</b>
 Noeleen Butler
104 Castleknock Elms

Castleknock 
Dublin 15&nbsp;D15 NR25
Ireland

<b>Delivery address</b>
Noeleen Butler
104 Castleknock Elms

Castleknock 
Dublin 15D15 NR25
Ireland

Fastway (1 -2 days)

SUB total= 62.00

Delivery= 0.00

<b>TOTAL= 62.00</b>

