1<Order Number - <b>4000043169</b>>


Order Date - 2017-12-10 21:22:11
Order Status - 1 - confirmed and paid


2<Products>

<b>SHANORE</b> - Celtic Trinity Knot Earrings (P/N - SE2054)
Gift Wrap = NO
Size = -
Price = 70.00
QTY = 1
Total = 70.00

2<Billing and Shipping Information>

Wrap note = 

<b>Billing address</b>
 Linda Moulton
50 Robert Rd.

Marblehead
MA&nbsp;01945
United States

<b>Delivery address</b>
Linda Moulton
50 Robert Rd.

Marblehead
MA01945
United States

Registered Post (6 - 10 days)

SUB total= 70.00

Delivery= 0.00

<b>TOTAL= 70.00</b>

