1<Order Number - <b>4000043186</b>>


Order Date - 2017-12-11 12:44:17
Order Status - 1 - confirmed and paid


2<Products>

<b>TARA'S DIARY</b> - Pink Leather 7 inch Bracelet (P/N - TD82)
Gift Wrap = NO
Size = -
Price = 31.00
QTY = 1
Total = 31.00

<b>TARA'S DIARY</b> - Celtic Diamond Set Claddagh Dangle Bead (P/N - TD128)
Gift Wrap = NO
Size = -
Price = 46.00
QTY = 1
Total = 46.00

2<Billing and Shipping Information>

Wrap note = 

<b>Billing address</b>
 emma COCKSHAW
22, Rowington Road

Norwich
Norfolk&nbsp;NR1 3RR
United Kingdom

<b>Delivery address</b>
emma COCKSHAW
22, Rowington Road

Norwich
NorfolkNR1 3RR
United Kingdom

Registered Post (10 - 14 days)

SUB total= 77.00

Delivery= 0.00

<b>TOTAL= 46.00</b>

