1<Order Number - <b>4000043286</b>>


Order Date - 2017-12-14 23:30:27
Order Status - 1 - confirmed and paid


2<Products>

<b>SHANORE</b> - Silver Claddagh Bangle Adorned With Swarovski Crystal (P/N - SW71)
Gift Wrap = NO
Size = -
Price = 157.00
QTY = 1
Total = 157.00

2<Billing and Shipping Information>

Wrap note = 

<b>Billing address</b>
 Shawn Elliott
10822 Dry Stone Dr.

Huntersville
NC&nbsp;28078
United States

<b>Delivery address</b>
Shawn Elliott
10822 Dry Stone Dr.

Huntersville
NC28078
United States

Registered Post (6 - 10 days)

SUB total= 157.00

Delivery= 0.00

<b>TOTAL= 157.00</b>

