1<Order Number - <b>4000043299</b>>


Order Date - 2017-12-15 13:14:31
Order Status - 1 - confirmed and paid


2<Products>

<b>SHANORE</b> - Celtic Silver Pearl Earrings (P/N - SECP1)
Gift Wrap = NO
Size = -
Price = 62.00
QTY = 1
Total = 62.00

2<Billing and Shipping Information>

Wrap note = 

<b>Billing address</b>
 Zsolt Lazar
1584 E. Logan Ave, 1584

Salt Lake City
UT&nbsp;84105
United States

<b>Delivery address</b>
Zsolt Lazar
1584 E. Logan Ave, 1584

Salt Lake City
UT84105
United States

Registered Post (6 - 10 days)

SUB total= 62.00

Delivery= 0.00

<b>TOTAL= 62.00</b>

