1<Order Number - <b>4000043384</b>>


Order Date - 2017-12-19 11:13:37
Order Status - 1 - confirmed and paid


2<Products>

<b>SHANORE</b> - Celtic Trinity Knot Earrings (P/N - SE2054)
Gift Wrap = NO
Size = -
Price = 51.00
QTY = 1
Total = 51.00

2<Billing and Shipping Information>

Wrap note = 

<b>Billing address</b>
 Justin Connaughton
52 Hall End Road

Wootton
Beds&nbsp;MK43 9HP
United Kingdom

<b>Delivery address</b>
Justin Connaughton
52 Hall End Road

Wootton
BedsMK43 9HP
United Kingdom

Registered Post (6 - 10 days)

SUB total= 51.00

Delivery= 0.00

<b>TOTAL= 51.00</b>

