1<Order Number - <b>4000043462</b>>


Order Date - 2017-12-24 14:09:44
Order Status - 1 - confirmed and paid


2<Products>

<b>SHANORE</b> - Silver Celtic Trinity Cross Set With Emerald And Diamond (P/N - SF32)
Gift Wrap = NO
Size = -
Price = 130.00
QTY = 1
Total = 130.00

2<Billing and Shipping Information>

Wrap note = 

<b>Billing address</b>
 Robert Schmidt
95 Minna Ave

Avenel
NJ&nbsp;07001-1206
United States

<b>Delivery address</b>
Lisa Brennan
1164 Broad St Apt 2 Back Left Apt

Rahway
NJ07065
United States

Fedex (1 - 2 days)

SUB total= 130.00

Delivery= 30.00

<b>TOTAL= 130.00</b>

