1<Order Number - <b>4000043577</b>>


Order Date - 2018-01-03 16:35:22
Order Status - 1 - confirmed and paid


2<Products>

<b>TARA'S DIARY</b> - Purple Leather 8.5 inch Bracelet (P/N - TD79)
Gift Wrap = NO
Size = -
Price = 36.00
QTY = 1
Total = 36.00

2<Billing and Shipping Information>

Wrap note = 

<b>Billing address</b>
 Susan Clegg
1372 Foster Road 

Warminster 
Pa&nbsp;18974
United States

<b>Delivery address</b>
Susan Clegg
1372 Foster Road 

Warminster 
Pa18974
United States

Fedex (1 - 2 days)

SUB total= 36.00

Delivery= 30.00

<b>TOTAL= 36.00</b>

