1<Order Number - <b>4000043612</b>>


Order Date - 2018-01-07 15:12:26
Order Status - 1 - confirmed and paid


2<Products>

<b>SHANORE</b> - Trinity Knot Sterling Silver Ring  (P/N - SL99)
Gift Wrap = NO
Size = 9
Price = 57.00
QTY = 1
Total = 57.00

2<Billing and Shipping Information>

Wrap note = 

<b>Billing address</b>
 Jason Justian
19358 Dawnshire Dr

Brownstown
MI&nbsp;48193
United States

<b>Delivery address</b>
Jason Justian
19358 Dawnshire Dr

Brownstown
MI48193
United States

Registered Post (6 - 10 days)

SUB total= 57.00

Delivery= 0.00

<b>TOTAL= 57.00</b>

