1<Order Number - <b>4000043679</b>>


Order Date - 2018-01-17 17:38:48
Order Status - 1 - confirmed and paid


2<Products>

<b>SHANORE</b> - Silver Claddagh and Trinity knot Necklace (P/N - SP1077)
Gift Wrap = NO
Size = -
Price = 82.80
QTY = 1
Total = 82.80

2<Billing and Shipping Information>

Wrap note = 

<b>Billing address</b>
 A Kemp
287 Brunswick Avenue

London 
Ontario &nbsp;N6G 5P8
Canada

<b>Delivery address</b>
Jack Hitchcock
18373 Lagonda Way, Rondeau Bay Est, RR1 Box 1-5 Box 1-5

Morpeth
Ontario N0P 1X0
Canada

Registered Post (6 - 10 days)

SUB total= 82.80

Delivery= 0.00

<b>TOTAL= 82.80</b>

