1<Order Number - <b>4000043747</b>>


Order Date - 2018-01-23 22:43:04
Order Status - 1 - confirmed and paid


2<Products>

<b>SHANORE</b> - Gents Diamond Wedding Ring with Trinity Knots (P/N - 14IC24W)
Gift Wrap = NO
Size = 9
Price = 2,010.00
QTY = 1
Total = 2,010.00

2<Billing and Shipping Information>

Wrap note = 

<b>Billing address</b>
 VLADIMIR MALINSKY
74 SHREWSBURY DR

LIVINGSTON
New Jersey&nbsp;07039
United States

<b>Delivery address</b>
Michelle Jimenez
1 Sussex Station.Apt.105

Sussex
New Jersey07461
United States

Fedex (1 - 2 days)

SUB total= 2,010.00

Delivery= 0.00

<b>TOTAL= 2,010.00</b>

