1<Order Number - <b>4000043757</b>>


Order Date - 2018-01-24 23:09:01
Order Status - 1 - confirmed and paid


2<Products>

<b>SHANORE</b> - Celtic diamond ring 14k white gold 3 stone .25ct (P/N - 14RC3STWD)
Gift Wrap = NO
Size = 8.5
Price = 2,420.00
QTY = 1
Total = 2,420.00

2<Billing and Shipping Information>

Wrap note = 

<b>Billing address</b>
 Whitney Eidman
1613 Pease Rd

Austin
Texas&nbsp;78703
United States

<b>Delivery address</b>
Millicent Ofori
517 Monroe Avenue

Elizabeth
New Jersey07201
United States

Fedex (1 - 2 days)

SUB total= 2,420.00

Delivery= 0.00

<b>TOTAL= 2,420.00</b>

