1<Order Number - <b>4000043903</b>>


Order Date - 2018-02-08 02:05:14
Order Status - 1 - confirmed and paid


2<Products>

<b>SHANORE</b> - 2 Stone Trinity Knot Mothers Pendant  (P/N - MP2-T )
Gift Wrap = YES
Size = -
Price = 132.00
QTY = 1
Total = 132.00

2<Billing and Shipping Information>

Wrap note = 

<b>Billing address</b>
 Shannon Panelli
1216 N 5TH ST APT 29

Philadelphia
Pennsylvania&nbsp;19122
United States

<b>Delivery address</b>
Shannon Panelli
1216 N 5TH ST APT 29

Philadelphia
Pennsylvania19122
United States

Registered Post (6 - 10 days)

SUB total= 132.00

Delivery= 0.00

<b>TOTAL= 132.00</b>

