1<Order Number - <b>4000043975</b>>


Order Date - 2018-02-16 18:12:30
Order Status - 1 - confirmed and paid


2<Products>

<b>SHANORE</b> - Silver Shamrock Climber Earrings Encrusted With Swarovski Crystal   (P/N - SW80)
Gift Wrap = NO
Size = -
Price = 87.00
QTY = 1
Total = 87.00

2<Billing and Shipping Information>

Wrap note = 

<b>Billing address</b>
 Holly  Hill
230 Dewberry Drive 

Orofino 
Idaho &nbsp;83544
United States

<b>Delivery address</b>
Holly  Hill
230 Dewberry Drive 

Orofino 
Idaho 83544
United States

Registered Post (6 - 10 days)

SUB total= 87.00

Delivery= 0.00

<b>TOTAL= 87.00</b>

