1<Order Number - <b>4000044168</b>>


Order Date - 2018-03-04 19:38:56
Order Status - 1 - confirmed and paid


2<Products>

<b>SHANORE</b> - Intricate Celtic Knot Silver Design Earrings (P/N - SE2111CZ)
Gift Wrap = NO
Size = -
Price = 82.00
QTY = 1
Total = 82.00

2<Billing and Shipping Information>

Wrap note = 

<b>Billing address</b>
 Patricia Halls
1621 Castbourne Ct

Wheaton
IL&nbsp;60189
United States

<b>Delivery address</b>
Patricia Halls
1621 Castbourne Ct

Wheaton
IL60189
United States

Registered Post (6 - 10 days)

SUB total= 82.00

Delivery= 0.00

<b>TOTAL= 82.00</b>

