1<Order Number - <b>4000044177</b>>


Order Date - 2018-03-05 19:05:39
Order Status - 1 - confirmed and paid


2<Products>

<b>SHANORE</b> - Trinity Knot Sterling Silver Ring  (P/N - SL99)
Gift Wrap = NO
Size = 6.5
Price = 57.00
QTY = 1
Total = 57.00

2<Billing and Shipping Information>

Wrap note = 

<b>Billing address</b>
 Caitlin Wallbillich
2657 Boyd Street 

Bethlehem
PA&nbsp;18017
United States

<b>Delivery address</b>
Caitlin Wallbillich
2657 Boyd Street 

Bethlehem
PA18017
United States

Registered Post (6 - 10 days)

SUB total= 57.00

Delivery= 0.00

<b>TOTAL= 57.00</b>

