1<Order Number - <b>4000044203</b>>


Order Date - 2018-03-07 23:07:21
Order Status - 1 - confirmed and paid


2<Products>

<b>SHANORE</b> - Claddagh Birthstone Ring June: Alexandrite (P/N - SL90AX)
Gift Wrap = NO
Size = 8.5
Price = 77.00
QTY = 1
Total = 77.00

2<Billing and Shipping Information>

Wrap note = 

<b>Billing address</b>
 David Tekverk
41 Andrew Avenue

Islip Terrace
New York&nbsp;11752
United States

<b>Delivery address</b>
David Tekverk
41 Andrew Avenue

Islip Terrace
New York11752
United States

Registered Post (6 - 10 days)

SUB total= 77.00

Delivery= 0.00

<b>TOTAL= 77.00</b>

