1<Order Number - <b>4000044341</b>>


Order Date - 2018-03-17 15:36:40
Order Status - 1 - confirmed and paid


2<Products>

<b>SHANORE</b> - 10K Gold Claddagh Pendant (P/N - 10P616)
Gift Wrap = YES
Size = -
Price = 211.00
QTY = 1
Total = 211.00

2<Billing and Shipping Information>

Wrap note = 

<b>Billing address</b>
 Stephanie Foley
308 12th St N

Wheaton
MN&nbsp;56296
United States

<b>Delivery address</b>
Stephanie Foley
308 12th St N

Wheaton
MN56296
United States

Registered Post (6 - 10 days)

SUB total= 211.00

Delivery= 0.00

<b>TOTAL= 211.00</b>

