1<Order Number - <b>4000044452</b>>


Order Date - 2018-03-24 12:30:45
Order Status - 1 - confirmed and paid


2<Products>

<b>SHANORE</b> - 3 Stone Shamrock Mothers Pendant (P/N - MP3-S)
Gift Wrap = YES
Size = -
Price = 157.00
QTY = 1
Total = 157.00

2<Billing and Shipping Information>

Wrap note = 

<b>Billing address</b>
 Lacey Wellington
2806 Township Road 249

Toronto 
Ohio&nbsp;43964
United States

<b>Delivery address</b>
Lacey Wellington
2806 Township Road 249

Toronto 
Ohio43964
United States

Registered Post (6 - 10 days)

SUB total= 157.00

Delivery= 0.00

<b>TOTAL= 157.00</b>

