1<Order Number - <b>4000044713</b>>


Order Date - 2018-04-19 02:21:54
Order Status - 1 - confirmed and paid


2<Products>

<b>SHANORE</b> - Tree Of Life Silver Necklace (P/N - SP2102CZ)
Gift Wrap = NO
Size = -
Price = 77.00
QTY = 1
Total = 77.00

<b>SHANORE</b> - Tree Of Life Silver Necklace (P/N - SP2102CZ)
Gift Wrap = NO
Size = -
Price = 77.00
QTY = 1
Total = 77.00

<b>SHANORE</b> - Tree Of Life Silver Necklace (P/N - SP2102CZ)
Gift Wrap = NO
Size = -
Price = 77.00
QTY = 1
Total = 77.00

2<Billing and Shipping Information>

Wrap note = 

<b>Billing address</b>
 Melanie Feekes
2536 Longmire Ct NE

Issaquah
Washington&nbsp;98029
United States

<b>Delivery address</b>
Melanie Feekes
2536 Longmire Ct NE

Issaquah
Washington98029
United States

Registered Post (6 - 10 days)

SUB total= 231.00

Delivery= 0.00

<b>TOTAL= 77.00</b>

