1<Order Number - <b>4000044729</b>>


Order Date - 2018-04-20 11:59:59
Order Status - 1 - confirmed and paid


2<Products>

<b>SHANORE</b> - Silver Claddagh CZ Stone Set Earrings (P/N - SE2050)
Gift Wrap = NO
Size = -
Price = 64.00
QTY = 1
Total = 64.00

2<Billing and Shipping Information>

Wrap note = 

<b>Billing address</b>
 James Nolan
9 Roches Terrace

Wexford
Wexford&nbsp;Y35R7F3
Ireland

<b>Delivery address</b>
James Nolan
9 Roches Terrace

Wexford
WexfordY35R7F3
Ireland

Fastway (1 -2 days)

SUB total= 64.00

Delivery= 0.00

<b>TOTAL= 64.00</b>

