1<Order Number - <b>4000044748</b>>


Order Date - 2018-04-22 00:18:01
Order Status - 1 - confirmed and paid


2<Products>

<b>TARA'S DIARY</b> - Celtic Trinty Knot Bead Encrusted With Swarovski Crystals  (P/N - TD223)
Gift Wrap = NO
Size = -
Price = 58.00
QTY = 1
Total = 58.00

2<Billing and Shipping Information>

Wrap note = 

<b>Billing address</b>
 Kristine Giltenan
152 31st 

Brooklyn 
New York &nbsp;11232
United States

<b>Delivery address</b>
Kristine  Giltenan
187 72st 

Brooklyn 
New York 11209
United States

Registered Post (6 - 10 days)

SUB total= 58.00

Delivery= 0.00

<b>TOTAL= 58.00</b>

