1<Order Number - <b>4000044799</b>>


Order Date - 2018-04-25 22:05:21
Order Status - 1 - confirmed and paid


2<Products>

<b>SHANORE</b> - Celtic Trinity Knot Diamond Earrings  (P/N - SE2023)
Gift Wrap = NO
Size = -
Price = 185.00
QTY = 1
Total = 185.00

2<Billing and Shipping Information>

Wrap note = 

<b>Billing address</b>
 paul natale
0269 CRYSTAL CIRCLE

REDSTONE
Colorado&nbsp;81623
United States

<b>Delivery address</b>
paul natale
po box 4763

aspen
Colorado81612
United States

Registered Post (6 - 10 days)

SUB total= 185.00

Delivery= 0.00

<b>TOTAL= 185.00</b>

