1<Order Number - <b>4000044790</b>>


Order Date - 2018-04-25 10:32:24
Order Status - 1 - confirmed and paid


2<Products>

<b>SHANORE</b> - Ladies Silver Celtic Knot Stone Set Ring (P/N - SD12)
Gift Wrap = NO
Size = 8
Price = 102.00
QTY = 1
Total = 102.00

2<Billing and Shipping Information>

Wrap note = 

<b>Billing address</b>
 Jessica Bullock
295 Village St

Penacook
NH&nbsp;03303
United States

<b>Delivery address</b>
Jessica Bullock
5 Mcguire St

Concord
NH03301
United States

Registered Post (6 - 10 days)

SUB total= 102.00

Delivery= 0.00

<b>TOTAL= 102.00</b>

