1<Order Number - <b>4000044831</b>>


Order Date - 2018-04-28 19:55:25
Order Status - 1 - confirmed and paid


2<Products>

<b>SHANORE</b> - Claddagh Birthstone Ring April (P/N - SL90CZ)
Gift Wrap = NO
Size = 7
Price = 77.00
QTY = 1
Total = 77.00

2<Billing and Shipping Information>

Wrap note = 

<b>Billing address</b>
 Angelica Rosales
949 E. North St

Morris
Illinois&nbsp;60450
United States

<b>Delivery address</b>
Angelica Rosales
949 E. North St

Morris
Illinois60450
United States

Registered Post (6 - 10 days)

SUB total= 77.00

Delivery= 0.00

<b>TOTAL= 77.00</b>

