1<Order Number - <b>4000044850</b>>


Order Date - 2018-05-02 00:38:51
Order Status - 1 - confirmed and paid


2<Products>

<b>SHANORE</b> - Celtic Wave Claddagh Necklace (P/N - SP2045)
Gift Wrap = NO
Size = -
Price = 95.00
QTY = 1
Total = 95.00

2<Billing and Shipping Information>

Wrap note = 

<b>Billing address</b>
 John Adams
6 Melrose street

Sidney 
New York&nbsp;13838
United States

<b>Delivery address</b>
John Adams
6 Melrose street

Sidney 
New York13838
United States

Registered Post (6 - 10 days)

SUB total= 95.00

Delivery= 0.00

<b>TOTAL= 95.00</b>

