1<Order Number - <b>4000044865</b>>


Order Date - 2018-05-03 20:30:51
Order Status - 1 - confirmed and paid


2<Products>

<b>SHANORE</b> - Claddagh Silver Emerald Diamond Necklace (P/N - SP2020)
Gift Wrap = NO
Size = -
Price = 133.00
QTY = 1
Total = 133.00

2<Billing and Shipping Information>

Wrap note = 

<b>Billing address</b>
 Mary Stermel
343 Wolf Street

Philadelphia
PA&nbsp;19148
United States

<b>Delivery address</b>
Mary Stermel
343 Wolf Street

Philadelphia
PA19148
United States

Registered Post (6 - 10 days)

SUB total= 133.00

Delivery= 0.00

<b>TOTAL= 133.00</b>

