1<Order Number - <b>4000044890</b>>


Order Date - 2018-05-06 05:11:21
Order Status - 1 - confirmed and paid


2<Products>

<b>SHANORE</b> - Silver Gents Celtic Design Ring (P/N - SD1)
Gift Wrap = NO
Size = 10.5
Price = 224.00
QTY = 1
Total = 224.00

2<Billing and Shipping Information>

Wrap note = 

<b>Billing address</b>
 Daniel Alvarado
616 E. Euclid Ave.

Duarte
California&nbsp;91010
United States

<b>Delivery address</b>
Daniel Alvarado
616 E. Euclid Ave.

Duarte
California91010
United States

Fedex (1 - 2 days)

SUB total= 224.00

Delivery= 30.00

<b>TOTAL= 224.00</b>

