1<Order Number - <b>4000044956</b>>


Order Date - 2018-05-10 19:40:44
Order Status - 1 - confirmed and paid


2<Products>

<b>SHANORE</b> - Trinity Knot Sterling Silver Ring  (P/N - SL99)
Gift Wrap = NO
Size = 7
Price = 57.00
QTY = 1
Total = 57.00

2<Billing and Shipping Information>

Wrap note = 

<b>Billing address</b>
 Tara Davis
820 Boone Ridge Ln

Cary
nc&nbsp;27519
United States

<b>Delivery address</b>
Tara Davis
820 Boone Ridge Ln

Cary
nc27519
United States

Registered Post (6 - 10 days)

SUB total= 57.00

Delivery= 0.00

<b>TOTAL= 57.00</b>

