1<Order Number - <b>4000044971</b>>


Order Date - 2018-05-11 20:55:28
Order Status - 1 - confirmed and paid


2<Products>

<b>SHANORE</b> - Ladies Claddagh Emerald And Diamond Set (P/N - 14L68ED)
Gift Wrap = NO
Size = 7.5
Price = 1,111.00
QTY = 1
Total = 1,111.00

2<Billing and Shipping Information>

Wrap note = 

<b>Billing address</b>
 Devin  Greaney
2234 Oliver Ave

Memphis 
Tn&nbsp;38104
United States

<b>Delivery address</b>
Devin Greaney
1130 N Germantown Parkway

Cordova
TN 38016
United States

Fedex (1 - 2 days)

SUB total= 1,111.00

Delivery= 0.00

<b>TOTAL= 1,111.00</b>

