1<Order Number - <b>4000045071</b>>


Order Date - 2018-05-23 03:32:50
Order Status - 1 - confirmed and paid


2<Products>

<b>SHANORE</b> - Claddagh, Love, Loyalty, Friendship Silver Ring (P/N - SL1)
Gift Wrap = NO
Size = 7.5
Price = 56.00
QTY = 1
Total = 56.00

2<Billing and Shipping Information>

Wrap note = 

<b>Billing address</b>
 Krysta  Cruz
514 13th avenue 

Belmar
New Jersey &nbsp;07719
United States

<b>Delivery address</b>
Krysta  Cruz
514 13th avenue 

Belmar
New Jersey 07719
United States

Fedex (1 - 2 days)

SUB total= 56.00

Delivery= 30.00

<b>TOTAL= 56.00</b>

