1<Order Number - <b>4000045097</b>>


Order Date - 2018-05-27 13:15:01
Order Status - 1 - confirmed and paid


2<Products>

<b>TARA'S DIARY</b> - Tree Of Life Necklace Encrusted With Peridot And White Swarovski Crystal (P/N - SW57)
Gift Wrap = NO
Size = -
Price = 282.00
QTY = 1
Total = 282.00

<b>SHANORE</b> - Celtic Silver Pearl Rose Gold Plated Earrings (P/N - SE2091)
Gift Wrap = NO
Size = -
Price = 70.00
QTY = 1
Total = 70.00

<b>SHANORE</b> - Celtic Silver Pearl Rose Gold Plated Necklace (P/N - SP2090)
Gift Wrap = NO
Size = -
Price = 62.00
QTY = 1
Total = 62.00

2<Billing and Shipping Information>

Wrap note = 

<b>Billing address</b>
 Soraya  Zahn-Rogers
264 Washington Avenue 

Saint James
New York&nbsp;11780
United States

<b>Delivery address</b>
Soraya  Zahn-Rogers
264 Washington Avenue 

Saint James
New York11780
United States

Registered Post (6 - 10 days)

SUB total= 414.00

Delivery= 0.00

<b>TOTAL= 62.00</b>

