1<Order Number - <b>4000045117</b>>


Order Date - 2018-05-28 20:23:52
Order Status - 1 - confirmed and paid


2<Products>

<b>SHANORE</b> - Claddagh Pave Set Ladies Ring (P/N - SL97)
Gift Wrap = NO
Size = 9
Price = 80.00
QTY = 1
Total = 80.00

2<Billing and Shipping Information>

Wrap note = 

<b>Billing address</b>
 Christopher Shedlock
162 Dorchester Drive 

East Windsor 
New Jersey&nbsp;08520
United States

<b>Delivery address</b>
Christopher Shedlock
162 Dorchester Drive 

East Windsor 
New Jersey08520
United States

Fedex (1 - 2 days)

SUB total= 80.00

Delivery= 30.00

<b>TOTAL= 80.00</b>

