1<Order Number - <b>4000045265</b>>


Order Date - 2018-06-10 11:47:25
Order Status - 1 - confirmed and paid


2<Products>

<b>SHANORE</b> - Gold 10K Trinity Pearl Earrings  (P/N - 10E641)
Gift Wrap = NO
Size = -
Price = 240.00
QTY = 1
Total = 240.00

2<Billing and Shipping Information>

Wrap note = 

<b>Billing address</b>
 Mary  Chupkowski 
6515 Countryside Dr

Fayetteville 
North Carolina &nbsp;28311
United States

<b>Delivery address</b>
Mary  Chupkowski 
6515 Countryside Dr

Fayetteville 
North Carolina 28311
United States

Registered Post (6 - 10 days)

SUB total= 240.00

Delivery= 0.00

<b>TOTAL= 240.00</b>

