1<Order Number - <b>4000045274</b>>


Order Date - 2018-06-11 00:31:21
Order Status - 1 - confirmed and paid


2<Products>

<b>SHANORE</b> - Stone Set Harp With Celtic Design (P/N - SP1088)
Gift Wrap = NO
Size = -
Price = 79.00
QTY = 1
Total = 79.00

2<Billing and Shipping Information>

Wrap note = 

<b>Billing address</b>
 Bob Leech-Hines
Level 1, 7 Westside Avenue

Port Melbourne
Victoria&nbsp;3207
Australia

<b>Delivery address</b>
Bob Leech-Hines
Level 1, 7 Westside Avenue

Port Melbourne
Victoria3207
Australia

Registered Post (10 - 14 days)

SUB total= 79.00

Delivery= 0.00

<b>TOTAL= 79.00</b>

