1<Order Number - <b>4000045298</b>>


Order Date - 2018-06-13 14:31:55
Order Status - 1 - confirmed and paid


2<Products>

<b>SHANORE</b> - Silver Green CZ Halo Necklace (P/N - SP2097GRCZ )
Gift Wrap = NO
Size = -
Price = 118.80
QTY = 1
Total = 118.80

2<Billing and Shipping Information>

Wrap note = 

<b>Billing address</b>
 Wesley Robertson
7 Lone Oak Court

Elgin
South Carolina&nbsp;29045
United States

<b>Delivery address</b>
Wesley Robertson
7 Lone Oak Court

Elgin
South Carolina29045
United States

Registered Post (6 - 10 days)

SUB total= 118.80

Delivery= 0.00

<b>TOTAL= 118.80</b>

