1<Order Number - <b>4000045309</b>>


Order Date - 2018-06-14 20:49:57
Order Status - 1 - confirmed and paid


2<Products>

<b>SHANORE</b> - Silver Claddagh Green Enamel Charm (P/N - LM26)
Gift Wrap = NO
Size = -
Price = 50.00
QTY = 1
Total = 50.00

2<Billing and Shipping Information>

Wrap note = 

<b>Billing address</b>
 Madeline Mezzina
104 Heights Court

Stroudsburg
PA&nbsp;18360
United States

<b>Delivery address</b>
Madeline Mezzina
104 Heights Court

Stroudsburg
PA18360
United States

Registered Post (6 - 10 days)

SUB total= 50.00

Delivery= 0.00

<b>TOTAL= 50.00</b>

