1<Order Number - <b>4000045382</b>>


Order Date - 2018-06-22 23:58:54
Order Status - 1 - confirmed and paid


2<Products>

<b>SHANORE</b> - Intricate Celtic Knot Silver Design Necklace (P/N - SP2110CZ)
Gift Wrap = NO
Size = -
Price = 95.00
QTY = 1
Total = 95.00

<b>SHANORE</b> - 5 Stone Trinity Knot Mothers Pendant (P/N - MP5-T )
Gift Wrap = YES
Size = -
Price = 195.00
QTY = 1
Total = 195.00

2<Billing and Shipping Information>

Wrap note = 

<b>Billing address</b>
 Bill Brehm
3371 Spillway Ln

Mechanicsville
Virginia&nbsp;23111-6253
United States

<b>Delivery address</b>
Bill Brehm
3371 Spillway Ln

Mechanicsville
Virginia23111-6253
United States

Registered Post (6 - 10 days)

SUB total= 290.00

Delivery= 0.00

<b>TOTAL= 195.00</b>

