1<Order Number - <b>4000045558</b>>


Order Date - 2018-07-12 12:47:23
Order Status - 1 - confirmed and paid


2<Products>

<b>SHANORE</b> - Silver Claddagh intertwining Design (P/N - SL46)
Gift Wrap = NO
Size = 7
Price = 56.00
QTY = 1
Total = 56.00

2<Billing and Shipping Information>

Wrap note = 

<b>Billing address</b>
 Colleen Conn
1149 Deer Run Road

Chester
South Carolina&nbsp;29706
United States

<b>Delivery address</b>
Colleen Conn
1149 Deer Run Road

Chester
South Carolina29706
United States

Registered Post (6 - 10 days)

SUB total= 56.00

Delivery= 0.00

<b>TOTAL= 56.00</b>

