1<Order Number - <b>4000045604</b>>


Order Date - 2018-07-16 21:19:43
Order Status - 1 - confirmed and paid


2<Products>

<b>SHANORE</b> - Celtic Wedding Band Ladies Emerald and Diamond Set (P/N - 14WS6W2ED)
Gift Wrap = NO
Size = 6
Price = 902.00
QTY = 1
Total = 902.00

2<Billing and Shipping Information>

Wrap note = 

<b>Billing address</b>
 Joey Saad
4530 NW 79 Ave. Apt. 1C

Doral
FL&nbsp;33166
United States

<b>Delivery address</b>
JOEY SAAD
14301 SW 88 ST. APT#212B

MIAMI
FLORIDA33186
United States

Fedex (1 - 2 days)

SUB total= 902.00

Delivery= 0.00

<b>TOTAL= 902.00</b>

