1<Order Number - <b>4000045721</b>>


Order Date - 2018-07-25 01:25:22
Order Status - 1 - confirmed and paid


2<Products>

<b>SHANORE</b> - Open Shamrock Necklace Embellished With Swarovski Crystals (P/N - SW50)
Gift Wrap = NO
Size = -
Price = 87.00
QTY = 1
Total = 87.00

2<Billing and Shipping Information>

Wrap note = 

<b>Billing address</b>
 David Bergman
6750 Winona Circle

CLEVELAND
OHIO&nbsp;44130
United States

<b>Delivery address</b>
David Bergman
6750 Winona Circle

CLEVELAND
OHIO44130
United States

Fedex (1 - 2 days)

SUB total= 87.00

Delivery= 30.00

<b>TOTAL= 87.00</b>

