1<Order Number - <b>4000045756</b>>


Order Date - 2018-07-26 23:47:05
Order Status - 1 - confirmed and paid


2<Products>

<b>SHANORE</b> - Ladies Silver Celtic Knot Stone Set Ring (P/N - SD12)
Gift Wrap = NO
Size = 5.5
Price = 102.00
QTY = 1
Total = 102.00

2<Billing and Shipping Information>

Wrap note = 

<b>Billing address</b>
 Harmony Hill
1301 S. 30th ST

Broken Arrow
Oklahoma&nbsp;74014
United States

<b>Delivery address</b>
Harmony Hill
1301 S. 30th ST

Broken Arrow
Oklahoma74014
United States

Registered Post (6 - 10 days)

SUB total= 102.00

Delivery= 0.00

<b>TOTAL= 102.00</b>

