1<Order Number - <b>4000045803</b>>


Order Date - 2018-07-28 20:27:30
Order Status - 1 - confirmed and paid


2<Products>

<b>SHANORE</b> - Ladies 10K gold Claddagh Ring  (P/N - 10L1)
Gift Wrap = NO
Size = 6.5
Price = 295.00
QTY = 1
Total = 295.00

2<Billing and Shipping Information>

Wrap note = 

<b>Billing address</b>
 Carol Hansen
10 Torrey Pnes

Clifton Park
New York&nbsp;12065
United States

<b>Delivery address</b>
Carol Hansen
10 Torrey Pnes

Clifton Park
New York12065
United States

Fedex (1 - 2 days)

SUB total= 295.00

Delivery= 30.00

<b>TOTAL= 295.00</b>

