1<Order Number - <b>4000046044</b>>


Order Date - 2018-08-15 16:36:51
Order Status - 1 - confirmed and paid


2<Products>

<b>SHANORE</b> - Silver Initial K Adorned with White Swarovski Crystal  (P/N - SW129)
Gift Wrap = NO
Size = -
Price = 102.00
QTY = 1
Total = 102.00

2<Billing and Shipping Information>

Wrap note = 

<b>Billing address</b>
 Christopher Maugans
211 Rosemont Ave

New Cumberland
PA&nbsp;17070
United States

<b>Delivery address</b>
Christopher Maugans
211 Rosemont Ave

New Cumberland
PA17070
United States

Registered Post (6 - 10 days)

SUB total= 102.00

Delivery= 0.00

<b>TOTAL= 102.00</b>

