1<Order Number - <b>4000046146</b>>


Order Date - 2018-08-26 17:36:22
Order Status - 1 - confirmed and paid


2<Products>

<b>SHANORE</b> - Silver Celtic Trinity Knot Stud Earrings  (P/N - SE2201)
Gift Wrap = NO
Size = -
Price = 50.00
QTY = 1
Total = 50.00

2<Billing and Shipping Information>

Wrap note = 

<b>Billing address</b>
 Istvan Roland Soos
550 Liberty St #3707

Braintree 
MA&nbsp;02184
United States

<b>Delivery address</b>
Istvan Roland Soos
550 Liberty St #3707

Braintree 
MA02184
United States

Registered Post (6 - 10 days)

SUB total= 50.00

Delivery= 0.00

<b>TOTAL= 50.00</b>

