1<Order Number - <b>4000046153</b>>


Order Date - 2018-08-27 04:40:22
Order Status - 1 - confirmed and paid


2<Products>

<b>SHANORE</b> - Ladies Silver Celtic Knot Stone Set Ring (P/N - SD12)
Gift Wrap = NO
Size = 9
Price = 102.00
QTY = 1
Total = 102.00

2<Billing and Shipping Information>

Wrap note = 

<b>Billing address</b>
 Therese Caulfield
649 Mount Sinai Coram Rd

Mount Sinai
NY&nbsp;11766
United States

<b>Delivery address</b>
Therese Caulfield
649 Mount Sinai Coram Rd

Mount Sinai
NY11766
United States

Registered Post (6 - 10 days)

SUB total= 102.00

Delivery= 0.00

<b>TOTAL= 102.00</b>

