1<Order Number - <b>4000046232</b>>


Order Date - 2018-09-06 04:32:57
Order Status - 1 - confirmed and paid


2<Products>

<b>SHANORE</b> - Silver Gents Celtic Design Ring (P/N - SD1)
Gift Wrap = NO
Size = 9.5
Price = 224.00
QTY = 1
Total = 224.00

2<Billing and Shipping Information>

Wrap note = 

<b>Billing address</b>
 Claire Pfister
50 Apache Creek Ranch

Santa Fe
New Mexico&nbsp;87505
United States

<b>Delivery address</b>
Benjamin Paradice
1618 Perry Park Avenue

Larkspur
Colorado80118
United States

Fedex (1 - 2 days)

SUB total= 224.00

Delivery= 30.00

<b>TOTAL= 224.00</b>

