1<Order Number - <b>4000046294</b>>


Order Date - 2018-09-12 19:21:21
Order Status - 1 - confirmed and paid


2<Products>

<b>SHANORE</b> - Silver Celtic Knot Climber Earrings  (P/N - SW79)
Gift Wrap = NO
Size = -
Price = 62.00
QTY = 1
Total = 62.00

2<Billing and Shipping Information>

Wrap note = Leave inside side door

<b>Billing address</b>
 Lisa Nichols
10 wood street

Coventry
RI&nbsp;02816
United States

<b>Delivery address</b>
Lisa Nichols
10 wood street

Coventry
RI02816
United States

Registered Post (6 - 10 days)

SUB total= 62.00

Delivery= 0.00

<b>TOTAL= 62.00</b>

