1<Order Number - <b>4000046331</b>>


Order Date - 2018-09-16 15:50:04
Order Status - 1 - confirmed and paid


2<Products>

<b>SHANORE</b> - Silver Two Tone Stone Set Trinity Knot Pendant  (P/N - SP2233)
Gift Wrap = NO
Size = -
Price = 107.00
QTY = 1
Total = 107.00

2<Billing and Shipping Information>

Wrap note = 

<b>Billing address</b>
 Samantha Carey
107 Fieldcrest Street apt 103

Ann Arbor
Michigan&nbsp;48103
United States

<b>Delivery address</b>
Samantha Carey
107 Fieldcrest Street apt 103

Ann Arbor
Michigan48103
United States

Registered Post (6 - 10 days)

SUB total= 107.00

Delivery= 0.00

<b>TOTAL= 107.00</b>

