1<Order Number - <b>4000046465</b>>


Order Date - 2018-09-27 07:58:13
Order Status - 1 - confirmed and paid


2<Products>

<b>SHANORE</b> - Celtic Pearl Necklace Adorned By Swarovski Crystals   (P/N - SW24)
Gift Wrap = NO
Size = -
Price = 96.30
QTY = 1
Total = 96.30

<b>SHANORE</b> - Celtic Pearl Earrings Adorned By Swarovski Crystals  (P/N - SW25)
Gift Wrap = NO
Size = -
Price = 96.30
QTY = 1
Total = 96.30

2<Billing and Shipping Information>

Wrap note = 

<b>Billing address</b>
 Jennifer Bond
350 3rd Street, Unit 616

Cambridge 
MA&nbsp;02142
United States

<b>Delivery address</b>
Jennifer Bond
350 3rd Street, Unit 616

Cambridge 
MA02142


Registered Post (6 - 10 days)

SUB total= 192.60

Delivery= 0.00

<b>TOTAL= 96.30</b>

