1<Order Number - <b>4000046513</b>>


Order Date - 2018-10-02 03:49:41
Order Status - 1 - confirmed and paid


2<Products>

<b>SHANORE</b> - Celtic Silver Pearl Earrings (P/N - SECP1)
Gift Wrap = NO
Size = -
Price = 62.00
QTY = 1
Total = 62.00

2<Billing and Shipping Information>

Wrap note = 

<b>Billing address</b>
 Glynesta Cheeseman
36531 N. Yew Tree Dr

Lake Villa
IL&nbsp;60046
United States

<b>Delivery address</b>
Karen Richards
30W201 Joy Road

West Chicago
IL60185
United States

Registered Post (6 - 10 days)

SUB total= 62.00

Delivery= 0.00

<b>TOTAL= 62.00</b>

