1<Order Number - <b>4000046554</b>>


Order Date - 2018-10-05 13:31:37
Order Status - 1 - confirmed and paid


2<Products>

<b>SHANORE</b> - Celtic Trinity Knot Two Tone 14K Gold Gents Wedding Ring (P/N - BR7WY)
Gift Wrap = NO
Size = 10.5
Price = 1,762.00
QTY = 1
Total = 1,762.00

2<Billing and Shipping Information>

Wrap note = 

<b>Billing address</b>
 Ryan Tullar
142 Washington st

Occoquan
Va&nbsp;22125
United States

<b>Delivery address</b>
Ryan Tullar
142 Washington st

Occoquan
Va22125
United States

Fedex (1 - 2 days)

SUB total= 1,762.00

Delivery= 0.00

<b>TOTAL= 1,762.00</b>

