1<Order Number - <b>4000046911</b>>


Order Date - 2018-11-02 18:41:41
Order Status - 1 - confirmed and paid


2<Products>

<b>SHANORE</b> - Claddagh Birthstone Ring October: Pink CZ (P/N - SL90PCZ)
Gift Wrap = NO
Size = 5
Price = 77.00
QTY = 1
Total = 77.00

2<Billing and Shipping Information>

Wrap note = 

<b>Billing address</b>
 Rita Withrow
160 E. Weston Drive

North Liberty
IA&nbsp;52317
United States

<b>Delivery address</b>
Rita Withrow
160 E. Weston Drive

North Liberty
IA52317
United States

Registered Post (6 - 10 days)

SUB total= 77.00

Delivery= 0.00

<b>TOTAL= 77.00</b>

