1<Order Number - <b>4000046913</b>>


Order Date - 2018-11-02 19:37:39
Order Status - 1 - confirmed and paid


2<Products>

<b>SHANORE</b> - Claddagh Birthstone Ring November (P/N - SL90TZ)
Gift Wrap = NO
Size = 5.5
Price = 77.00
QTY = 1
Total = 77.00

2<Billing and Shipping Information>

Wrap note = 

<b>Billing address</b>
 Jeff Sivula
16028 Long Talon Way

Charlotte
NC&nbsp;28278
United States

<b>Delivery address</b>
Jeff Sivula
16028 Long Talon Way

Charlotte
NC28278
United States

Registered Post (6 - 10 days)

SUB total= 77.00

Delivery= 0.00

<b>TOTAL= 77.00</b>

