1<Order Number - <b>4000047038</b>>


Order Date - 2018-11-14 01:41:38
Order Status - 1 - confirmed and paid


2<Products>

<b>SHANORE</b> - Claddagh Birthstone Necklace February (P/N - SP91AY)
Gift Wrap = NO
Size = -
Price = 77.00
QTY = 1
Total = 77.00

2<Billing and Shipping Information>

Wrap note = 

<b>Billing address</b>
 Mark Rollins
1448 E. Crystal Lake Ave.

Orlando
Fl&nbsp;32806
United States

<b>Delivery address</b>
Mark Rollins
1448 E. Crystal Lake Ave.

Orlando
Fl32806
United States

Registered Post (6 - 10 days)

SUB total= 77.00

Delivery= 0.00

<b>TOTAL= 77.00</b>

