1<Order Number - <b>4000047040</b>>


Order Date - 2018-11-14 02:24:19
Order Status - 1 - confirmed and paid


2<Products>

<b>SHANORE</b> - Silver Green Cz Halo Ring  (P/N - SL100GRCZ)
Gift Wrap = NO
Size = 9.5
Price = 157.00
QTY = 1
Total = 157.00

2<Billing and Shipping Information>

Wrap note = 

<b>Billing address</b>
 Claire Rees
7-128 woodridge crescent

Ottawa
Ontario&nbsp;K2b7s9
Canada

<b>Delivery address</b>
Claire Rees
7-128 woodridge crescent

Ottawa
OntarioK2b7s9
Canada

Fedex (1 - 2 days)

SUB total= 157.00

Delivery= 30.00

<b>TOTAL= 157.00</b>

