1<Order Number - <b>4000047144</b>>


Order Date - 2018-11-21 16:56:32
Order Status - 1 - confirmed and paid


2<Products>

<b>SHANORE</b> - Claddagh, Love, Loyalty, Friendship Silver Ring (P/N - SL1)
Gift Wrap = NO
Size = 8.5
Price = 56.00
QTY = 1
Total = 56.00

2<Billing and Shipping Information>

Wrap note = 

<b>Billing address</b>
 Matthew Hickey
80 Broad St Unit 704

Boston
MA&nbsp;02110
United States

<b>Delivery address</b>
Matthew Hickey
80 Broad St Unit 704

Boston
MA02110
United States

Fedex (1 - 2 days)

SUB total= 56.00

Delivery= 30.00

<b>TOTAL= 56.00</b>

