1<Order Number - <b>4000047239</b>>


Order Date - 2018-11-26 19:52:49
Order Status - 1 - confirmed and paid


2<Products>

<b>SHANORE</b> - Silver Claddagh intertwining Design (P/N - SL46)
Gift Wrap = NO
Size = 8.5
Price = 56.00
QTY = 1
Total = 56.00

2<Billing and Shipping Information>

Wrap note = 

<b>Billing address</b>
 Taylor  Schneider
P.O. Box 69

McLean
New York&nbsp;13102
United States

<b>Delivery address</b>
Taylor  Schneider
12 Ellis Dr

Dryden
New York13053
United States

Registered Post (6 - 10 days)

SUB total= 56.00

Delivery= 0.00

<b>TOTAL= 56.00</b>

