1<Order Number - <b>4000047258</b>>


Order Date - 2018-11-27 17:33:53
Order Status - 1 - confirmed and paid


2<Products>

<b>SHANORE</b> - Emerald Set Celtic Knot Design Cross (P/N - SF26)
Gift Wrap = NO
Size = -
Price = 145.00
QTY = 1
Total = 145.00

2<Billing and Shipping Information>

Wrap note = 

<b>Billing address</b>
 Jennifer  Taylor 
829 Upper Turnpike Rd

Norwich
Vermont&nbsp;05055
United States

<b>Delivery address</b>
Jennifer  Taylor 
829 Upper Turnpike Rd

Norwich
Vermont05055
United States

Fedex (1 - 2 days)

SUB total= 145.00

Delivery= 30.00

<b>TOTAL= 145.00</b>

