1<Order Number - <b>4000047318</b>>


Order Date - 2018-11-30 23:29:23
Order Status - 1 - confirmed and paid


2<Products>

<b>SHANORE</b> - Claddagh Necklace Embellished With Swarovski Crystals  (P/N - SW1 )
Gift Wrap = NO
Size = -
Price = 97.00
QTY = 1
Total = 97.00

2<Billing and Shipping Information>

Wrap note = 

<b>Billing address</b>
 David Fitzhugh
32736 Downing Road

Delmar
MD&nbsp;21875
United States

<b>Delivery address</b>
David Fitzhugh
32736 Downing Road

Delmar
MD21875
United States

Registered Post (6 - 10 days)

SUB total= 97.00

Delivery= 0.00

<b>TOTAL= 97.00</b>

