1<Order Number - <b>4000047397</b>>


Order Date - 2018-12-03 23:55:22
Order Status - 1 - confirmed and paid


2<Products>

<b>TARA'S DIARY</b> - Celtic Heart With Rose Gold Knot Work Encrusted With Swarovski Crystal  (P/N - SW58)
Gift Wrap = NO
Size = -
Price = 207.00
QTY = 1
Total = 207.00

2<Billing and Shipping Information>

Wrap note = 

<b>Billing address</b>
 Duncan Stevenson
7321 91st Ave. Ct. SW

Lakewood
WA&nbsp;98498
United States

<b>Delivery address</b>
Duncan Stevenson
7321 91st Ave. Ct. SW

Lakewood
WA98498
United States

Registered Post (6 - 10 days)

SUB total= 207.00

Delivery= 0.00

<b>TOTAL= 207.00</b>

