1<Order Number - <b>4000047402</b>>


Order Date - 2018-12-04 01:21:20
Order Status - 1 - confirmed and paid


2<Products>

<b>SHANORE</b> - Trinity Knot Sterling Silver Ring  (P/N - SL99)
Gift Wrap = NO
Size = 7
Price = 57.00
QTY = 1
Total = 57.00

2<Billing and Shipping Information>

Wrap note = 

<b>Billing address</b>
 Edith  Marsiglio 
6571 Inland Shores Drive

Mentor
Ohio&nbsp;44060
United States

<b>Delivery address</b>
Edith  Marsiglio 
6571 Inland Shores Drive

Mentor
Ohio44060
United States

Registered Post (6 - 10 days)

SUB total= 57.00

Delivery= 0.00

<b>TOTAL= 57.00</b>

