1<Order Number - <b>4000047458</b>>


Order Date - 2018-12-06 01:46:44
Order Status - 1 - confirmed and paid


2<Products>

<b>TARA'S DIARY</b> - Celtic Trinty Knot Bead Encrusted With Swarovski Crystals  (P/N - TD223)
Gift Wrap = NO
Size = -
Price = 58.00
QTY = 1
Total = 58.00

<b>SHANORE</b> - Trinity Earrings Adorned With Swarovski Crystals (P/N - SW43)
Gift Wrap = NO
Size = -
Price = 80.00
QTY = 1
Total = 80.00

2<Billing and Shipping Information>

Wrap note = 

<b>Billing address</b>
 rhonda duffy
2470 Flippen Road

Stockbridge
GA&nbsp;30281
United States

<b>Delivery address</b>
rhonda duffy
2470 Flippen Road

Stockbridge
GA30281
United States

Registered Post (6 - 10 days)

SUB total= 138.00

Delivery= 0.00

<b>TOTAL= 80.00</b>

