1<Order Number - <b>4000047480</b>>


Order Date - 2018-12-06 15:44:57
Order Status - 1 - confirmed and paid


2<Products>

<b>SHANORE</b> - Silver Celtic Knot Climber Earrings  (P/N - SW79)
Gift Wrap = NO
Size = -
Price = 62.00
QTY = 1
Total = 62.00

2<Billing and Shipping Information>

Wrap note = 

<b>Billing address</b>
 Mark Sarault
804 116th Ave SE

Lake stevens
Washington&nbsp;98258
United States

<b>Delivery address</b>
Mark Sarault
804 116th Ave SE

Lake stevens
Washington98258
United States

Registered Post (6 - 10 days)

SUB total= 62.00

Delivery= 0.00

<b>TOTAL= 62.00</b>

