1<Order Number - <b>4000047615</b>>


Order Date - 2018-12-10 17:50:14
Order Status - 1 - confirmed and paid


2<Products>

<b>SHANORE</b> - Claddagh Birthstone Necklace March  (P/N - SP91AQ)
Gift Wrap = NO
Size = -
Price = 77.00
QTY = 1
Total = 77.00

2<Billing and Shipping Information>

Wrap note = Finance, 1st Floor

<b>Billing address</b>
 Alan O&#39;Connor
369 Dupont Street

Philadelphia
PA&nbsp;19128
United States

<b>Delivery address</b>
Alan O&#39;Connor
Finance, 2525 Pennsylvania Ave. 

Philadelphia
PA19130
United States

Registered Post (6 - 10 days)

SUB total= 77.00

Delivery= 0.00

<b>TOTAL= 77.00</b>

