1<Order Number - <b>4000047614</b>>


Order Date - 2018-12-10 17:46:52
Order Status - 1 - confirmed and paid


2<Products>

<b>SHANORE</b> - Silver Tree Of Life Trinity Medallion Necklace (Medium Size) (P/N - SP2107)
Gift Wrap = NO
Size = -
Price = 122.00
QTY = 1
Total = 122.00

2<Billing and Shipping Information>

Wrap note = 

<b>Billing address</b>
 Nicole Such
42 Ledgewood Drive

Rochester
New York &nbsp;14615
United States

<b>Delivery address</b>
Nicole Such
42 Ledgewood Drive

Rochester
New York 14615
United States

Registered Post (6 - 10 days)

SUB total= 122.00

Delivery= 0.00

<b>TOTAL= 122.00</b>

