1<Order Number - <b>4000047654</b>>


Order Date - 2018-12-11 19:07:11
Order Status - 1 - confirmed and paid


2<Products>

<b>SHANORE</b> - Tree of Life Trinity Knot Silver Ring  (P/N - SD18)
Gift Wrap = NO
Size = 9
Price = 110.00
QTY = 1
Total = 110.00

<b>SHANORE</b> - Celtic Silver Pearl Earrings (P/N - SECP1)
Gift Wrap = NO
Size = -
Price = 62.00
QTY = 1
Total = 62.00

2<Billing and Shipping Information>

Wrap note = 

<b>Billing address</b>
 Trever Magee
604 Valeria Dr

Layton
Utah&nbsp;84041
United States

<b>Delivery address</b>
Trever Magee
1213 Valhalla Dr

Clearfield 
Utah84015
United States

Registered Post (6 - 10 days)

SUB total= 172.00

Delivery= 0.00

<b>TOTAL= 62.00</b>

