1<Order Number - <b>4000047671</b>>


Order Date - 2018-12-12 02:29:58
Order Status - 1 - confirmed and paid


2<Products>

<b>SHANORE</b> - Tree Of Life Silver Necklace (P/N - SP2102CZ)
Gift Wrap = NO
Size = -
Price = 77.00
QTY = 1
Total = 77.00

2<Billing and Shipping Information>

Wrap note = 

<b>Billing address</b>
 Rachel Nowak
106 Denali St

Inman
SC&nbsp;29349
United States

<b>Delivery address</b>
Rachel Nowak
106 Denali St

Inman
SC29349
United States

Registered Post (6 - 10 days)

SUB total= 77.00

Delivery= 0.00

<b>TOTAL= 77.00</b>

