1<Order Number - <b>4000047714</b>>


Order Date - 2018-12-14 02:05:27
Order Status - 1 - confirmed and paid


2<Products>

<b>SHANORE</b> - Celtic Silver Pearl Necklace (P/N - SPCP1)
Gift Wrap = NO
Size = -
Price = 65.00
QTY = 1
Total = 65.00

2<Billing and Shipping Information>

Wrap note = 

<b>Billing address</b>
 Robert Hosey
5757 Bermuda Drive

Walbridge
Ohio&nbsp;43465
United States

<b>Delivery address</b>
Robert Hosey
5757 Bermuda Drive

Walbridge
Ohio43465
United States

Fedex (1 - 2 days)

SUB total= 65.00

Delivery= 30.00

<b>TOTAL= 65.00</b>

