1<Order Number - <b>4000047738</b>>


Order Date - 2018-12-14 18:37:47
Order Status - 2 - dispatched / resolved


2<Products>

<b>SHANORE</b> - Trinity Knot Sterling Silver Ring  (P/N - SL99)
Gift Wrap = NO
Size = 5.5
Price = 57.00
QTY = 1
Total = 57.00

2<Billing and Shipping Information>

Wrap note = 

<b>Billing address</b>
 Raymond Rowan
555 Gardenia Court 

Benicia 
CA&nbsp;94510
United States

<b>Delivery address</b>
Raymond Rowan
555 Gardenia Court 

Benicia 
CA94510
United States

Registered Post (6 - 10 days)

SUB total= 57.00

Delivery= 0.00

<b>TOTAL= 57.00</b>

