1<Order Number - <b>4000047766</b>>


Order Date - 2018-12-15 21:42:16
Order Status - 1 - confirmed and paid


2<Products>

<b>SHANORE</b> - Celtic Trinity Stone set Silver Earrings (P/N - SE2017GR)
Gift Wrap = NO
Size = -
Price = 64.00
QTY = 1
Total = 64.00

<b>SHANORE</b> - Claddagh Stud Earrings Adorned With Swarovski Crystals (P/N - SW47)
Gift Wrap = NO
Size = -
Price = 62.00
QTY = 1
Total = 62.00

<b>SHANORE</b> - Celtic Wave Claddagh Earrings (P/N - SE2046)
Gift Wrap = NO
Size = -
Price = 95.00
QTY = 1
Total = 95.00

2<Billing and Shipping Information>

Wrap note = 

<b>Billing address</b>
 A Thomas Pepe
118 THORN HOLLOW ROAD

CHESHIRE
CT&nbsp;06410-2961
United States

<b>Delivery address</b>
A Thomas Pepe
118 THORN HOLLOW ROAD

CHESHIRE
CT06410-2961
United States

Registered Post (6 - 10 days)

SUB total= 221.00

Delivery= 0.00

<b>TOTAL= 95.00</b>

