1<Order Number - <b>4000047793</b>>


Order Date - 2018-12-16 23:27:42
Order Status - 1 - confirmed and paid


2<Products>

<b>SHANORE</b> - Silver Initial A Adorned with White Swarovski Crystal  (P/N - SW112)
Gift Wrap = NO
Size = -
Price = 102.00
QTY = 1
Total = 102.00

2<Billing and Shipping Information>

Wrap note = 

<b>Billing address</b>
 Kurt Kuppert 
974 White Oak Rd

Fredericksburg 
VA&nbsp;22405
United States

<b>Delivery address</b>
Kurt Kuppert 
974 White Oak Rd

Fredericksburg 
VA22405
United States

Registered Post (6 - 10 days)

SUB total= 102.00

Delivery= 0.00

<b>TOTAL= 102.00</b>

