1<Order Number - <b>4000047850</b>>


Order Date - 2018-12-18 15:49:41
Order Status - 1 - confirmed and paid


2<Products>

<b>SHANORE</b> - Gent Silver Celtic Knot Wedding Ring (P/N - SD11)
Gift Wrap = NO
Size = 12
Price = 132.00
QTY = 1
Total = 132.00

2<Billing and Shipping Information>

Wrap note = 

<b>Billing address</b>
 Nora  Snodgrass 
376 Pristine Path 

Blacklick 
Ohio &nbsp;43004
United States

<b>Delivery address</b>
Nora  Snodgrass 
376 Pristine Path 

Blacklick 
Ohio 43004
United States

Registered Post (6 - 10 days)

SUB total= 132.00

Delivery= 0.00

<b>TOTAL= 132.00</b>

