1<Order Number - <b>4000047905</b>>


Order Date - 2018-12-20 23:29:55
Order Status - 1 - confirmed and paid


2<Products>

<b>SHANORE</b> - Claddagh January Birthstone Ring (P/N - SL90G)
Gift Wrap = NO
Size = 7
Price = 77.00
QTY = 1
Total = 77.00

2<Billing and Shipping Information>

Wrap note = 

<b>Billing address</b>
 Wendy Romrell-Dean
48181 Kim circle 

Brandon
SD&nbsp;57005
United States

<b>Delivery address</b>
Wendy Romrell-Dean
48181 Kim circle 

Brandon
SD57005
United States

Registered Post (6 - 10 days)

SUB total= 77.00

Delivery= 0.00

<b>TOTAL= 77.00</b>

