1<Order Number - <b>4000048043</b>>


Order Date - 2019-01-04 15:15:12
Order Status - 1 - confirmed and paid


2<Products>

<b>SHANORE</b> - Gent Silver Celtic Knot Wedding Ring (P/N - SD11)
Gift Wrap = NO
Size = 9.5
Price = 132.00
QTY = 1
Total = 132.00

<b>SHANORE</b> - Ladies Silver Celtic knot Wedding Ring (P/N - SD10)
Gift Wrap = NO
Size = 7
Price = 105.00
QTY = 1
Total = 105.00

2<Billing and Shipping Information>

Wrap note = 

<b>Billing address</b>
 Anette Berg
Hyldekrogen 7

Allinge
Denmark&nbsp;3770
Denmark

<b>Delivery address</b>
Anette Berg
Hyldekrogen 7

Allinge
Denmark3770
Denmark

Registered Post (6 - 10 days)

SUB total= 237.00

Delivery= 0.00

<b>TOTAL= 105.00</b>

