1<Order Number - <b>4000048086</b>>


Order Date - 2019-01-09 04:43:14
Order Status - 1 - confirmed and paid


2<Products>

<b>SHANORE</b> - Gents Claddagh Comfort fit Silver Ring (P/N - SG92)
Gift Wrap = NO
Size = 12
Price = 125.00
QTY = 1
Total = 125.00

2<Billing and Shipping Information>

Wrap note = 

<b>Billing address</b>
 Theodore Yeomelakis
3 Spruce Street

Stoneham
MA&nbsp;02180
United States

<b>Delivery address</b>
Theodore Yeomelakis
3 Spruce Street

Stoneham
MA02180
United States

Registered Post (6 - 10 days)

SUB total= 125.00

Delivery= 0.00

<b>TOTAL= 125.00</b>

