1<Order Number - <b>4000048123</b>>


Order Date - 2019-01-11 15:10:08
Order Status - 1 - confirmed and paid


2<Products>

<b>SHANORE</b> - Celtic Trinity Knot Pearl Silver Ring (P/N - SRCP1)
Gift Wrap = NO
Size = 6
Price = 72.00
QTY = 1
Total = 72.00

2<Billing and Shipping Information>

Wrap note = 

<b>Billing address</b>
 Bailey Bice
633 T st

Seymour 
Tennessee &nbsp;37865
United States

<b>Delivery address</b>
Bailey Bice
633 T st

Seymour 
Tennessee 37865
United States

Fedex (1 - 2 days)

SUB total= 72.00

Delivery= 30.00

<b>TOTAL= 72.00</b>

