1<Order Number - <b>4000048200</b>>


Order Date - 2019-01-19 18:31:32
Order Status - 1 - confirmed and paid


2<Products>

<b>TARA'S DIARY</b> - Heart Trinity Bead Encrusted With White Swarovski Crystals   (P/N - TD232)
Gift Wrap = NO
Size = -
Price = 53.00
QTY = 1
Total = 53.00

2<Billing and Shipping Information>

Wrap note = 

<b>Billing address</b>
 Connie  Harvey 
1680 Lindberg Road 

Bethlehem 
Pennsylvania &nbsp;18020
United States

<b>Delivery address</b>
Connie  Harvey 
1680 Lindberg Road 

Bethlehem 
Pennsylvania 18020
United States

Registered Post (6 - 10 days)

SUB total= 53.00

Delivery= 0.00

<b>TOTAL= 53.00</b>

