1<Order Number - <b>4000048383</b>>


Order Date - 2019-02-03 20:12:36
Order Status - 1 - confirmed and paid


2<Products>

<b>TARA'S DIARY</b> - Green Enamel Shamrock Irish Charm (P/N - TC7)
Gift Wrap = NO
Size = -
Price = 51.00
QTY = 1
Total = 51.00

2<Billing and Shipping Information>

Wrap note = 

<b>Billing address</b>
 Michael Brennan
700 Cherry Tree Rd. Apt. B10

Aston
Pennsylvania&nbsp;19014
United States

<b>Delivery address</b>
Michael Brennan
700 Cherry Tree Rd. Apt. B10

Aston
Pennsylvania19014
United States

Registered Post (6 - 10 days)

SUB total= 51.00

Delivery= 0.00

<b>TOTAL= 51.00</b>

