1<Order Number - <b>4000048485</b>>


Order Date - 2019-02-13 13:20:18
Order Status - 2 - dispatched / resolved


2<Products>

<b>SHANORE</b> - Gold 10K Claddagh Pendant (P/N - 10P634)
Gift Wrap = NO
Size = -
Price = 137.00
QTY = 1
Total = 137.00

2<Billing and Shipping Information>

Wrap note = 

<b>Billing address</b>
 Luis Sáez Comet
Cesáreo Alierta 8, Esc Izda, 8° Dcha

Zaragoza
Zaragoza&nbsp;50008
Spain

<b>Delivery address</b>
Luis Sáez Comet
Cesáreo Alierta 8, Esc Izda, 8° Dcha

Zaragoza
Zaragoza50008
Spain

Fedex (1 - 2 days)

SUB total= 137.00

Delivery= 30.00

<b>TOTAL= 137.00</b>

