1<Order Number - <b>4000048558</b>>


Order Date - 2019-02-20 21:41:10
Order Status - 1 - confirmed and paid


2<Products>

<b>SHANORE</b> - Silver Initial P Adorned with White Swarovski Crystal  (P/N - SW128)
Gift Wrap = NO
Size = -
Price = 102.00
QTY = 1
Total = 102.00

<b>SHANORE</b> - Silver Initial M Adorned with White Swarovski Crystal  (P/N - SW117)
Gift Wrap = NO
Size = -
Price = 102.00
QTY = 1
Total = 102.00

<b>SHANORE</b> - Silver Initial L Adorned with White Swarovski Crystal  (P/N - SW115)
Gift Wrap = NO
Size = -
Price = 102.00
QTY = 1
Total = 102.00

2<Billing and Shipping Information>

Wrap note = 

<b>Billing address</b>
 James Concagh
12318 Crystal View Lane

St Louis
MO&nbsp;63131
United States

<b>Delivery address</b>
Seamus Concagh
10411 Clayton Road Ste 311

Frontenac
Mo63131
United States

Registered Post (6 - 10 days)

SUB total= 306.00

Delivery= 0.00

<b>TOTAL= 102.00</b>

