1<Order Number - <b>4000048604</b>>


Order Date - 2019-02-26 03:02:20
Order Status - 1 - confirmed and paid


2<Products>

<b>SHANORE</b> - Claddagh Heart Set Ring (P/N - SL75GRCZ)
Gift Wrap = NO
Size = 7.5
Price = 63.00
QTY = 1
Total = 63.00

2<Billing and Shipping Information>

Wrap note = 

<b>Billing address</b>
 Michael Pozzuolo
950 Kenwood Road

Drexel Hill
PA&nbsp;19026
United States

<b>Delivery address</b>
Michael Pozzuolo
950 Kenwood Road

Drexel Hill
PA19026
United States

Registered Post (6 - 10 days)

SUB total= 63.00

Delivery= 0.00

<b>TOTAL= 63.00</b>

