1<Order Number - <b>4000048623</b>>


Order Date - 2019-02-28 14:06:32
Order Status - 1 - confirmed and paid


2<Products>

<b>SHANORE</b> - Shamrock Necklace Encrusted With Swarovski Crystals  (P/N - SW12)
Gift Wrap = NO
Size = -
Price = 97.00
QTY = 1
Total = 97.00

2<Billing and Shipping Information>

Wrap note = 

<b>Billing address</b>
 Paul Pattee
9135 GENERAL CT

PLYMOUTH
MI&nbsp;48170-462
United States

<b>Delivery address</b>
Paul Pattee
9135 GENERAL CT

PLYMOUTH
MI48170-462
United States

Registered Post (6 - 10 days)

SUB total= 97.00

Delivery= 0.00

<b>TOTAL= 97.00</b>

