1<Order Number - <b>4000048767</b>>


Order Date - 2019-03-11 19:06:45
Order Status - 1 - confirmed and paid


2<Products>

<b>SHANORE</b> - Celtic Stone Set Trinity Knot Silver Cross (P/N - SF31)
Gift Wrap = NO
Size = -
Price = 77.00
QTY = 1
Total = 77.00

2<Billing and Shipping Information>

Wrap note = 

<b>Billing address</b>
 Deborah Morris
503 springtown way, 219

San marcos
Tx&nbsp;78666
United States

<b>Delivery address</b>
Deborah Morris
503 springtown way, 219

San marcos
Tx78666
United States

Registered Post (6 - 10 days)

SUB total= 77.00

Delivery= 0.00

<b>TOTAL= 77.00</b>

