1<Order Number - <b>4000048893</b>>


Order Date - 2019-03-23 18:16:33
Order Status - 1 - confirmed and paid


2<Products>

<b>SHANORE</b> -  Silver Trinity Diamond Enamel Cross Charm (P/N - LM14)
Gift Wrap = NO
Size = -
Price = 50.00
QTY = 1
Total = 50.00

2<Billing and Shipping Information>

Wrap note = 

<b>Billing address</b>
 Mark Adams
9913 Windridge Drive 

Fredericksburg 
VA&nbsp;22407
United States

<b>Delivery address</b>
Mark Adams
9913 Windridge Drive 

Fredericksburg 
VA22407
United States

Registered Post (6 - 10 days)

SUB total= 50.00

Delivery= 0.00

<b>TOTAL= 50.00</b>

