1<Order Number - <b>4000048909</b>>


Order Date - 2019-03-25 02:00:45
Order Status - 1 - confirmed and paid


2<Products>

<b>SHANORE</b> - Celtic Pearl Earrings Adorned By Swarovski Crystals  (P/N - SW25)
Gift Wrap = NO
Size = -
Price = 107.00
QTY = 1
Total = 107.00

2<Billing and Shipping Information>

Wrap note = 

<b>Billing address</b>
 Dana Ivanco
201 Caruso Dr

Monroeville
PA&nbsp;15146
United States

<b>Delivery address</b>
Dana Ivanco
201 Caruso Dr

Monroeville
PA15146
United States

Registered Post (6 - 10 days)

SUB total= 107.00

Delivery= 0.00

<b>TOTAL= 107.00</b>

