1<Order Number - <b>4000048936</b>>


Order Date - 2019-03-26 15:11:03
Order Status - 1 - confirmed and paid


2<Products>

<b>TARA'S DIARY</b> - Silver Enamel Shamrock Dog Bead  (P/N - TD228)
Gift Wrap = NO
Size = -
Price = 47.00
QTY = 1
Total = 47.00

<b>SHANORE</b> - Silver Heart Shape Trinity knot Stone Set Bead  (P/N - TD209)
Gift Wrap = NO
Size = -
Price = 60.00
QTY = 1
Total = 60.00

<b>TARA'S DIARY</b> - Claddagh Round Bead Encrusted With Swarovski Crystal  (P/N - TD608)
Gift Wrap = NO
Size = -
Price = 69.00
QTY = 1
Total = 69.00

2<Billing and Shipping Information>

Wrap note = 

<b>Billing address</b>
 Sherry Morelli
3018 Irwindell Blvd

Dallas
TX&nbsp;75211
United States

<b>Delivery address</b>
Sherry Morelli
3018 Irwindell Blvd

Dallas
TX75211
United States

Registered Post (6 - 10 days)

SUB total= 176.00

Delivery= 0.00

<b>TOTAL= 69.00</b>

