1<Order Number - <b>4000049090</b>>


Order Date - 2019-04-10 10:52:23
Order Status - 1 - confirmed and paid


2<Products>

<b>SHANORE</b> - 3 Stone Shamrock Mothers Pendant (P/N - MP3-S)
Gift Wrap = YES
Size = -
Price = 157.00
QTY = 1
Total = 157.00

2<Billing and Shipping Information>

Wrap note = 

<b>Billing address</b>
 Edward  Vocell 
3 Johnson Street 

Boscawen
NH&nbsp;03303
United States

<b>Delivery address</b>
Edward  Vocell 
3 Johnson Street 

Boscawen
NH03303
United States

Registered Post (6 - 10 days)

SUB total= 157.00

Delivery= 0.00

<b>TOTAL= 157.00</b>

