1<Order Number - <b>4000049139</b>>


Order Date - 2019-04-15 01:50:12
Order Status - 1 - confirmed and paid


2<Products>

<b>SHANORE</b> - Claddagh Birthstone Ring April (P/N - SL90CZ)
Gift Wrap = NO
Size = 7
Price = 77.00
QTY = 1
Total = 77.00

2<Billing and Shipping Information>

Wrap note = None

<b>Billing address</b>
 Steve Kaiser 
829 Sprague Street 

Baldwin
New York&nbsp;11510
United States

<b>Delivery address</b>
Steve Kaiser 
829 Sprague Street 

Baldwin
New York11510
United States

Registered Post (6 - 10 days)

SUB total= 77.00

Delivery= 0.00

<b>TOTAL= 77.00</b>

