1<Order Number - <b>4000049156</b>>


Order Date - 2019-04-16 19:08:12
Order Status - 1 - confirmed and paid


2<Products>

<b>SHANORE</b> - Celtic Trinity knot Necklace (P/N - SP2053)
Gift Wrap = NO
Size = -
Price = 79.00
QTY = 1
Total = 79.00

2<Billing and Shipping Information>

Wrap note = 

<b>Billing address</b>
 Stacy Martineau
3525 CARDINAL RIDGE DR

GREENSBORO
NC&nbsp;27410
United States

<b>Delivery address</b>
Stacy Martineau
3525 CARDINAL RIDGE DR

GREENSBORO
NC27410
United States

Registered Post (6 - 10 days)

SUB total= 79.00

Delivery= 0.00

<b>TOTAL= 79.00</b>

