1<Order Number - <b>4000049375</b>>


Order Date - 2019-05-07 14:21:36
Order Status - 1 - confirmed and paid


2<Products>

<b>SHANORE</b> - Silver Pear Shaped Earrings Encrusted With Swarovski Crystals (P/N - ST40)
Gift Wrap = NO
Size = -
Price = 72.00
QTY = 1
Total = 72.00

2<Billing and Shipping Information>

Wrap note = 

<b>Billing address</b>
 Courtney MacNeil
23 Old Stagecoach Road, Apt. 10

Epping
NH&nbsp;03042
United States

<b>Delivery address</b>
Courtney MacNeil
23 Old Stagecoach Road, Apt. 10

Epping
NH03042
United States

Registered Post (6 - 10 days)

SUB total= 72.00

Delivery= 0.00

<b>TOTAL= 72.00</b>

