1<Order Number - <b>4000049392</b>>


Order Date - 2019-05-08 21:01:57
Order Status - 1 - confirmed and paid


2<Products>

<b>SHANORE</b> - Celtic Trinity Knot Necklace (P/N - SP2033)
Gift Wrap = NO
Size = -
Price = 90.00
QTY = 1
Total = 90.00

2<Billing and Shipping Information>

Wrap note = 

<b>Billing address</b>
 Roseann Meinholz
2427 Worthington Drive

Aurora Illinois
IL&nbsp;60506
United States

<b>Delivery address</b>
Roseann Meinholz
2427 Worthington Drive

Aurora Illinois
IL60506
United States

Registered Post (6 - 10 days)

SUB total= 90.00

Delivery= 0.00

<b>TOTAL= 90.00</b>

