1<Order Number - <b>4000049399</b>>


Order Date - 2019-05-09 14:34:12
Order Status - 1 - confirmed and paid


2<Products>

<b>SHANORE</b> - Claddagh Birthstone Ring March (P/N - SL90AQ)
Gift Wrap = NO
Size = 9
Price = 77.00
QTY = 1
Total = 77.00

2<Billing and Shipping Information>

Wrap note = 

<b>Billing address</b>
 George Wentz
642 Woodglen Rd

Glen Gardner
NJ&nbsp;08826
United States

<b>Delivery address</b>
George Wentz
642 Woodglen Rd

Glen Gardner
NJ08826
United States

Fedex (1 - 2 days)

SUB total= 77.00

Delivery= 30.00

<b>TOTAL= 77.00</b>

