1<Order Number - <b>4000049464</b>>


Order Date - 2019-05-15 13:06:56
Order Status - 1 - confirmed and paid


2<Products>

<b>SHANORE</b> - Sterling Silver Claddagh Stud Earrings (P/N - SE2119)
Gift Wrap = NO
Size = -
Price = 57.00
QTY = 1
Total = 57.00

<b>SHANORE</b> - Sterling Silver Claddagh Stud Earrings (P/N - SE2119)
Gift Wrap = NO
Size = -
Price = 57.00
QTY = 1
Total = 57.00

2<Billing and Shipping Information>

Wrap note = 

<b>Billing address</b>
 Ellen Hendrix
501 Baldwin Street

Modesto
CA&nbsp;95350
United States

<b>Delivery address</b>
Ellen Hendrix
100 Poplar Avenue

Modesto
CA95355
United States

Registered Post (6 - 10 days)

SUB total= 114.00

Delivery= 0.00

<b>TOTAL= 57.00</b>

