1<Order Number - <b>4000049528</b>>


Order Date - 2019-05-23 15:50:31
Order Status - 1 - confirmed and paid


2<Products>

<b>SHANORE</b> - Claddagh Pave Set Ladies Ring (P/N - SL97)
Gift Wrap = NO
Size = 6.5
Price = 80.00
QTY = 1
Total = 80.00

2<Billing and Shipping Information>

Wrap note = 

<b>Billing address</b>
 Jack Allenson
43 Aberdeen Ave

Warwick
Rhode Island&nbsp;02888
United States

<b>Delivery address</b>
Jack Allenson
43 Aberdeen Ave

Warwick
Rhode Island02888
United States

Registered Post (6 - 10 days)

SUB total= 80.00

Delivery= 0.00

<b>TOTAL= 80.00</b>

