1<Order Number - <b>4000049551</b>>


Order Date - 2019-05-25 18:22:26
Order Status - 1 - confirmed and paid


2<Products>

<b>SHANORE</b> - Claddagh Birthstone Ring June: Alexandrite (P/N - SL90AX)
Gift Wrap = NO
Size = 6
Price = 77.00
QTY = 1
Total = 77.00

2<Billing and Shipping Information>

Wrap note = 

<b>Billing address</b>
 Gary Farmer
1641 Dawson Ave. W.

Big Stone Gap
VA&nbsp;24219
United States

<b>Delivery address</b>
Gary Farmer
1641 Dawson Ave. W.

Big Stone Gap
VA24219
United States

Registered Post (6 - 10 days)

SUB total= 77.00

Delivery= 0.00

<b>TOTAL= 77.00</b>

