1<Order Number - <b>4000049775</b>>


Order Date - 2019-06-21 00:17:31
Order Status - 2 - dispatched / resolved


2<Products>

<b>TARA'S DIARY</b> - Giants Causeway Bead (P/N - TD168)
Gift Wrap = NO
Size = -
Price = 61.00
QTY = 1
Total = 61.00

2<Billing and Shipping Information>

Wrap note = 

<b>Billing address</b>
 Barbara Hughey
330 Beacon St Apt C35

Boston
MA&nbsp;02116
United States

<b>Delivery address</b>
Barbara Hughey
330 Beacon St Apt C35

Boston
MA02116
United States

Registered Post (6 - 10 days)

SUB total= 61.00

Delivery= 0.00

<b>TOTAL= 61.00</b>

