1<Order Number - <b>4000049808</b>>


Order Date - 2019-06-24 19:08:25
Order Status - 1 - confirmed and paid


2<Products>

<b>TARA'S DIARY</b> - Scottish Enamel Silver Bead (P/N - TD50)
Gift Wrap = NO
Size = -
Price = 77.00
QTY = 1
Total = 77.00

2<Billing and Shipping Information>

Wrap note = 

<b>Billing address</b>
 Betty Meyer
3129 9th Rd N

ARLINGTON
VA&nbsp;22201
United States

<b>Delivery address</b>
Betty Meyer
3129 9th Rd N

ARLINGTON
VA22201
United States

Registered Post (6 - 10 days)

SUB total= 77.00

Delivery= 0.00

<b>TOTAL= 77.00</b>

