1<Order Number - <b>4000049834</b>>


Order Date - 2019-06-29 00:58:56
Order Status - 1 - confirmed and paid


2<Products>

<b>SHANORE</b> - Claddagh Birthstone Ring July (P/N - SL90RB)
Gift Wrap = NO
Size = 5.5
Price = 77.00
QTY = 1
Total = 77.00

2<Billing and Shipping Information>

Wrap note = 

<b>Billing address</b>
 Jaime Floyd
120 Veterans Blvd Box 324

Ramona
oklahoma&nbsp;74061
United States

<b>Delivery address</b>
Jaime Floyd
120 Veterans Blvd Box 324

Ramona
oklahoma74061
United States

Registered Post (6 - 10 days)

SUB total= 77.00

Delivery= 0.00

<b>TOTAL= 77.00</b>

