1<Order Number - <b>4000049975</b>>


Order Date - 2019-07-12 20:34:41
Order Status - 1 - confirmed and paid


2<Products>

<b>SHANORE</b> - Ladies Silver Claddagh Celtic wedding Ring  (P/N - SD8)
Gift Wrap = NO
Size = 7
Price = 105.00
QTY = 1
Total = 105.00

2<Billing and Shipping Information>

Wrap note = 

<b>Billing address</b>
 April van Jaarsveldt
1219 Frazier Drive

Dalton
Georgia&nbsp;30721
United States

<b>Delivery address</b>
April van Jaarsveldt
1219 Frazier Drive

Dalton
Georgia30721
United States

Registered Post (6 - 10 days)

SUB total= 105.00

Delivery= 0.00

<b>TOTAL= 105.00</b>

