1<Order Number - <b>4000050052</b>>


Order Date - 2019-07-22 15:05:50
Order Status - 1 - confirmed and paid


2<Products>

<b>SHANORE</b> - 4 Stone Trinity Knot Mothers Pendant  (P/N - MP4-T)
Gift Wrap = YES
Size = -
Price = 157.00
QTY = 1
Total = 157.00

2<Billing and Shipping Information>

Wrap note = 

<b>Billing address</b>
 PAUL DOHERTY
71 SMITH STREET

HOWELL
NJ&nbsp;07731
United States

<b>Delivery address</b>
PAUL DOHERTY
71 SMITH STREET

HOWELL
NJ07731
United States

Registered Post (6 - 10 days)

SUB total= 157.00

Delivery= 0.00

<b>TOTAL= 157.00</b>

