1<Order Number - <b>4000050069</b>>


Order Date - 2019-07-24 13:24:14
Order Status - 1 - confirmed and paid


2<Products>

<b>SHANORE</b> - Claddagh Heart Set Ring (P/N - SL75GRCZ)
Gift Wrap = NO
Size = 6
Price = 63.00
QTY = 1
Total = 63.00

2<Billing and Shipping Information>

Wrap note = 

<b>Billing address</b>
 Sarah Davis
72 Colonial Road

Sudbury
Massachusetts&nbsp;01776
United States

<b>Delivery address</b>
Sarah Davis
72 Colonial Road

Sudbury
Massachusetts01776
United States

Registered Post (6 - 10 days)

SUB total= 63.00

Delivery= 0.00

<b>TOTAL= 63.00</b>

