1<Order Number - <b>4000050070</b>>


Order Date - 2019-07-24 13:25:33
Order Status - 1 - confirmed and paid


2<Products>

<b>SHANORE</b> - Silver Claddagh intertwining Design (P/N - SL46)
Gift Wrap = NO
Size = 5.5
Price = 56.00
QTY = 1
Total = 56.00

2<Billing and Shipping Information>

Wrap note = 

<b>Billing address</b>
 Barbara  Fletcher
144 Brown Row

Nanticoke
PA&nbsp;18634
United States

<b>Delivery address</b>
Barbara  Fletcher
144 Brown Row

Nanticoke
PA18634
United States

Registered Post (6 - 10 days)

SUB total= 56.00

Delivery= 0.00

<b>TOTAL= 56.00</b>

