1<Order Number - <b>4000050151</b>>


Order Date - 2019-08-02 14:40:42
Order Status - 1 - confirmed and paid


2<Products>

<b>SHANORE</b> - Round Halo Silver Earrings Adorned With Aquamarine and White Swarovski Crystals   (P/N - ST38)
Gift Wrap = NO
Size = -
Price = 75.00
QTY = 1
Total = 75.00

2<Billing and Shipping Information>

Wrap note = 

<b>Billing address</b>
 Sharon Mullaney
3704 Mt. Augustus

San Diego
Ca&nbsp;92111
United States

<b>Delivery address</b>
Sharon Mullaney
3704 Mt. Augustus

San Diego
Ca92111
United States

Registered Post (6 - 10 days)

SUB total= 75.00

Delivery= 0.00

<b>TOTAL= 75.00</b>

