1<Order Number - <b>4000050316</b>>


Order Date - 2019-08-18 18:44:42
Order Status - 1 - confirmed and paid


2<Products>

<b>SHANORE</b> - Trinity Knot Stud Earrings Adorned With Swarovski Crystals (P/N - SW42)
Gift Wrap = NO
Size = -
Price = 72.00
QTY = 1
Total = 72.00

2<Billing and Shipping Information>

Wrap note = 

<b>Billing address</b>
 Kathleen  Stawiarski 
3S671 Breme Dr E

Warrenville 
IL&nbsp;60555
United States

<b>Delivery address</b>
Kathleen  Stawiarski 
3S671 Breme Dr E

Warrenville 
IL60555
United States

Registered Post (6 - 10 days)

SUB total= 72.00

Delivery= 0.00

<b>TOTAL= 72.00</b>

