1<Order Number - <b>4000050330</b>>


Order Date - 2019-08-20 02:28:12
Order Status - 1 - confirmed and paid


2<Products>

<b>SHANORE</b> - Trinity Knot Sterling Silver Ring  (P/N - SL99)
Gift Wrap = NO
Size = 8
Price = 57.00
QTY = 1
Total = 57.00

2<Billing and Shipping Information>

Wrap note = 

<b>Billing address</b>
 Paul Slobodzian
120 E. Taylor Street #3071

Phoenix
Arizona&nbsp;85004
United States

<b>Delivery address</b>
Paul Slobodzian
120 E. Taylor Street #3071

Phoenix
Arizona85004
United States

Registered Post (6 - 10 days)

SUB total= 57.00

Delivery= 0.00

<b>TOTAL= 57.00</b>

