1<Order Number - <b>4000050347</b>>


Order Date - 2019-08-21 21:13:27
Order Status - 1 - confirmed and paid


2<Products>

<b>SHANORE</b> - Claddagh, Love, Loyalty, Friendship Silver Ring (P/N - SL1)
Gift Wrap = NO
Size = 5.5
Price = 56.00
QTY = 1
Total = 56.00

2<Billing and Shipping Information>

Wrap note = 

<b>Billing address</b>
 Kristopher  Kehr 
2503 Fairview dr

Forest hill
Md&nbsp;21050
United States

<b>Delivery address</b>
Kristopher  Kehr 
2503 Fairview dr

Forest hill
Md21050
United States

Registered Post (6 - 10 days)

SUB total= 56.00

Delivery= 0.00

<b>TOTAL= 56.00</b>

