1<Order Number - <b>4000050371</b>>


Order Date - 2019-08-25 05:45:18
Order Status - 1 - confirmed and paid


2<Products>

<b>TARA'S DIARY</b> - Silver Tree Of Life Bangle  (P/N - TD243)
Gift Wrap = NO
Size = -
Price = 143.00
QTY = 1
Total = 143.00

2<Billing and Shipping Information>

Wrap note = 

<b>Billing address</b>
 Kenneth Berckmoes
Eeklostraat 31

Lembeke
Oost-Vlaanderen&nbsp;9971
Belgium

<b>Delivery address</b>
Kenneth Berckmoes
Eeklostraat 31

Lembeke
Oost-Vlaanderen9971
Belgium

Registered - DPD (3 days)

SUB total= 143.00

Delivery= 0.00

<b>TOTAL= 143.00</b>

