1<Order Number - <b>4000050456</b>>


Order Date - 2019-09-04 15:22:31
Order Status - 1 - confirmed and paid


2<Products>

<b>SHANORE</b> - Silver Claddagh Bangle Adorned With Swarovski Crystal (P/N - SW71)
Gift Wrap = NO
Size = -
Price = 157.00
QTY = 1
Total = 157.00

2<Billing and Shipping Information>

Wrap note = 

<b>Billing address</b>
 Noreen MC Aleer
2236 Cross Rd

Glenside
PA USA&nbsp;19038
United States

<b>Delivery address</b>
Noreen MC Aleer
2236 Cross Rd

Glenside
PA USA19038
United States

Registered Post (6 - 10 days)

SUB total= 157.00

Delivery= 0.00

<b>TOTAL= 157.00</b>

