1<Order Number - <b>4000050523</b>>


Order Date - 2019-09-09 12:43:52
Order Status - 1 - confirmed and paid


2<Products>

<b>SHANORE</b> - Claddagh, Love, Loyalty, Friendship Silver Ring (P/N - SL1)
Gift Wrap = NO
Size = 5.5
Price = 56.00
QTY = 1
Total = 56.00

2<Billing and Shipping Information>

Wrap note = 

<b>Billing address</b>
 Robin Weaver
11812 Talltree Drive

Plymouth
MI&nbsp;48170
United States

<b>Delivery address</b>
Robin Weaver
11812 Talltree Drive

Plymouth
MI48170
United States

Registered Post (6 - 10 days)

SUB total= 56.00

Delivery= 0.00

<b>TOTAL= 56.00</b>

