1<Order Number - <b>4000050657</b>>


Order Date - 2019-09-25 17:26:29
Order Status - 1 - confirmed and paid


2<Products>

<b>SHANORE</b> - Silver Claddagh intertwining Design (P/N - SL46)
Gift Wrap = NO
Size = 9
Price = 56.00
QTY = 1
Total = 56.00

2<Billing and Shipping Information>

Wrap note = 

<b>Billing address</b>
 Kaitlyn Hebert
4018 W Everett Ave

Spokane
WA&nbsp;99205
United States

<b>Delivery address</b>
Kaitlyn Hebert
4018 W Everett Ave

Spokane
WA99205
United States

Registered Post (6 - 10 days)

SUB total= 56.00

Delivery= 0.00

<b>TOTAL= 56.00</b>

