1<Order Number - <b>4000050667</b>>


Order Date - 2019-09-26 11:54:21
Order Status - 2 - dispatched / resolved


2<Products>

<b>SHANORE</b> - Gold 10K Trinity Knot Stone Set Necklace (P/N - 10P649)
Gift Wrap = YES
Size = -
Price = 229.00
QTY = 1
Total = 229.00

2<Billing and Shipping Information>

Wrap note = BARBARA GATES
c/o
Howard Hall
PO Box 137 Tweed Heads NSW 
Australia 2485

<b>Billing address</b>
 Howard Hall
PO Box 137  

Tweed Heads
New South Wales&nbsp;2485
Australia

<b>Delivery address</b>
Howard Hall
PO Box 137  

Tweed Heads
New South Wales2485
Australia

Fedex (3 - 5 days)

SUB total= 229.00

Delivery= 45.00

<b>TOTAL= 229.00</b>

