1<Order Number - <b>4000050738</b>>


Order Date - 2019-10-03 02:24:04
Order Status - 1 - confirmed and paid


2<Products>

<b>SHANORE</b> - Claddagh Silver CZ Cross with Gold Plate Heart (P/N - SF21)
Gift Wrap = NO
Size = -
Price = 89.00
QTY = 1
Total = 89.00

<b>SHANORE</b> - Claddagh Silver CZ Cross with Gold Plate Heart (P/N - SF21)
Gift Wrap = NO
Size = -
Price = 89.00
QTY = 1
Total = 89.00

<b>SHANORE</b> - Claddagh Silver CZ Cross with Gold Plate Heart (P/N - SF21)
Gift Wrap = NO
Size = -
Price = 89.00
QTY = 1
Total = 89.00

2<Billing and Shipping Information>

Wrap note = 

<b>Billing address</b>
 KAREN HALSAVER
2548 E. DENISE AVE.

Orange
CA&nbsp;92867
United States

<b>Delivery address</b>
KAREN HALSAVER
2548 E. DENISE AVE.

Orange
CA92867
United States

Registered Post (6 - 10 days)

SUB total= 267.00

Delivery= 0.00

<b>TOTAL= 89.00</b>

