1<Order Number - <b>4000050780</b>>


Order Date - 2019-10-06 20:46:53
Order Status - 1 - confirmed and paid


2<Products>

<b>SHANORE</b> - Claddagh, Love, Loyalty, Friendship Silver Ring (P/N - SL1)
Gift Wrap = NO
Size = 7
Price = 42.00
QTY = 1
Total = 42.00

2<Billing and Shipping Information>

Wrap note = 

<b>Billing address</b>
 Sarah Benamou
Résidence Le Faron, O322, 657 Avenue du 1er BIMP

La Garde
PACA&nbsp;83130
France

<b>Delivery address</b>
Sarah Benamou
Résidence Le Faron, O322, 657 Avenue du 1er BIMP

La Garde
PACA83130
France

Registered - DPD (3 days)

SUB total= 42.00

Delivery= 0.00

<b>TOTAL= 42.00</b>

