1<Order Number - <b>4000050965</b>>


Order Date - 2019-10-29 00:16:46
Order Status - 1 - confirmed and paid


2<Products>

<b>SHANORE</b> - Claddagh, Love, Loyalty, Friendship Silver Ring (P/N - SL1)
Gift Wrap = NO
Size = 6
Price = 56.00
QTY = 1
Total = 56.00

2<Billing and Shipping Information>

Wrap note = 

<b>Billing address</b>
 Patrick Murphy
32930, Brier Ct

Livonia
MI&nbsp;48152
United States

<b>Delivery address</b>
Patrick Murphy
32930, Brier Ct

Livonia
MI48152
United States

Registered Post (6 - 10 days)

SUB total= 56.00

Delivery= 0.00

<b>TOTAL= 56.00</b>

