1<Order Number - <b>4000050964</b>>


Order Date - 2019-10-29 00:09:11
Order Status - 1 - confirmed and paid


2<Products>

<b>OCEAN</b> - Silver Pearl Turtle Pendant Adorned With Swarovski White Crystal  (P/N - OC28)
Gift Wrap = NO
Size = -
Price = 175.00
QTY = 1
Total = 175.00

2<Billing and Shipping Information>

Wrap note = 

<b>Billing address</b>
 FANAR GHAZALAH
3511 REGIS DRIVE

ERIE
Pennsylvania&nbsp;16510
United States

<b>Delivery address</b>
FANAR GHAZALAH
3511 REGIS DRIVE

ERIE
Pennsylvania16510
United States

Registered Post (6 - 10 days)

SUB total= 175.00

Delivery= 0.00

<b>TOTAL= 175.00</b>

