1<Order Number - <b>4000051002</b>>


Order Date - 2019-11-01 21:53:07
Order Status - 1 - confirmed and paid


2<Products>

<b>SHANORE</b> - Celtic Trinity knot Necklace (P/N - SP2053)
Gift Wrap = NO
Size = -
Price = 79.00
QTY = 1
Total = 79.00

2<Billing and Shipping Information>

Wrap note = 

<b>Billing address</b>
 Ashley Condon
12802 S. Monitor Ave 

Palos Heights
Illinois &nbsp;60463
United States

<b>Delivery address</b>
Ashley Condon
12802 S. Monitor Ave 

Palos Heights
Illinois 60463
United States

Registered Post (6 - 10 days)

SUB total= 79.00

Delivery= 0.00

<b>TOTAL= 79.00</b>

