1<Order Number - <b>4000051039</b>>


Order Date - 2019-11-04 17:38:42
Order Status - 1 - confirmed and paid


2<Products>

<b>SHANORE</b> - Silver Shamrock Earrings Adorned With Swarovski Crystal (P/N - SW84)
Gift Wrap = NO
Size = -
Price = 77.00
QTY = 1
Total = 77.00

2<Billing and Shipping Information>

Wrap note = 

<b>Billing address</b>
 Thomas Marsden
9526 W Palmetto Ave

Wauwatosa
WI&nbsp;53222
United States

<b>Delivery address</b>
Thomas Marsden
9526 W Palmetto Ave

Wauwatosa
WI53222
United States

Registered Post (6 - 10 days)

SUB total= 77.00

Delivery= 0.00

<b>TOTAL= 77.00</b>

