1<Order Number - <b>4000051078</b>>


Order Date - 2019-11-08 21:29:26
Order Status - 1 - confirmed and paid


2<Products>

<b>SHANORE</b> - Celtic Trinity Knot Necklace Embellished With Swarovski Crystals (P/N - SW41)
Gift Wrap = NO
Size = -
Price = 87.00
QTY = 1
Total = 87.00

2<Billing and Shipping Information>

Wrap note = 

<b>Billing address</b>
 Dana  Moran
5300 Clearbrook Drive

Concord
Ca&nbsp;94521
United States

<b>Delivery address</b>
Dana  Moran
5300 Clearbrook Drive

Concord
Ca94521
United States

Registered Post (6 - 10 days)

SUB total= 87.00

Delivery= 0.00

<b>TOTAL= 87.00</b>

