1<Order Number - <b>4000051323</b>>


Order Date - 2019-11-22 00:52:50
Order Status - 1 - confirmed and paid


2<Products>

<b>SHANORE</b> - Celtic Silver Pearl Earrings (P/N - SECP1)
Gift Wrap = NO
Size = -
Price = 62.00
QTY = 1
Total = 62.00

2<Billing and Shipping Information>

Wrap note = 

<b>Billing address</b>
 Susan Estelle
1 Jay Circle

Windsor
CT&nbsp;06095
United States

<b>Delivery address</b>
Susan Estelle
1 Jay Circle

Windsor
CT06095
United States

Registered Post (6 - 10 days)

SUB total= 62.00

Delivery= 0.00

<b>TOTAL= 62.00</b>

