1<Order Number - <b>4000051338</b>>


Order Date - 2019-11-23 01:34:14
Order Status - 1 - confirmed and paid


2<Products>

<b>SHANORE</b> - Claddagh, Love, Loyalty, Friendship Silver Ring (P/N - SL1)
Gift Wrap = NO
Size = 5
Price = 56.00
QTY = 1
Total = 56.00

2<Billing and Shipping Information>

Wrap note = 

<b>Billing address</b>
 Stephen  Kelly
2295 Palmer Ave Apt 1M

New Rochelle 
NY&nbsp;10801
United States

<b>Delivery address</b>
Stephen Kelly
24 Green Lane

Levittown 
NY11756
United States

Registered Post (6 - 10 days)

SUB total= 56.00

Delivery= 0.00

<b>TOTAL= 56.00</b>

