1<Order Number - <b>4000051379</b>>


Order Date - 2019-11-25 22:36:07
Order Status - 1 - confirmed and paid


2<Products>

<b>SHANORE</b> - Silver Claddagh Bracelet with 14K Gold Plate Heart  (P/N - SB2015)
Gift Wrap = NO
Size = -
Price = 117.00
QTY = 1
Total = 117.00

<b>SHANORE</b> - Claddagh Gold Plate Silver Heart Earrings (P/N - SE2009)
Gift Wrap = NO
Size = -
Price = 81.00
QTY = 1
Total = 81.00

2<Billing and Shipping Information>

Wrap note = 

<b>Billing address</b>
 Alan Cassidy
6583 CARMEL DR

MACUNGIE
PA&nbsp;18062-8768
United States

<b>Delivery address</b>
Alan Cassidy
6583 CARMEL DR

MACUNGIE
PA18062-8768
United States

Registered Post (6 - 10 days)

SUB total= 198.00

Delivery= 0.00

<b>TOTAL= 81.00</b>

