1<Order Number - <b>4000051433</b>>


Order Date - 2019-11-28 17:40:38
Order Status - 1 - confirmed and paid


2<Products>

<b>SHANORE</b> - 3 Stone Trinity Knot Mothers Pendant  (P/N - MP3-T)
Gift Wrap = YES
Size = -
Price = 133.45
QTY = 1
Total = 133.45

2<Billing and Shipping Information>

Wrap note = 

<b>Billing address</b>
 Theresa Kabbez
171 86TH ST

Brooklyn
NY&nbsp;11209
United States

<b>Delivery address</b>
Theresa Kabbez
171 86TH ST

Brooklyn
NY11209
United States

Registered Post (6 - 10 days)

SUB total= 133.45

Delivery= 0.00

<b>TOTAL= 133.45</b>

