1<Order Number - <b>4000051536</b>>


Order Date - 2019-12-02 00:34:51
Order Status - 1 - confirmed and paid


2<Products>

<b>SHANORE</b> - Celtic Trinity Diamond & Emerald Silver Cross Necklace (P/N - SF10)
Gift Wrap = NO
Size = -
Price = 139.00
QTY = 1
Total = 139.00

2<Billing and Shipping Information>

Wrap note = 

<b>Billing address</b>
 Catherine Corless
214 89th Street

Brooklyn
NY&nbsp;11209
United States

<b>Delivery address</b>
Catherine Corless
214 89th Street

Brooklyn
NY11209
United States

Registered Post (6 - 10 days)

SUB total= 139.00

Delivery= 0.00

<b>TOTAL= 139.00</b>

