1<Order Number - <b>4000051607</b>>


Order Date - 2019-12-03 01:22:48
Order Status - 1 - confirmed and paid


2<Products>

<b>SHANORE</b> - Claddagh, Love, Loyalty, Friendship Silver Ring (P/N - SL1)
Gift Wrap = NO
Size = 8
Price = 56.00
QTY = 1
Total = 56.00

2<Billing and Shipping Information>

Wrap note = 

<b>Billing address</b>
 Anthony Hicks
265 Lee Road 537

Salem
Alabama&nbsp;36874
United States

<b>Delivery address</b>
Anthony Hicks
265 Lee Road 537

Salem
Alabama36874
United States

Fedex (1 - 2 days)

SUB total= 56.00

Delivery= 30.00

<b>TOTAL= 56.00</b>

