1<Order Number - <b>4000051841</b>>


Order Date - 2019-12-11 18:38:55
Order Status - 1 - confirmed and paid


2<Products>

<b>TARA'S DIARY</b> - Celtic Trinity Knot Cross Embellished With Swarovski  (P/N - SW64)
Gift Wrap = NO
Size = -
Price = 107.00
QTY = 1
Total = 107.00

2<Billing and Shipping Information>

Wrap note = 

<b>Billing address</b>
 Matthew  Szuba 
2425 SW Roxbury St

Seattle
Washington &nbsp;98106
United States

<b>Delivery address</b>
Amy Szuba
14102 Blackburn St

Livonia
Michigan48154
United States

Fedex (1 - 2 days)

SUB total= 107.00

Delivery= 30.00

<b>TOTAL= 107.00</b>

