1<Order Number - <b>4000051932</b>>


Order Date - 2019-12-16 02:21:52
Order Status - 1 - confirmed and paid


2<Products>

<b>SHANORE</b> - Celtic Trinity Knot Pearl Silver Ring (P/N - SRCP1)
Gift Wrap = NO
Size = 6
Price = 72.00
QTY = 1
Total = 72.00

2<Billing and Shipping Information>

Wrap note = 

<b>Billing address</b>
 Stacy Morse
3564 Hyden Rd

Spencer
Indiana&nbsp;47460
United States

<b>Delivery address</b>
Stacy Morse
3564 Hyden Rd

Spencer
Indiana47460
United States

Registered Post (6 - 10 days)

SUB total= 72.00

Delivery= 0.00

<b>TOTAL= 72.00</b>

