1<Order Number - <b>4000006076</b>>


Order Date - 2013-12-28 01:22:26
Order Status - 2 - dispatched / resolved


2<Products>

<b>SHANORE</b> - Celtic Silver Pearl Pendant (P/N - SPCP1)
Gift Wrap = NO
Size = -
Price = 65.00
QTY = 3
Total = 195.00

2<Billing and Shipping Information>

Wrap note = 

<b>Billing address</b>
 Tanya Beyer
28 Irene St

Pembroke
Ontario &nbsp;K8A 8B5
Canada

<b>Delivery address</b>
 






Registered mail (4-7 business days)
Phone:613-735-3233

SUB total= 195.00

Delivery= 0.00

<b>TOTAL= 195.00</b>

