1<Order Number - <b>4000006381</b>>


Order Date - 2014-01-25 10:36:47
Order Status - 2 - dispatched / resolved


2<Products>

<b>SHANORE</b> - Emerald and Diamond set  (P/N - 14IC30WED)
Gift Wrap = NO
Size = 6.5
Price = 475.00
QTY = 1
Total = 475.00

2<Billing and Shipping Information>

Wrap note = 

<b>Billing address</b>
 Richard Bodin
Roselawn House
New Technology Park
Limerck
Limerick&nbsp;ie123
Ireland

<b>Delivery address</b>
 






Fastway (1 day)
Phone:0876659703

SUB total= 475.00

Delivery= 0.00

<b>TOTAL= 475.00</b>

