1<Order Number - <b>4000006399</b>>


Order Date - 2014-01-27 14:42:24
Order Status - 2 - dispatched / resolved


2<Products>

<b>SHANORE</b> - Oval Sapphire and Diamond Celtic Trinity 14K White Gold 3 Stone (P/N - 14RC3ST WSD OVAL)
Gift Wrap = NO
Size = 5.5
Price = 2,020.00
QTY = 1
Total = 2,020.00

2<Billing and Shipping Information>

Wrap note = 

<b>Billing address</b>
 William Robinson
39 Lazel St

Whitman
Massachusetts&nbsp;02382
United States

<b>Delivery address</b>
Fred Birtwell Fred Birtwell
Fred Birtwell
118 Green Acres Dr
Whitman
Massachusetts02382


Fedex Priority (1-2 business days)
Phone:001-508-326-6024

SUB total= 2,020.00

Delivery= 0.00

<b>TOTAL= 2,020.00</b>

