1<Order Number - <b>4000006458</b>>


Order Date - 2014-01-30 20:29:59
Order Status - 2 - dispatched / resolved


2<Products>

<b>SHANORE</b> - Mother Trinity Pendant (P/N - MP - T)
Gift Wrap = NO
Size = <br/>More info: undefined, November, January, March, June, November
Price = 195.00
QTY = 1
Total = 195.00

2<Billing and Shipping Information>

Wrap note = 

<b>Billing address</b>
 Kelly Setser
8006 Stonemeadow Drive

Louisville
Ky&nbsp;40218
United States

<b>Delivery address</b>
 






Registered mail (4-7 business days)

SUB total= 195.00

Delivery= 0.00

<b>TOTAL= 195.00</b>

