1<Order Number - <b>4000006575</b>>


Order Date - 2014-02-07 02:52:59
Order Status - 2 - dispatched / resolved


2<Products>

<b>TARA'S DIARY STACKING RINGS</b> - "Mom and Me" Silver Shamrock Stacking ring (P/N - TD526)
Gift Wrap = NO
Size = 9
Price = 71.00
QTY = 1
Total = 71.00

2<Billing and Shipping Information>

Wrap note = 

<b>Billing address</b>
 Mike Gomes
664 Whitestag Way

Vacaville
Ca&nbsp;95687
United States

<b>Delivery address</b>
 






Registered mail (4-7 business days)
Phone:7073860347

SUB total= 71.00

Delivery= 0.00

<b>TOTAL= 71.00</b>

