1<Order Number - <b>4000006581</b>>


Order Date - 2014-02-07 18:42:05
Order Status - 2 - dispatched / resolved


2<Products>

<b>SHANORE</b> - Gents Celtic Recessed pressure set Diamond Wedding Ring (P/N - 14IC54YW)
Gift Wrap = NO
Size = 12
Price = 1,056.00
QTY = 1
Total = 1,056.00

<b>SHANORE</b> - Ladies Celtic Recessed pressure set Diamond Wedding Ring (P/N - 14IC53YW)
Gift Wrap = NO
Size = 6
Price = 660.00
QTY = 1
Total = 660.00

2<Billing and Shipping Information>

Wrap note = 

<b>Billing address</b>
 Matthew Chaplain
Anne Franklaan 233

Bussum
Noord-Holland&nbsp;1403HM
Netherlands

<b>Delivery address</b>
 






Fedex Priority (1-2 business days)
Phone: 31611261320

SUB total= 1,716.00

Delivery= 0.00

<b>TOTAL= 660.00</b>

