1<Order Number - <b>4000006598</b>>


Order Date - 2014-02-08 20:26:23
Order Status - 1 - confirmed and paid


2<Products>

<b>SHANORE</b> - Celtic Trinity Knot Pearl Silver Ring (P/N - SRCP1)
Gift Wrap = NO
Size = 8
Price = 72.00
QTY = 1
Total = 72.00

2<Billing and Shipping Information>

Wrap note = 

<b>Billing address</b>
 Maureen Harris
2516 Mira Vista Court

Modesto
CA&nbsp;95356
United States

<b>Delivery address</b>
 






Registered mail (4-7 business days)
Phone:0000000000

SUB total= 72.00

Delivery= 0.00

<b>TOTAL= 72.00</b>

