1<Order Number - <b>4000006620</b>>


Order Date - 2014-02-10 18:10:55
Order Status - 1 - confirmed and paid


2<Products>

<b>SHANORE</b> - Celtic Trinity Knot Pearl Silver Ring (P/N - SRCP1)
Gift Wrap = NO
Size = 5
Price = 72.00
QTY = 1
Total = 72.00

2<Billing and Shipping Information>

Wrap note = 

<b>Billing address</b>
 Annette Batton
9021 Pine Acres Way

Spotsylvania
Virginia&nbsp;22551
United States

<b>Delivery address</b>
 






Registered mail (4-7 business days)
Phone:1 540 604 3279

SUB total= 72.00

Delivery= 0.00

<b>TOTAL= 72.00</b>

