1<Order Number - <b>4000006654</b>>


Order Date - 2014-02-11 21:40:15
Order Status - 2 - dispatched / resolved


2<Products>

<b>SHANORE</b> - Silver Love Heart Trinity Pendant (P/N - SP2067CZ)
Gift Wrap = NO
Size = -
Price = 107.00
QTY = 1
Total = 107.00

2<Billing and Shipping Information>

Wrap note = 

<b>Billing address</b>
 Michael Chamberlin
5526 Coachmans Lane

Hamburg
NY&nbsp;14075
United States

<b>Delivery address</b>
 






Fedex Priority (1-2 business days)
Phone:716-870-7069

SUB total= 107.00

Delivery= 30.00

<b>TOTAL= 107.00</b>

