1<Order Number - <b>4000006695</b>>


Order Date - 2014-02-14 10:12:44
Order Status - 1 - confirmed and paid


2<Products>

<b>SHANORE</b> - Silver Claddagh intertwining Design (P/N - SL46)
Gift Wrap = NO
Size = 6.5
Price = 42.00
QTY = 1
Total = 42.00

2<Billing and Shipping Information>

Wrap note = 

<b>Billing address</b>
 alexander cotes
Les Palissoux

Sorges
Dordgne&nbsp;24420
France

<b>Delivery address</b>
 






Registered mail (3-8 business days)
Phone:0674592317

SUB total= 42.00

Delivery= 0.00

<b>TOTAL= 42.00</b>

