1<Order Number - <b>4000006817</b>>


Order Date - 2014-02-22 05:15:25
Order Status - 1 - confirmed and paid


2<Products>

<b>SHANORE</b> - Ladies Claddagh Comfort fit Silver Ring (P/N - SL92)
Gift Wrap = NO
Size = 7
Price = 87.00
QTY = 1
Total = 87.00

2<Billing and Shipping Information>

Wrap note = 

<b>Billing address</b>
 Steve Tovali
1640 1/2 N. Alexandria Ave. 

Los Angeles
CA&nbsp;90027
United States

<b>Delivery address</b>
Steve Tovali
1640 1/2 N. Alexandria Ave. 

Los Angeles
CA90027
United States

Registered mail (4-7 business days)
Phone:2133421255

SUB total= 87.00

Delivery= 0.00

<b>TOTAL= 87.00</b>

