1<Order Number - <b>4000006848</b>>


Order Date - 2014-02-24 04:46:02
Order Status - 2 - dispatched / resolved


2<Products>

<b>SHANORE</b> - Claddagh Pave Set Ladies Ring (P/N - SL97)
Gift Wrap = NO
Size = 6
Price = 80.00
QTY = 1
Total = 80.00

2<Billing and Shipping Information>

Wrap note = 

<b>Billing address</b>
 Kimberly Craig
23100 AVENUE SAN LUIS 
Apt 161
WOODLAND HILLS
CA - California&nbsp;91364
United States

<b>Delivery address</b>
 






Registered mail (4-7 business days)
Phone:4193561742

SUB total= 80.00

Delivery= 0.00

<b>TOTAL= 80.00</b>

