1<Order Number - <b>4000006989</b>>


Order Date - 2014-03-05 02:31:13
Order Status - 1 - confirmed and paid


2<Products>

<b>SHANORE</b> - Silver Claddagh Twist Rope Design (P/N - SL18)
Gift Wrap = NO
Size = 7
Price = 72.00
QTY = 1
Total = 72.00

2<Billing and Shipping Information>

Wrap note = 

<b>Billing address</b>
 Megan Whalen
10590 Graeloch Road

Laurel
MD&nbsp;20723
United States

<b>Delivery address</b>
 






Registered mail (4-7 business days)
Phone:3013174269

SUB total= 72.00

Delivery= 0.00

<b>TOTAL= 72.00</b>

