1<Order Number - <b>4000007042</b>>


Order Date - 2014-03-08 00:48:48
Order Status - 2 - dispatched / resolved


2<Products>

<b>SHANORE</b> - Mother Shamrock Pendant (P/N - MP - S)
Gift Wrap = NO
Size = <br/>More info: undefined, February, February, July, September
Price = 157.00
QTY = 1
Total = 157.00

2<Billing and Shipping Information>

Wrap note = 

<b>Billing address</b>
 Kathleen  Green
512 north meadow street

Allentown
Pa&nbsp;18102
United States

<b>Delivery address</b>
 






Registered mail (4-7 business days)
Phone:4846824948

SUB total= 157.00

Delivery= 0.00

<b>TOTAL= 157.00</b>

