1<Order Number - <b>4000007069</b>>


Order Date - 2014-03-09 15:12:12
Order Status - 2 - dispatched / resolved


2<Products>

<b>SHANORE</b> - Gents Wedding Ring Celtic Knot Design (P/N - 14IC18)
Gift Wrap = NO
Size = 10
Price = 1,686.00
QTY = 1
Total = 1,686.00

2<Billing and Shipping Information>

Wrap note = 

<b>Billing address</b>
 Michele McCoy
3972 Heartwood Lane

Mason
OH&nbsp;45040
United States

<b>Delivery address</b>
 






Fedex Priority (1-2 business days)
Phone:513-358-0792

SUB total= 1,686.00

Delivery= 0.00

<b>TOTAL= 1,686.00</b>

