1<Order Number - <b>4000007113</b>>


Order Date - 2014-03-12 19:50:44
Order Status - 1 - confirmed and paid


2<Products>

<b>SHANORE</b> - Mother Trinity Pendant (P/N - MP - T)
Gift Wrap = NO
Size = <br/>More info: undefined, February, September, February
Price = 157.00
QTY = 1
Total = 157.00

2<Billing and Shipping Information>

Wrap note = 

<b>Billing address</b>
 Daniel Hill
29517 Lansing Dr.

Westlake
OH&nbsp;44145
United States

<b>Delivery address</b>
 






Registered mail (4-7 business days)
Phone:4407856840

SUB total= 157.00

Delivery= 0.00

<b>TOTAL= 157.00</b>

