1<Order Number - <b>4000007158</b>>


Order Date - 2014-03-15 21:35:36
Order Status - 2 - dispatched / resolved


2<Products>

<b>SHANORE</b> - Oval Emerald and Diamond Celtic Trinity 14K White Gold 3 Stone (P/N - 14RC3ST WED OVAL)
Gift Wrap = NO
Size = 7.5
Price = 2,020.00
QTY = 1
Total = 2,020.00

<b>SHANORE</b> - Ladies Celtic Trinity Knot 3 Stone Diamond Wedding Ring (P/N - JP11WED)
Gift Wrap = NO
Size = 6
Price = 834.00
QTY = 1
Total = 834.00

2<Billing and Shipping Information>

Wrap note = 

<b>Billing address</b>
 Gill Rea
95 Lockyers Rd

Lara
Vic&nbsp;3212
Australia

<b>Delivery address</b>
 






Fedex Priority (1-5 business days)
Phone: 61 0466418318

SUB total= 2,854.00

Delivery= 0.00

<b>TOTAL= 834.00</b>

