1<Order Number - <b>4000007200</b>>


Order Date - 2014-03-19 12:33:19
Order Status - 1 - confirmed and paid


2<Products>

<b>SHANORE</b> - Ladies Silver Claddagh Celtic wedding Ring  (P/N - SD8)
Gift Wrap = NO
Size = 9
Price = 73.15
QTY = 1
Total = 73.15

2<Billing and Shipping Information>

Wrap note = 

<b>Billing address</b>
 SEAN MARSHAM
PO BOX 33907

PARALIMNI
.&nbsp;5319
Cyprus

<b>Delivery address</b>
 






Registered mail (7-14 business days)
Phone:00357 99827091

SUB total= 73.15

Delivery= 0.00

<b>TOTAL= 73.15</b>

