1<Order Number - <b>4000007202</b>>


Order Date - 2014-03-19 13:44:40
Order Status - 1 - confirmed and paid


2<Products>

<b>TARA'S DIARY</b> - Celtic Trinity Green Silver Stopper Bead (P/N - TD4GR)
Gift Wrap = NO
Size = -
Price = 57.00
QTY = 1
Total = 57.00

2<Billing and Shipping Information>

Wrap note = 

<b>Billing address</b>
 Barbara J  Petraitis
1110 N K ST

Lake Worth
FL&nbsp;33460
United States

<b>Delivery address</b>
 






Registered mail (4-7 business days)
Phone:561-827-3303

SUB total= 57.00

Delivery= 0.00

<b>TOTAL= 57.00</b>

