1<Order Number - <b>4000007214</b>>


Order Date - 2014-03-20 03:43:04
Order Status - 1 - confirmed and paid


2<Products>

<b>SHANORE</b> - Silver Celtic Knot Design Pendant (P/N - SP2066CZ)
Gift Wrap = NO
Size = -
Price = 90.00
QTY = 1
Total = 90.00

2<Billing and Shipping Information>

Wrap note = 

<b>Billing address</b>
 Brandi Cordell
12919 NE 52nd Street

Vancouver
Washington&nbsp;98682
United States

<b>Delivery address</b>
 






Registered mail (4-7 business days)
Phone:360-903-7474

SUB total= 90.00

Delivery= 0.00

<b>TOTAL= 90.00</b>

