1<Order Number - <b>4000007267</b>>


Order Date - 2014-03-24 15:28:39
Order Status - 1 - confirmed and paid


2<Products>

<b>SHANORE</b> - Claddagh Heart Set Ring (P/N - SL75GRCZ)
Gift Wrap = NO
Size = 7
Price = 46.00
QTY = 1
Total = 46.00

2<Billing and Shipping Information>

Wrap note = 

<b>Billing address</b>
 Michelle Glynn
1 Glenvale
Lucan
Dublin
Dublin&nbsp;Co.Dublin
Ireland

<b>Delivery address</b>
 




Ireland

Fastway (1 day)
Phone:0857101510

SUB total= 46.00

Delivery= 0.00

<b>TOTAL= 46.00</b>

