1<Order Number - <b>4000007302</b>>


Order Date - 2014-03-27 10:14:22
Order Status - 1 - confirmed and paid


2<Products>

<b>SHANORE</b> - Double Sided Celtic Silver Cross (P/N - SP94)
Gift Wrap = NO
Size = -
Price = 58.50
QTY = 1
Total = 58.50

<b>SHANORE</b> - Ladies Claddagh Comfort fit Silver Ring (P/N - SL92)
Gift Wrap = NO
Size = 8
Price = 87.00
QTY = 1
Total = 87.00

2<Billing and Shipping Information>

Wrap note = 

<b>Billing address</b>
 Jean-Anne O'Neill
75 Buckthorn Court

Paramus
Nj&nbsp;07652
United States

<b>Delivery address</b>
 






Registered mail (4-7 business days)
Phone:201-370-7571

SUB total= 145.50

Delivery= 0.00

<b>TOTAL= 87.00</b>

