1<Order Number - <b>4000007400</b>>


Order Date - 2014-04-02 13:18:16
Order Status - 2 - dispatched / resolved


2<Products>

<b>SHANORE</b> - Claddagh Celtic solitaire diamond 14k white gold engagement ring princess cut.  (P/N - BR2W PR)
Gift Wrap = YES
Size = 7
Price = 1,220.00
QTY = 1
Total = 1,220.00

2<Billing and Shipping Information>

Wrap note = 

<b>Billing address</b>
 Brian Cavaliere
82 Cleveland Ave

Massapequa
NY&nbsp;11758
United States

<b>Delivery address</b>
Brian Cavaliere
360 W Jericho Tpke

Syosset
NY11791
United States

Fedex Priority (1-2 business days)
Phone:5166553770

SUB total= 1,220.00

Delivery= 0.00

<b>TOTAL= 1,220.00</b>

