1<Order Number - <b>4000007595</b>>


Order Date - 2014-04-15 14:51:42
Order Status - 1 - confirmed and paid


2<Products>

<b>SHANORE</b> - Celtic Wedding Band Ladies Diamond Set (P/N - 14WS6YW2D)
Gift Wrap = NO
Size = 7
Price = 958.00
QTY = 1
Total = 958.00

<b>SHANORE</b> - Oval Sapphire and Diamond Celtic Trinity 14K Yellow and White Gold 3 Stone (P/N - 14RC3ST SD OVAL)
Gift Wrap = NO
Size = 7
Price = 2,020.00
QTY = 1
Total = 2,020.00

2<Billing and Shipping Information>

Wrap note = 

<b>Billing address</b>
 Brennan McKey
2200 Bayou Blue rd

Houma
LA&nbsp;70364
United States

<b>Delivery address</b>
 






Fedex Priority (1-2 business days)
Phone:19856474135

SUB total= 2,978.00

Delivery= 0.00

<b>TOTAL= 2,020.00</b>

