1<Order Number - <b>4000007639</b>>


Order Date - 2014-04-17 20:58:06
Order Status - 1 - confirmed and paid


2<Products>

<b>SHANORE</b> - Claddagh Pave Set Ladies Ring (P/N - SL97)
Gift Wrap = NO
Size = 5
Price = 80.00
QTY = 1
Total = 80.00

2<Billing and Shipping Information>

Wrap note = 

<b>Billing address</b>
 Jason Lynch
Po box 5041

Avalon
Ca&nbsp;90704
United States

<b>Delivery address</b>
 






Registered mail (4-7 business days)
Phone:951 323 1197

SUB total= 80.00

Delivery= 0.00

<b>TOTAL= 80.00</b>

