1<Order Number - <b>4000007686</b>>


Order Date - 2014-04-20 19:03:51
Order Status - 8 - CANCELED


2<Products>

<b>SHANORE</b> - Claddagh Silver CZ Cross with Gold Plate Heart (P/N - SF21)
Gift Wrap = NO
Size = -
Price = 89.00
QTY = 1
Total = 89.00

2<Billing and Shipping Information>

Wrap note = 

<b>Billing address</b>
 Maureen Challenger
706 Weaver Court

Wheaton
IL&nbsp;60189
United States

<b>Delivery address</b>
 






Registered mail (4-7 business days)

SUB total= 89.00

Delivery= 0.00

<b>TOTAL= 89.00</b>

