1<Order Number - <b>4000009388</b>>


Order Date - 2014-07-29 13:03:11
Order Status - 2 - dispatched / resolved


2<Products>

<b>SHANORE</b> - Celtic Wedding Band Ladies Emerald and Diamond Set (P/N - 14WS6W2ED)
Gift Wrap = NO
Size = 7.5
Price = 714.00
QTY = 1
Total = 714.00

2<Billing and Shipping Information>

Wrap note = 

<b>Billing address</b>
 Mairi Jones
2 Newlyns Meadow
Alkham
Dover
Kent&nbsp;CT15 7QJ
United Kingdom

<b>Delivery address</b>
 




null

Fedex Priority (1-5 business days)

SUB total= 714.00

Delivery= 0.00

<b>TOTAL= 714.00</b>

