1<Order Number - <b>4000009607</b>>


Order Date - 2014-08-06 15:13:07
Order Status - 1 - confirmed and paid


2<Products>

<b>SHANORE</b> - Claddagh Birthstone Pendant May  (P/N - SP91GR)
Gift Wrap = NO
Size = -
Price = 57.00
QTY = 1
Total = 57.00

2<Billing and Shipping Information>

Wrap note = 

<b>Billing address</b>
 Beatrix Plein
SALEMSTR.
13 a
REMSCHEID
NRW&nbsp;42853
Germany

<b>Delivery address</b>
 






Registered mail (3-8 business days)

SUB total= 57.00

Delivery= 0.00

<b>TOTAL= 57.00</b>

