1<Order Number - <b>4000009946</b>>


Order Date - 2014-08-23 01:27:20
Order Status - 1 - confirmed and paid


2<Products>

<b>SHANORE</b> - Mother Shamrock Pendant (P/N - MP - S)
Gift Wrap = NO
Size = <br/>More info: undefined, January, June, September, November, December
Price = 195.00
QTY = 1
Total = 195.00

2<Billing and Shipping Information>

Wrap note = 

<b>Billing address</b>
 william colegrove jr
6157wilsonrd

marshall
va&nbsp;20115
United States

<b>Delivery address</b>
 






Registered mail (4-7 business days)

SUB total= 195.00

Delivery= 0.00

<b>TOTAL= 195.00</b>

