1<Order Number - <b>4000009993</b>>


Order Date - 2014-08-25 22:38:11
Order Status - 1 - confirmed and paid


2<Products>

<b>SHANORE</b> - Gent Silver Celtic Knot Wedding Ring (P/N - SD11)
Gift Wrap = NO
Size = 11
Price = 132.00
QTY = 1
Total = 132.00

2<Billing and Shipping Information>

Wrap note = 

<b>Billing address</b>
 Robert Walsh
18 Wood View Drive 

Mount Laurel 
NJ&nbsp;08054
United States

<b>Delivery address</b>
 






Registered mail (4-7 business days)

SUB total= 132.00

Delivery= 0.00

<b>TOTAL= 132.00</b>

